// Choreo version 1
actor "odell"
{
  channel "look at"
  {
    event lookat "Odell"
    {
      time 0.046666 7.339999
      ramp 0.85 0.87 0.63
      param "Odell"
    }
  }
  channel "audio"
  {
    event speak "warmer"
    {
      time 0.260000 7.327936
      ramp 1.00 1.00 1.00
      param "vo\borealis\Odell_09.wav"
    }
  }
}

