// Choreo version 1
actor "odell"
{
  channel "look at"
  {
    event lookat "player"
    {
      time 0.046666 1.146666
      ramp 0.85 0.87 0.64
      param "Player"
    }
  }
  channel "audio"
  {
    event speak "warmer"
    {
      time 0.260000 1.132018
      ramp 1.00 1.00 1.00
      param "vo\borealis\odell_comeon_03.wav"
    }
  }
}

