// Created by Crowbar 0.56

$modelname "props_docks/dock02_pole01a.mdl"

$staticprop

$bodygroup "Body"
{
	studio "dock02_pole01a_reference.smd"
}


$surfaceprop "metal"

$contents "solid"

$illumposition 0 0 0

$cdmaterials "models\props_docks\"

$cbox 0 0 0 0 0 0

$bbox -18.46 -18.935 -255.906 18.46 18.935 255.906

$definebone "static_prop" "" 0 0 0 0 0 0 0 0 0 0 0 0

$animation "a_idle" "dock02_pole01a_anims\idle.smd" {
	fps 30
}

$sequence "idle" {
	"a_idle"
	fadein 0.2
	fadeout 0.2
	fps 30
}


$collisionmodel "dock02_pole01a_physics.smd"
{
	$mass 10
	$inertia 1
	$damping 0
	$rotdamping 0
	$rootbone " "
	$concave

}
