// Created by Crowbar 0.56

$modelname "props_docks/dock_broken01b_256.mdl"

$staticprop

$bodygroup "Body"
{
	studio "dock_broken01b_256_reference.smd"
}


$surfaceprop "metal"

$contents "solid"

$illumposition 10.912 0 -0.885

$cdmaterials "models\props_docks\"

$cbox 0 0 0 0 0 0

$bbox -254.649 -88.93 -128.5 254.649 110.753 126.73

$definebone "static_prop" "" 0 0 0 0 0 0 0 0 0 0 0 0

$animation "a_idle" "dock_broken01b_256_anims\idle.smd" {
	fps 30
}

$sequence "idle" {
	"a_idle"
	fadein 0.2
	fadeout 0.2
	fps 30
}


$collisionmodel "dock_broken01b_256_physics.smd"
{
	$mass 1225.73
	$inertia 1
	$damping 0
	$rotdamping 0
	$rootbone " "
	$concave

}
