// Created by Crowbar 0.56

$modelname "props_docks/dock_broken01a_256.mdl"

$staticprop

$bodygroup "Body"
{
	studio "dock_broken01a_256_reference.smd"
}

$lod 30
{
	replacemodel "dock_broken01a_256_reference.smd" "dock_broken01a_256_reference_lod1.smd"
}
$lod 60
{
	replacemodel "dock_broken01a_256_reference.smd" "dock_broken01a_256_reference_lod2.smd"
}
$lod 80
{
	replacemodel "dock_broken01a_256_reference.smd" "dock_broken01a_256_reference_lod3.smd"
}
$lod 100
{
	replacemodel "dock_broken01a_256_reference.smd" "dock_broken01a_256_reference_lod4.smd"
}

$surfaceprop "metal"

$contents "solid"

$illumposition 0 0.13 0.033

$cdmaterials "models\props_docks\"

$cbox 0 0 0 0 0 0

$bbox -254.562 -90.402 -129.414 254.302 90.402 129.479

$definebone "static_prop" "" 0 0 0 0 0 0 0 0 0 0 0 0

$animation "a_idle" "dock_broken01a_256_anims\idle.smd" {
	fps 30
}

$sequence "idle" {
	"a_idle"
	fadein 0.2
	fadeout 0.2
	fps 30
}


$collisionmodel "dock_broken01a_256_physics.smd"
{
	$mass 1260.124
	$inertia 1
	$damping 0
	$rotdamping 0
	$rootbone " "
	$concave

}
