// Created by Crowbar 0.56

$modelname "props_docks/dock_bumper01c_256.mdl"

$staticprop

$bodygroup "Body"
{
	studio "dock_bumper01c_256_reference.smd"
}


$surfaceprop "wood"

$contents "solid"

$illumposition 0 0 0

$cdmaterials "models\props_docks\"

$cbox 0 0 0 0 0 0

$bbox -16.844 -255.121 -128.797 16.844 255.121 128.797

$definebone "static_prop" "" 0 0 0 0 0 0 0 0 0 0 0 0

$animation "a_idle" "dock_bumper01c_256_anims\idle.smd" {
	fps 30
}

$sequence "idle" {
	"a_idle"
	fadein 0.2
	fadeout 0.2
	fps 30
}


$collisionmodel "dock_bumper01c_256_physics.smd"
{
	$mass 10
	$inertia 1
	$damping 0
	$rotdamping 0
	$rootbone " "
	$concave

}
