// Created by Crowbar 0.56

$modelname "props_docks/dock_broken01a.mdl"

$staticprop

$bodygroup "Body"
{
	studio "dock_broken01a_reference.smd"
}


$surfaceprop "metal"

$contents "solid"

$illumposition -3.754 0.13 0.934

$cdmaterials "models\props_docks\"

$cbox 0 0 0 0 0 0

$bbox -254.562 -94.156 -257.089 254.302 86.647 258.957

$definebone "static_prop" "" 0 0 0 0 0 0 0 0 0 0 0 0

$animation "a_idle" "dock_broken01a_anims\idle.smd" {
	fps 30
}

$sequence "idle" {
	"a_idle"
	fadein 0.2
	fadeout 0.2
	fps 30
}


$collisionmodel "dock_broken01a_physics.smd"
{
	$mass 10
	$inertia 1
	$damping 0
	$rotdamping 0
	$rootbone " "
	$concave

}
