// Created by Crowbar 0.56

$modelname "props_docks/dock01_polecluster01c.mdl"

$staticprop

$bodygroup "Body"
{
	studio "dock01_polecluster01c_reference.smd"
}


$surfaceprop "wood"

$contents "solid"

$illumposition -3.459 1.264 -0.06

$cdmaterials "models\props_docks\"

$cbox 0 0 0 0 0 0

$bbox -13.97 -95.984 -255.896 11.442 89.066 255.776

$definebone "static_prop" "" 0 0 0 0 0 0 0 0 0 0 0 0

$animation "a_idle" "dock01_polecluster01c_anims\idle.smd" {
	fps 30
}

$sequence "idle" {
	"a_idle"
	fadein 0.2
	fadeout 0.2
	fps 30
}


$collisionmodel "dock01_polecluster01c_physics.smd"
{
	$mass 10
	$inertia 1
	$damping 0
	$rotdamping 0
	$rootbone " "
	$concave

}
