// Created by Crowbar 0.56

$modelname "props_docks/dock03_pole01a_256.mdl"

$staticprop

$bodygroup "Body"
{
	studio "dock03_pole01a_256_reference.smd"
}


$surfaceprop "wood"

$contents "solid"

$illumposition 0 0 0

$cdmaterials "models\props_docks\"

$cbox 0 0 0 0 0 0

$bbox -8.839 -8.839 -98.371 8.839 8.839 98.371

$definebone "static_prop" "" 0 0 0 0 0 0 0 0 0 0 0 0

$animation "a_idle" "dock03_pole01a_256_anims\idle.smd" {
	fps 30
}

$sequence "idle" {
	"a_idle"
	fadein 0.2
	fadeout 0.2
	fps 30
}


$collisionmodel "dock03_pole01a_256_physics.smd"
{
	$mass 465.8459
	$inertia 1
	$damping 0
	$rotdamping 0
	$rootbone " "
	$concave

}
