// Created by Crowbar 0.56

$modelname "props_docks/prefab_piling01b.mdl"

$staticprop

$bodygroup "Body"
{
	studio "prefab_piling01b_reference.smd"
}


$surfaceprop "wood"

$contents "solid"

$illumposition 0 18.82 0

$cdmaterials "models\props_docks\"

$cbox 0 0 0 0 0 0

$bbox -464.001 -801.189 -112.735 426.362 801.189 112.735

$definebone "static_prop" "" 0 0 0 0 0 0 0 0 0 0 0 0

$animation "a_idle" "prefab_piling01b_anims\idle.smd" {
	fps 30
}

$sequence "idle" {
	"a_idle"
	fadein 0.2
	fadeout 0.2
	fps 30
}


$collisionmodel "prefab_piling01b_physics.smd"
{
	$mass 2792.873
	$inertia 1
	$damping 0
	$rotdamping 0
	$rootbone " "
	$concave

}
