// Created by Crowbar 0.56

$modelname "perftest/gman.mdl"

$bodygroup "studio"
{
	studio "gman_reference.smd"
}


$contents "solid"

$illumposition -0.965 0.173 36.695

$cdmaterials "perftest\gman\"

$cbox 0 0 0 0 0 0

$bbox -7.814 -12.437 0.067 7.469 10.506 73.324

$definebone "Bip01" "" 0.233029 0 40.606453 0 -89.999928 0 0 0 0 0 0 0
$definebone "Bip01 Pelvis" "Bip01" 0 0 0 -89.999983 -89.999928 0 0 0 0 0 0 0
$definebone "Bip01 L Leg" "Bip01 Pelvis" -0.000004 0.000008 3.894398 0.999552 -175.234884 -179.999938 0 0 0 0 0 0
$definebone "Bip01 L Leg1" "Bip01 L Leg" 19.471992 0 0 0 -0.964517 0 0 0 0 0 0 0
$definebone "Bip01 L Foot" "Bip01 L Leg1" 18.723072 0 0 0.99603 5.730323 0.083022 0 0 0 0 0 0
$definebone "Bip01 R Leg" "Bip01 Pelvis" 0.000004 -0.000003 -3.894398 -1.49918 -175.234884 -179.999938 0 0 0 0 0 0
$definebone "Bip01 R Leg1" "Bip01 R Leg" 19.471998 0 0 0 -0.964517 0 0 0 0 0 0 0
$definebone "Bip01 R Foot" "Bip01 R Leg1" 18.730198 0 0 -1.494045 5.73124 -0.124561 0 0 0 0 0 0
$definebone "Bip01 Spine" "Bip01 Pelvis" 1.362617 -0.004008 0.000002 -0.000115 -5.951312 -0.000229 0 0 0 0 0 0
$definebone "Bip01 Spine1" "Bip01 Spine" 5.06272 -0.004031 0 0 0 0 0 0 0 0 0 0
$definebone "Bip01 Spine2" "Bip01 Spine1" 5.062715 -0.004031 0 0 0 0 0 0 0 0 0 0
$definebone "Bip01 Spine3" "Bip01 Spine2" 5.062716 -0.004031 0 0 0 0 0 0 0 0 0 0
$definebone "Bip01 Neck" "Bip01 Spine3" 5.063678 -0.002637 0 -0.000057 19.989867 0 0 0 0 0 0 0
$definebone "Bip01 Head" "Bip01 Neck" 3.524433 0.000001 0 0 -2.544448 0 0 0 0 0 0 0
$definebone "Dummy25" "Bip01 Head" 1.053401 1.161956 -0.089745 -89.980216 -101.494092 0 0 0 0 0 0 0
$definebone "Bone11" "Dummy25" -0.143281 -0.212414 0.54166 89.999983 0 0 0 0 0 0 0 0
$definebone "Dummy24" "Bip01 Head" 1.775883 3.407691 -0.103359 -89.980216 -101.494092 0 0 0 0 0 0 0
$definebone "Bone09" "Dummy24" -0.129664 -0.0413 0.366685 89.999983 0 0 0 0 0 0 0 0
$definebone "Dummy22" "Bip01 Head" 4.785066 3.367168 -0.198675 -89.980216 -101.494092 0 0 0 0 0 0 0
$definebone "Bone05" "Dummy22" -0.034351 -0.058634 0.413345 89.999983 0 0 0 0 0 0 0 0
$definebone "Bip01 L Arm" "Bip01 Neck" 0.000002 0.002801 1.947199 -78.540886 159.965231 -0.000745 0 0 0 0 0 0
$definebone "Bip01 L Arm1" "Bip01 L Arm" 3.924588 0 0 44.546327 10.56586 10.763929 0 0 0 0 0 0
$definebone "Bip01 L Arm2" "Bip01 L Arm1" 11.683198 0 -0.000001 0.000002 -11.459154 -0.000001 0 0 0 0 0 0
$definebone "Bip01 L Hand" "Bip01 L Arm2" 9.127501 0 -0.000002 -8.995433 0 -89.954378 0 0 0 0 0 0
$definebone "Bip01 L Finger0" "Bip01 L Hand" 1.121882 -0.136173 -1.889931 0.024178 31.983758 -0.038674 0 0 0 0 0 0
$definebone "Bip01 L Finger01" "Bip01 L Finger0" 0.973599 -0.000001 0 -0.000001 -0.000005 0.000001 0 0 0 0 0 0
$definebone "Bip01 L Finger02" "Bip01 L Finger01" 0.973604 -0.000002 0 -0.000001 -0.000005 0.000001 0 0 0 0 0 0
$definebone "Bip01 L Finger2" "Bip01 L Hand" 3.87943 -0.278596 -0.39841 0.024808 32.98323 -0.038273 0 0 0 0 0 0
$definebone "Bip01 L Finger21" "Bip01 L Finger2" 1.363036 -0.000001 0 -0.000001 -0.000003 0.000001 0 0 0 0 0 0
$definebone "Bip01 L Finger22" "Bip01 L Finger21" 1.363036 0 0 -0.000001 -0.000003 0.000001 0 0 0 0 0 0
$definebone "Bip01 R Arm" "Bip01 Neck" 0.000002 0.002812 -1.947199 78.540763 159.963797 -0.000745 0 0 0 0 0 0
$definebone "Bip01 R Arm1" "Bip01 R Arm" 4.364412 0 0 -44.637595 9.875845 -10.279495 0 0 0 0 0 0
$definebone "Bip01 R Arm2" "Bip01 R Arm1" 11.683196 0 -0.000001 0 -11.459156 0 0 0 0 0 0 0
$definebone "Bip01 R Hand" "Bip01 R Arm2" 10.5254 0 -0.000003 0 0 89.954378 0 0 0 0 0 0
$definebone "Bip01 R Finger0" "Bip01 R Hand" 0.400664 -0.095809 1.478652 -0.029908 40.979202 0.034435 0 0 0 0 0 0
$definebone "Bip01 R Finger01" "Bip01 R Finger0" 0.973597 0.000002 0 0.000001 -0.000002 0 0 0 0 0 0 0
$definebone "Bone01" "Bip01 R Hand" 4.131969 0.766854 0.02446 -5.204062 122.859285 7.91123 0 0 0 0 0 0
$definebone "Bone02" "Bone01" -4.959962 -8.734735 0 -0.000001 0.000001 0.000001 0 0 0 0 0 0
$definebone "Bone03" "Bone02" -0.715329 0.412183 0 -0.000001 0.000001 0.000001 0 0 0 0 0 0

$animation "a_idle01" "gman_anims\idle01.smd" {
	fps 13
	loop
}

$animation "a_idlebrush" "gman_anims\idlebrush.smd" {
	fps 18
}

$animation "a_idlelook" "gman_anims\idlelook.smd" {
	fps 14
}

$animation "a_idle02" "gman_anims\idle02.smd" {
	fps 14
}

$animation "a_open" "gman_anims\open.smd" {
	fps 22
}

$animation "a_stand" "gman_anims\stand.smd" {
	fps 20
}

$animation "a_walk" "gman_anims\walk.smd" {
	fps 22
	loop
	walkframe 20 LX
}

$animation "a_yes" "gman_anims\yes.smd" {
	fps 16
}

$animation "a_no" "gman_anims\no.smd" {
	fps 14
}

$animation "a_bigno" "gman_anims\bigno.smd" {
	fps 18
}

$animation "a_bigyes" "gman_anims\bigyes.smd" {
	fps 18
}

$animation "a_listen" "gman_anims\listen.smd" {
	fps 14
}

$animation "a_lookdown" "gman_anims\lookdown.smd" {
	fps 14
	loop
}

$animation "a_lookdown2" "gman_anims\lookdown2.smd" {
	fps 14
	loop
}

$sequence "idle01" {
	"a_idle01"
	activity "ACT_IDLE" 40
	fadein 0.2
	fadeout 0.2
	fps 13
	loop
}

$sequence "idlebrush" {
	"a_idlebrush"
	activity "ACT_IDLE" 4
	fadein 0.2
	fadeout 0.2
	fps 18
}

$sequence "idlelook" {
	"a_idlelook"
	activity "ACT_IDLE" 1
	fadein 0.2
	fadeout 0.2
	fps 14
}

$sequence "idle02" {
	"a_idle02"
	activity "ACT_IDLE" 35
	fadein 0.2
	fadeout 0.2
	fps 14
}

$sequence "open" {
	"a_open"
	activity "ACT_IDLE" 1
	fadein 0.2
	fadeout 0.2
	fps 22
}

$sequence "stand" {
	"a_stand"
	activity "ACT_IDLE" 14
	fadein 0.2
	fadeout 0.2
	fps 20
}

$sequence "walk" {
	"a_walk"
	activity "ACT_WALK" 1
	fadein 0.2
	fadeout 0.2
	fps 22
	loop
}

$sequence "yes" {
	"a_yes"
	fadein 0.2
	fadeout 0.2
	fps 16
}

$sequence "no" {
	"a_no"
	fadein 0.2
	fadeout 0.2
	fps 14
}

$sequence "bigno" {
	"a_bigno"
	fadein 0.2
	fadeout 0.2
	fps 18
}

$sequence "bigyes" {
	"a_bigyes"
	fadein 0.2
	fadeout 0.2
	fps 18
}

$sequence "listen" {
	"a_listen"
	fadein 0.2
	fadeout 0.2
	fps 14
}

$sequence "lookdown" {
	"a_lookdown"
	fadein 0.2
	fadeout 0.2
	fps 14
	loop
}

$sequence "lookdown2" {
	"a_lookdown2"
	fadein 0.2
	fadeout 0.2
	fps 14
	loop
}

