// Created by Crowbar 0.56

$modelname "props_foliage/driftwood_01a.mdl"

$staticprop

$bodygroup "Body"
{
	studio "driftwood_01a_reference.smd"
}


$surfaceprop "wood"

$contents "solid"

$illumposition 0.899 -11.931 18.604

$cdmaterials "models\props_foliage\"

$cbox 0 0 0 0 0 0

$bbox -188.154 -18.144 0.971 212.015 19.942 36.237

$definebone "static_prop" "" 0 0 0 0 0 0 0 0 0 0 0 0

$animation "a_idle" "driftwood_01a_anims\idle.smd" {
	fps 30
}

$sequence "idle" {
	"a_idle"
	fadein 0.2
	fadeout 0.2
	fps 30
}

