// Created by Crowbar 0.56

$modelname "props_foliage/driftwood_clump_02a.mdl"

$staticprop

$bodygroup "Body"
{
	studio "driftwood_clump_02a.smd"
}


$surfaceprop "wood"

$contents "solid"

$illumposition 4.578 22.312 27.949

$cdmaterials "models\props_foliage\"

$cbox 0 0 0 0 0 0

$bbox -141.462 -189.491 -1.205 96.838 198.646 57.102

$definebone "static_prop" "" 0 0 0 0 0 0 0 0 0 0 0 0

$animation "a_idle" "driftwood_clump_02a_anims\idle.smd" {
	fps 30
}

$sequence "idle" {
	"a_idle"
	fadein 0.2
	fadeout 0.2
	fps 30
}


$collisionmodel "driftwood_clump_02a_physics.smd"
{
	$mass 20
	$inertia 1
	$damping 0
	$rotdamping 0
	$rootbone " "
	$concave

}
