// Created by Crowbar 0.56

$modelname "props_foliage/Grass_tuft_004b.mdl"

$staticprop

$bodygroup "Body"
{
	studio "Grass_tuft_004b.smd"
}


$contents "solid"

$illumposition 0 -0.003 15.062

$cdmaterials "models\props_foliage\"

$cbox 0 0 0 0 0 0

$bbox -15.075 -15.075 -0.013 15.081 15.075 30.138

$definebone "static_prop" "" 0 0 0 0 0 0 0 0 0 0 0 0

$animation "a_idle" "Grass_tuft_004b_anims\idle.smd" {
	fps 5
	loop
}

$sequence "idle" {
	"a_idle"
	fadein 0.2
	fadeout 0.2
	fps 5
	loop
}

