// Created by Crowbar 0.56

$modelname "props_foliage/treepine01b.mdl"

$staticprop

$bodygroup "Body"
{
	studio "treepine01b.smd"
}


$surfaceprop "wood"

$contents "solid"

$illumposition 0 -0.57 297.347

$cdmaterials "models\props_foliage\"

$cbox 0 0 0 0 0 0

$bbox -131.126 -138.876 -0.122 132.266 138.876 594.817

$definebone "static_prop" "" 0 0 0 0 0 0 0 0 0 0 0 0

$animation "a_idle" "treepine01b_anims\idle.smd" {
	fps 5
	loop
}

$sequence "idle" {
	"a_idle"
	fadein 0.2
	fadeout 0.2
	fps 5
	loop
}


$collisionmodel "treepine01b_physics.smd"
{
	$mass 50
	$inertia 1
	$damping 0
	$rotdamping 0
	$rootbone " "

}
