// Created by Crowbar 0.56

$modelname "props_foliage/treepine02c.mdl"

$staticprop

$bodygroup "Body"
{
	studio "treepine02c.smd"
}


$surfaceprop "wood"

$contents "solid"

$illumposition 0.829 33.067 133.286

$cdmaterials "models\props_foliage\"

$cbox 0 0 0 0 0 0

$bbox -131.055 -64.717 -0.012 64.921 66.374 266.583

$definebone "static_prop" "" 0 0 0 0 0 0 0 0 0 0 0 0

$animation "a_idle" "treepine02c_anims\idle.smd" {
	fps 5
	loop
}

$sequence "idle" {
	"a_idle"
	fadein 0.2
	fadeout 0.2
	fps 5
	loop
}


$collisionmodel "treepine02c_physics.smd"
{
	$mass 50
	$inertia 1
	$damping 0
	$rotdamping 0
	$rootbone " "

}
