// Created by Crowbar 0.56

$modelname "props_foliage/treemaple01a.mdl"

$staticprop

$bodygroup "Body"
{
	studio "treemaple01a.smd"
}


$surfaceprop "wood"

$contents "solid"

$illumposition 15.94 -0.901 169.406

$cdmaterials "models\props_foliage\"

$cbox 0 0 0 0 0 0

$bbox -131.812 -120.376 -0.006 133.615 152.256 338.818

$definebone "static_prop" "" 0 0 0 0 0 0 0 0 0 0 0 0

$animation "a_idle" "treemaple01a_anims\idle.smd" {
	fps 5
	loop
}

$sequence "idle" {
	"a_idle"
	fadein 0.2
	fadeout 0.2
	fps 5
	loop
}


$collisionmodel "treemaple01a_physics.smd"
{
	$mass 50
	$inertia 1
	$damping 0
	$rotdamping 0
	$rootbone " "

}
