// Created by Crowbar 0.56

$modelname "props_vents/vent_small_corner001.mdl"

$staticprop

$bodygroup "Body"
{
	studio "vent_small_corner001_reference.smd"
}


$surfaceprop "metal"

$contents "solid"

$illumposition 0 -2.509 0

$cdmaterials "models\props_vents\"

$texturegroup "skinfamilies"
{
	{ "borealis_vent001"  }
	{ "borealis_vent001b" }
	{ "borealis_vent001c" }
}

$cbox 0 0 0 0 0 0

$bbox -3.491 -6 -2 8.509 6 2

$definebone "static_prop" "" 0 0 0 0 0 0 0 0 0 0 0 0

$animation "a_idle" "vent_small_corner001_anims\idle.smd" {
	fps 30
}

$sequence "idle" {
	"a_idle"
	fadein 0.2
	fadeout 0.2
	fps 30
}


$collisionmodel "vent_small_corner001_physics.smd"
{
	$mass 5
	$inertia 1
	$damping 0
	$rotdamping 0
	$rootbone " "
	$concave

}
