// Choreo version 1
actor "gman"
{
  channel "audio"
  {
    event speak "payattention"
    {
      time 0.213334 7.005897
      param "vo\gman_misc\gman_10.wav"
      fixedlength
    }
  }
  channel "face"
  {
    event flexanimation "face"
    {
      time 0.213333 7.073333
      param ""
      flexanimations samples_use_time
      {
        "lid_raiser"         combo        
        {
          0.2980 0.5100
          1.0577 0.8800
          1.3231 0.9600
          2.0573 0.9600
          3.3239 0.0200
          4.6436 0.3300
          4.9509 0.7500
          5.6164 0.0000
          6.4044 0.1100
        }
        {
          0.2980 0.5000
          1.0577 0.5000
          1.4054 0.5000
          2.0573 0.5000
          2.7015 0.5000
          3.4611 0.5000
          4.6436 0.5000
          4.9509 0.5000
          5.6164 0.5000
          6.4044 0.5000
        }
        "lid_tightener"         combo        
        {
          0.2980 0.5200
          1.0577 0.4600
          1.3231 0.6100
          2.1900 0.8000
          3.1823 0.3900
          3.3356 0.0700
          3.9007 0.4900
          4.6436 0.5200
          4.9509 0.5200
          5.6164 1.0000
          6.4044 0.7100
        }
        {
          0.2980 0.5000
          1.0577 0.5000
          1.4054 0.5000
          2.0573 0.5000
          2.1900 0.5000
          2.7015 0.5000
          3.4728 0.5000
          3.6812 0.5000
          4.6436 0.5000
          4.9509 0.5000
          4.9716 0.5000
          5.6164 0.5000
          6.4044 0.5000
        }
        "lid_droop"         combo        
        {
          0.2980 0.1200
          1.0577 0.1800
          1.2271 0.5500
          1.6119 0.7100
          2.1900 0.7500
          2.8638 0.7400
          3.2091 0.4100
          3.3239 0.1400
          3.9693 0.2400
          4.6436 0.4800
          4.9509 0.1900
          5.6164 0.8100
          6.4044 0.2000
        }
        {
          0.2980 0.5000
          1.0577 0.5000
          1.4054 0.5000
          2.0573 0.5000
          2.1900 0.5000
          2.7015 0.5000
          3.4611 0.5000
          3.6812 0.5000
          4.6436 0.5000
          4.9509 0.5000
          4.9716 0.5000
          5.6164 0.5000
          6.4044 0.5000
        }
        "inner_raiser"         combo        
        {
          0.2980 0.0800
          1.0577 0.0400
          1.3231 0.0000
          3.2777 0.0300
          3.3513 0.4400
          3.6454 0.3300
          4.2916 0.0700
          4.4455 0.0000
          5.0621 0.0000
          5.6720 0.0000
          6.3895 0.0000
          6.4044 0.0000
        }
        {
          0.2980 0.5000
          1.0577 0.5000
          1.4054 0.5000
          2.0573 0.5000
          2.7015 0.5000
          3.4611 0.5000
          3.6454 0.5000
          4.2916 0.5000
          4.4455 0.5000
          5.0621 0.5000
          5.6720 0.5000
          6.3895 0.5000
          6.4044 0.5000
        }
        "outer_raiser"         combo        
        {
          0.1047 0.1800
          0.1951 0.5900
          0.2814 0.7200
          0.5609 0.7500
          0.9064 0.7500
          1.0799 0.4800
          1.1467 0.0900
          1.3231 0.0000
          3.2503 0.0600
          3.3513 0.5500
          3.6454 0.4100
          4.2397 0.3700
          4.7306 0.4800
          4.8563 0.7800
          5.0875 0.9000
          5.1781 0.7000
          5.2345 0.1800
          5.6586 0.0000
          6.3895 0.1000
        }
        {
          0.1904 0.5000
          0.2980 0.5000
          0.5609 0.5000
          1.0059 0.5000
          1.0577 0.5000
          1.4054 0.5000
          2.0573 0.5000
          2.7015 0.5000
          3.4611 0.5000
          3.6454 0.5000
          4.2916 0.5000
          4.4455 0.5000
          5.0621 0.5000
          5.6720 0.5000
          6.3895 0.5000
          6.4044 0.5000
        }
        "cheek_raiser"         combo        
        {
          0.2980 0.3200
          1.0577 0.2500
          1.3231 0.0000
          2.0573 0.0000
          2.7015 0.1100
        }
        {
          0.2980 0.5000
          1.0577 0.5000
          1.4054 0.5000
          2.0573 0.5000
          2.7015 0.5000
        }
        "wrinkler"        
        {
          0.2980 0.3400
          1.0577 0.3400
          1.3231 0.7300
          2.0573 0.2500
          2.7015 0.2400
          3.3239 0.2600
        }
        "upper_raiser"         disabled         combo        
        {
          0.1904 0.0000
          0.2980 0.2900
          0.5609 0.0000
          1.0059 0.0000
          1.0577 0.2900
          1.3231 0.6800
          2.0573 0.3800
          2.7015 0.3100
        }
        {
          0.1904 0.5000
          0.2980 0.5000
          0.5609 0.5000
          1.0059 0.5000
          1.0577 0.5000
          1.4054 0.5000
          2.0573 0.5000
          2.7015 0.5000
        }
        "corner_puller"         combo        
        {
          0.2980 0.0000
          1.0577 0.0000
          1.3231 0.0000
          2.0573 0.0000
          3.3239 0.0000
          6.0456 0.1400
        }
        {
          0.2980 0.5000
          1.0577 0.5000
          1.4054 0.5000
          2.0573 0.5000
          3.4611 0.5000
          6.0456 0.5000
        }
        "chin_raiser"        
        {
          0.2980 0.2400
          1.0577 0.0000
          1.3231 0.1900
          2.0573 0.1900
        }
        "blink"        
        {
          2.7015 0.1100
        }
        "dilator"        
        {
          2.7015 0.4900
          3.3239 0.2800
        }
        "corner_depressor"        
        {
          2.7015 0.0000
          3.3239 0.1000
          6.0456 0.2300
        }
        "funneler"         disabled         combo        
        {
          0.1904 0.1500
          0.5609 0.1500
          1.0059 0.1500
          3.3239 0.0000
        }
        {
          0.1904 0.5000
          0.5609 0.5000
          1.0059 0.5000
          3.4611 0.5000
        }
        "stretcher"         disabled         combo        
        {
          0.1904 0.0000
          0.5609 0.0000
          1.0059 0.0000
          3.3239 0.3000
        }
        {
          0.1904 0.5000
          0.5609 0.5000
          1.0059 0.5000
          3.4611 0.5000
        }
        "jaw_clencher"         disabled        
        {
          0.0455 0.0000
          0.1904 0.0000
          0.3353 0.8000
          0.5609 0.0000
          0.7354 0.2000
          1.0059 0.0000
          6.0456 0.3900
        }
        "jaw_drop"         disabled        
        {
          0.0455 0.2900
          0.1904 0.2000
          0.2470 0.4200
          0.3497 0.2600
          0.5609 0.5500
          0.7053 0.1100
          0.8758 0.0500
          1.2549 0.4800
          1.5475 0.1300
          1.7862 0.3000
          2.0920 0.2600
          2.3615 0.3600
          2.9805 0.1600
          3.2123 0.4300
          3.3892 0.0800
          3.9306 0.6400
          4.1496 0.1300
          4.6988 0.6200
          4.9072 0.3300
          5.2064 0.6700
          5.7540 0.2600
          6.2201 0.1700
        }
        "part"         disabled         combo        
        {
          0.1904 0.0000
          0.5609 0.0000
          1.0059 0.0000
        }
        {
          0.1904 0.5000
          0.5609 0.5000
          1.0059 0.5000
        }
        "puckerer"         disabled         combo        
        {
          0.1904 0.4600
          0.5609 0.2800
          3.4648 0.1200
        }
        {
          0.1904 0.5000
          0.5609 0.5000
          1.0059 0.5000
        }
        "bite"         disabled        
        {
          0.1904 0.0000
          0.5609 0.0000
          1.0059 0.0000
        }
        "presser"         disabled        
        {
          0.1904 0.0000
          0.5609 0.0000
          1.0059 0.0000
        }
        "tightener"         disabled        
        {
          0.1904 0.2400
          0.5609 0.2400
          1.0059 0.2400
        }
        "mouth_drop"         disabled         combo        
        {
          0.1904 0.0000
          0.5609 0.0000
          1.0059 0.0000
        }
        {
          0.1904 0.5000
          0.5609 0.5000
          1.0059 0.5000
        }
        "head_rightleft"         range 55.0 -55.0        
        {
          0.5609 0.4900
          1.0059 0.4900
        }
        "head_updown"         range 35.0 -30.0        
        {
          0.1743 0.5700
          0.3724 0.5600
          1.0018 0.5400
          1.2076 0.4900
          1.4094 0.5100
          1.7153 0.5000
          2.4423 0.4900
          2.9678 0.4900
          3.2035 0.5100
          3.3116 0.5800
          3.5340 0.5700
          4.6246 0.6000
          5.0124 0.6200
          5.1706 0.4400
          5.4238 0.4200
          6.4316 0.4300
        }
        "head_tilt"         range 18.0 -18.0        
        {
          0.5609 0.4600
          1.0059 0.4900
          3.1336 0.5000
          3.3944 0.5500
          4.0390 0.5400
          5.0449 0.6100
        }
        "lowerer"         combo        
        {
          0.2339 0.0200
          1.0309 0.1500
          1.2523 0.2700
          1.4904 0.3500
          2.9331 0.3300
          3.1688 0.2500
          3.3243 0.1000
          3.6823 0.2600
          4.9518 0.0600
          5.1784 0.0700
          5.2830 0.1600
          5.3699 0.6500
          5.4940 0.7900
          5.7466 0.6900
          6.1309 0.6200
          6.5649 0.5000
        }
        {
          1.2708 0.5000
        }
        "body_updown"         range 40.0 -20.0        
        {
          0.2027 0.6900
          1.4449 0.6700
          2.6295 0.6700
          3.0259 0.6600
          3.2129 0.6600
          3.3327 0.6800
          3.6923 0.6800
          4.2461 0.6800
          4.6389 0.6700
          5.0645 0.6800
          5.1559 0.6600
          5.5327 0.6600
        }
      }
    }
  }
  channel "lookat"
  {
    event lookat "lookat"
    {
      time 0.033332 7.326667
      param "!player"
      event_ramp
      {
        0.3973 0.5079
        0.6560 0.7341
        0.9040 0.8571
        1.5180 1.0000
        4.3739 1.0000
        6.2433 1.0000
        6.4860 0.8651
        6.7053 0.6468
        6.8533 0.4762
      }
    }
  }
  faceposermodel "U:\HL2\hl2\models\gman.mdl"
}

fps 60
snap off
