// Created by Crowbar 0.56

$modelname "props_borealis/borealis_table002.mdl"

$staticprop

$bodygroup "Body"
{
	studio "borealis_table002_reference.smd"
}


$surfaceprop "metal"

$contents "solid"

$illumposition 0 0 0

$cdmaterials "models\props_borealis\"

$cbox 0 0 0 0 0 0

$bbox -15.409 -15.599 -17.163 15.409 15.599 17.163

$definebone "static_prop" "" 0 0 0 0 0 0 0 0 0 0 0 0

$animation "a_idle" "borealis_table002_anims\idle.smd" {
	fps 30
}

$sequence "idle" {
	"a_idle"
	fadein 0.2
	fadeout 0.2
	fps 30
}


$collisionmodel "borealis_table002_physics.smd"
{
	$mass 20
	$inertia 1
	$damping 0
	$rotdamping 0
	$rootbone " "
	$concave

}
