// Created by Crowbar 0.56

$modelname "props_borealis/borealis_panel005b.mdl"

$staticprop

$bodygroup "Body"
{
	studio "borealis_panel005b_reference.smd"
}

$lod 10
{
	replacemodel "borealis_panel005b_reference.smd" "borealis_panel005b_reference_lod1.smd"
}
$lod 20
{
	replacemodel "borealis_panel005b_reference.smd" "borealis_panel005b_reference_lod2.smd"
}
$lod 30
{
	replacemodel "borealis_panel005b_reference.smd" "borealis_panel005b_reference_lod3.smd"
}
$lod 40
{
	replacemodel "borealis_panel005b_reference.smd" "borealis_panel005b_reference_lod4.smd"
}

$surfaceprop "metal"

$contents "solid"

$illumposition 0 0 0

$cdmaterials "models\props_borealis\"

$cbox 0 0 0 0 0 0

$bbox -13.536 -16.727 -48.334 13.536 16.727 48.334

$definebone "static_prop" "" 0 0 0 0 0 0 0 0 0 0 0 0

$animation "a_idle" "borealis_panel005b_anims\idle.smd" {
	fps 30
}

$sequence "idle" {
	"a_idle"
	fadein 0.2
	fadeout 0.2
	fps 30
}


$collisionmodel "borealis_panel005b_physics.smd"
{
	$mass 100
	$inertia 1
	$damping 0
	$rotdamping 0
	$rootbone " "
	$concave

}
