// Created by Crowbar 0.56

$modelname "props_borealis/borealis_panel006.mdl"

$staticprop

$bodygroup "Body"
{
	studio "borealis_panel006_reference.smd"
}

$lod 20
{
	replacemodel "borealis_panel006_reference.smd" "borealis_panel006_reference_lod1.smd"
}

$surfaceprop "metal"

$contents "solid"

$illumposition 0 0 0

$cdmaterials "models\props_borealis\"

$cbox 0 0 0 0 0 0

$bbox -25.268 -20.527 -46.403 25.268 20.527 46.403

$definebone "static_prop" "" 0 0 0 0 0 0 0 0 0 0 0 0

$animation "a_idle" "borealis_panel006_anims\idle.smd" {
	fps 30
}

$sequence "idle" {
	"a_idle"
	fadein 0.2
	fadeout 0.2
	fps 30
}


$collisionmodel "borealis_panel006_physics.smd"
{
	$mass 100
	$inertia 1
	$damping 0
	$rotdamping 0
	$rootbone " "
	$concave

}
