// Created by Crowbar 0.56

$modelname "props_borealis/borealis_panel001.mdl"

$staticprop

$bodygroup "Body"
{
	studio "borealis_panel001_reference.smd"
}

$lod 40
{
	replacemodel "borealis_panel001_reference.smd" "borealis_panel001_reference_lod1.smd"
}
$lod 55
{
	replacemodel "borealis_panel001_reference.smd" "borealis_panel001_reference_lod2.smd"
}
$lod 60
{
	replacemodel "borealis_panel001_reference.smd" "borealis_panel001_reference_lod3.smd"
}
$lod 75
{
	replacemodel "borealis_panel001_reference.smd" "borealis_panel001_reference_lod4.smd"
}

$surfaceprop "metal"

$contents "solid"

$illumposition 0 0 0

$cdmaterials "models\props_borealis\"

$cbox 0 0 0 0 0 0

$bbox -12.222 -47.519 -50.545 12.222 47.519 50.545

$definebone "static_prop" "" 0 0 0 0 0 0 0 0 0 0 0 0

$animation "a_idle" "borealis_panel001_anims\idle.smd" {
	fps 30
}

$sequence "idle" {
	"a_idle"
	fadein 0.2
	fadeout 0.2
	fps 30
}


$collisionmodel "borealis_panel001_physics.smd"
{
	$mass 100
	$inertia 1
	$damping 0
	$rotdamping 0
	$rootbone " "
	$concave

}
