// Created by Crowbar 0.56

$modelname "props_borealis/door_lockingsystem001b.mdl"

$staticprop

$bodygroup "Body"
{
	studio "door_lockingsystem001b_reference.smd"
}

$lod 10
{
	replacemodel "door_lockingsystem001b_reference.smd" "door_lockingsystem001b_reference_lod1.smd"
}
$lod 20
{
	replacemodel "door_lockingsystem001b_reference.smd" "door_lockingsystem001b_reference_lod2.smd"
}
$lod 25
{
	replacemodel "door_lockingsystem001b_reference.smd" "door_lockingsystem001b_reference_lod3.smd"
}
$lod 35
{
	replacemodel "door_lockingsystem001b_reference.smd" "door_lockingsystem001b_reference_lod4.smd"
}

$surfaceprop "metal"

$contents "solid"

$illumposition 0 0 0

$cdmaterials "models\props_borealis\"

$cbox 0 0 0 0 0 0

$bbox -2.958 -30.698 -56.648 2.958 30.698 56.648

$definebone "static_prop" "" 0 0 0 0 0 0 0 0 0 0 0 0

$animation "a_idle" "door_lockingsystem001b_anims\idle.smd" {
	fps 30
}

$sequence "idle" {
	"a_idle"
	fadein 0.2
	fadeout 0.2
	fps 30
}


$collisionmodel "door_lockingsystem001b_physics.smd"
{
	$mass 25
	$inertia 1
	$damping 0
	$rotdamping 0
	$rootbone " "
	$concave

}
