// Created by Crowbar 0.56

$modelname "props_borealis/engine_fan001.mdl"

$staticprop

$bodygroup "Body"
{
	studio "engine_fan001_reference.smd"
}

$lod 20
{
	replacemodel "engine_fan001_reference.smd" "engine_fan001_reference_lod1.smd"
}
$lod 35
{
	replacemodel "engine_fan001_reference.smd" "engine_fan001_reference_lod2.smd"
}
$lod 50
{
	replacemodel "engine_fan001_reference.smd" "engine_fan001_reference_lod3.smd"
}
$lod 90
{
	replacemodel "engine_fan001_reference.smd" "engine_fan001_reference_lod4.smd"
}

$surfaceprop "metal"

$contents "solid"

$illumposition 0 0 0

$cdmaterials "models\props_borealis\"

$cbox 0 0 0 0 0 0

$bbox -21.938 -12 -27 21.938 12 27

$definebone "static_prop" "" 0 0 0 0 0 0 0 0 0 0 0 0

$animation "a_idle" "engine_fan001_anims\idle.smd" {
	fps 30
}

$sequence "idle" {
	"a_idle"
	fadein 0.2
	fadeout 0.2
	fps 30
}


$collisionmodel "engine_fan001_physics.smd"
{
	$mass 60
	$inertia 1
	$damping 0
	$rotdamping 0
	$rootbone " "
	$concave

}
