// Created by Crowbar 0.56

$modelname "props_borealis/generator01.mdl"

$staticprop

$bodygroup "Body"
{
	studio "generator01_reference.smd"
}

$lod 100
{
	replacemodel "generator01_reference.smd" "generator01_reference_lod1.smd"
}
$lod 200
{
	replacemodel "generator01_reference.smd" "generator01_reference_lod2.smd"
}
$lod 300
{
	replacemodel "generator01_reference.smd" "generator01_reference_lod3.smd"
}
$lod 400
{
	replacemodel "generator01_reference.smd" "generator01_reference_lod4.smd"
}

$surfaceprop "metalpanel"

$contents "solid"

$illumposition 0 0 0

$cdmaterials "models\props_borealis\"

$cbox 0 0 0 0 0 0

$bbox -39.457 -81.646 -42.031 39.457 81.646 42.031

$definebone "static_prop" "" 0 0 0 0 0 0 0 0 0 0 0 0

$animation "a_idle" "generator01_anims\idle.smd" {
	fps 30
}

$sequence "idle" {
	"a_idle"
	fadein 0.2
	fadeout 0.2
	fps 30
}


$collisionmodel "generator01_physics.smd"
{
	$mass 250
	$inertia 1
	$damping 0
	$rotdamping 0
	$rootbone " "
	$concave

}
