// Created by Crowbar 0.56

$modelname "props_borealis/Iceberg01b.mdl"

$staticprop

$bodygroup "Body"
{
	studio "Iceberg01b.smd"
}


$surfaceprop "wood"

$contents "solid"

$illumposition 8.251 -20.673 8.71

$cdmaterials "models\props_borealis\"

$cbox 0 0 0 0 0 0

$bbox -65.488 -92.333 -20.656 106.833 108.835 38.076

$definebone "static_prop" "" 0 0 0 0 0 0 0 0 0 0 0 0

$animation "a_idle" "Iceberg01b_anims\idle.smd" {
	fps 5
	loop
}

$sequence "idle" {
	"a_idle"
	fadein 0.2
	fadeout 0.2
	fps 5
	loop
}


$collisionmodel "Iceberg01b_physics.smd"
{
	$mass 11067.92
	$inertia 1
	$damping 0
	$rotdamping 0
	$rootbone " "

}
