// Created by Crowbar 0.56

$modelname "props_borealis/Icebergs01a.mdl"

$staticprop

$bodygroup "Body"
{
	studio "Icebergs01a.smd"
}


$surfaceprop "wood"

$contents "solid"

$illumposition 15.609 -3.547 -9.653

$cdmaterials "models\props_borealis\"

$cbox 0 0 0 0 0 0

$bbox -91.416 -74.531 -39.928 98.511 105.748 20.622

$definebone "static_prop" "" 0 0 0 0 0 0 0 0 0 0 0 0

$animation "a_idle" "Icebergs01a_anims\idle.smd" {
	fps 5
	loop
}

$sequence "idle" {
	"a_idle"
	fadein 0.2
	fadeout 0.2
	fps 5
	loop
}


$collisionmodel "Icebergs01a_physics.smd"
{
	$mass 10790.28
	$inertia 1
	$damping 0
	$rotdamping 0
	$rootbone " "

}
