// Created by Crowbar 0.56

$modelname "props_borealis/Icebergs01f.mdl"

$staticprop

$bodygroup "Body"
{
	studio "Icebergs01f.smd"
}


$surfaceprop "wood"

$contents "solid"

$illumposition -582.443 -96.833 -3.882

$cdmaterials "models\props_borealis\"

$cbox 0 0 0 0 0 0

$bbox -146.4 -815.458 -38.283 340.065 -349.428 30.518

$definebone "static_prop" "" 0 0 0 0 0 0 0 0 0 0 0 0

$animation "a_idle" "Icebergs01f_anims\idle.smd" {
	fps 5
	loop
}

$sequence "idle" {
	"a_idle"
	fadein 0.2
	fadeout 0.2
	fps 5
	loop
}


$collisionmodel "Icebergs01f_physics.smd"
{
	$mass 75785.25
	$inertia 1
	$damping 0
	$rotdamping 0
	$rootbone " "

}
