// Created by Crowbar 0.56

$modelname "props_borealis/Iceberg02g.mdl"

$staticprop

$bodygroup "Body"
{
	studio "Iceberg02g.smd"
}


$surfaceprop "wood"

$contents "solid"

$illumposition 3.737 3.809 -109.349

$cdmaterials "models\props_borealis\"

$cbox 0 0 0 0 0 0

$bbox -41.931 -24.043 -121.204 34.312 31.516 -97.494

$definebone "static_prop" "" 0 0 0 0 0 0 0 0 0 0 0 0

$animation "a_idle" "Iceberg02g_anims\idle.smd" {
	fps 5
	loop
}

$sequence "idle" {
	"a_idle"
	fadein 0.2
	fadeout 0.2
	fps 5
	loop
}


$collisionmodel "Iceberg02g_physics.smd"
{
	$mass 520.7167
	$inertia 1
	$damping 0
	$rotdamping 0
	$rootbone " "

}
