// Created by Crowbar 0.56

$modelname "props_borealis/lifeboat01.mdl"

$staticprop

$bodygroup "Body"
{
	studio "lifeboat01_reference.smd"
}

$lod 30
{
	replacemodel "lifeboat01_reference.smd" "lifeboat01_reference_lod1.smd"
}
$lod 40
{
	replacemodel "lifeboat01_reference.smd" "lifeboat01_reference_lod2.smd"
}
$lod 50
{
	replacemodel "lifeboat01_reference.smd" "lifeboat01_reference_lod3.smd"
}
$lod 90
{
	replacemodel "lifeboat01_reference.smd" "lifeboat01_reference_lod4.smd"
}
$lod 120
{
	replacemodel "lifeboat01_reference.smd" "lifeboat01_reference_lod5.smd"
}

$surfaceprop "metalpanel"

$contents "solid"

$illumposition 0 0 0

$cdmaterials "models\props_borealis\"

$cbox 0 0 0 0 0 0

$bbox -124.927 -47.128 -30.782 124.927 47.128 30.782

$definebone "static_prop" "" 0 0 0 0 0 0 0 0 0 0 0 0

$animation "a_idle" "lifeboat01_anims\idle.smd" {
	fps 30
}

$sequence "idle" {
	"a_idle"
	fadein 0.2
	fadeout 0.2
	fps 30
}


$collisionmodel "lifeboat01_physics.smd"
{
	$mass 500
	$inertia 1
	$damping 0
	$rotdamping 0
	$rootbone " "
	$concave

}
