// Created by Crowbar 0.56

$modelname "props_borealis/lifering01.mdl"

$staticprop

$bodygroup "Body"
{
	studio "lifering01_reference.smd"
}

$lod 20
{
	replacemodel "lifering01_reference.smd" "lifering01_reference_lod1.smd"
}
$lod 40
{
	replacemodel "lifering01_reference.smd" "lifering01_reference_lod2.smd"
}
$lod 90
{
	replacemodel "lifering01_reference.smd" "lifering01_reference_lod3.smd"
}

$surfaceprop "metal"

$contents "solid"

$illumposition 0 0 2.025

$cdmaterials "models\props_borealis\"

$cbox 0 0 0 0 0 0

$bbox -18 -17.902 0 18 17.902 4.05

$definebone "static_prop" "" 0 0 0 0 0 0 0 0 0 0 0 0

$animation "a_idle" "lifering01_anims\idle.smd" {
	fps 30
}

$sequence "idle" {
	"a_idle"
	fadein 0.2
	fadeout 0.2
	fps 30
}


$collisionmodel "lifering01_physics.smd"
{
	$mass 20
	$inertia 1
	$damping 0
	$rotdamping 0
	$rootbone " "
	$concave

}
