// Created by Crowbar 0.56

$modelname "props_borealis/lifecan_rack01.mdl"

$staticprop

$bodygroup "Body"
{
	studio "lifecan_rack01_reference.smd"
}

$lod 30
{
	replacemodel "lifecan_rack01_reference.smd" "lifecan_rack01_reference_lod1.smd"
}
$lod 40
{
	replacemodel "lifecan_rack01_reference.smd" "lifecan_rack01_reference_lod2.smd"
}
$lod 50
{
	replacemodel "lifecan_rack01_reference.smd" "lifecan_rack01_reference_lod3.smd"
}
$lod 90
{
	replacemodel "lifecan_rack01_reference.smd" "lifecan_rack01_reference_lod4.smd"
}

$surfaceprop "metalpanel"

$contents "solid"

$illumposition 0.003 0 -5.933

$cdmaterials "models\props_borealis\"

$cbox 0 0 0 0 0 0

$bbox -27 -41.004 -69.933 27 41.009 58.067

$definebone "static_prop" "" 0 0 0 0 0 0 0 0 0 0 0 0

$animation "a_idle" "lifecan_rack01_anims\idle.smd" {
	fps 30
}

$sequence "idle" {
	"a_idle"
	fadein 0.2
	fadeout 0.2
	fps 30
}


$collisionmodel "lifecan_rack01_physics.smd"
{
	$mass 500
	$inertia 1
	$damping 0
	$rotdamping 0
	$rootbone " "
	$concave

}
