// Created by Crowbar 0.56

$modelname "props_borealis/pipe01_lcurve01_short.mdl"

$staticprop

$bodygroup "Body"
{
	studio "pipe01_lcurve01_short_reference.smd"
}

$lod 30
{
	replacemodel "pipe01_lcurve01_short_reference.smd" "pipe01_lcurve01_short_reference_lod1.smd"
}
$lod 40
{
	replacemodel "pipe01_lcurve01_short_reference.smd" "pipe01_lcurve01_short_reference_lod2.smd"
}
$lod 50
{
	replacemodel "pipe01_lcurve01_short_reference.smd" "pipe01_lcurve01_short_reference_lod3.smd"
}
$lod 90
{
	replacemodel "pipe01_lcurve01_short_reference.smd" "pipe01_lcurve01_short_reference_lod4.smd"
}

$surfaceprop "metalpanel"

$contents "solid"

$illumposition 2.263 0 -0.142

$cdmaterials "models\props_borealis\"

$texturegroup "skinfamilies"
{
	{ "pipesystem01"        }
	{ "Pipesystem01a_skin2" }
	{ "Pipesystem01a_skin3" }
}

$cbox 0 0 0 0 0 0

$bbox -2.085 -5.826 -4.127 2.086 10.353 3.843

$definebone "static_prop" "" 0 0 0 0 0 0 0 0 0 0 0 0

$animation "a_idle" "pipe01_lcurve01_short_anims\idle.smd" {
	fps 30
}

$sequence "idle" {
	"a_idle"
	fadein 0.2
	fadeout 0.2
	fps 30
}


$collisionmodel "pipe01_lcurve01_short_physics.smd"
{
	$mass 50
	$inertia 1
	$damping 0
	$rotdamping 0
	$rootbone " "
	$concave

}
