// Created by Crowbar 0.56

$modelname "props_borealis/pipe03_lcurve01_short.mdl"

$staticprop

$bodygroup "Body"
{
	studio "pipe03_lcurve01_short_reference.smd"
}

$lod 30
{
	replacemodel "pipe03_lcurve01_short_reference.smd" "pipe03_lcurve01_short_reference_lod1.smd"
}
$lod 40
{
	replacemodel "pipe03_lcurve01_short_reference.smd" "pipe03_lcurve01_short_reference_lod2.smd"
}
$lod 50
{
	replacemodel "pipe03_lcurve01_short_reference.smd" "pipe03_lcurve01_short_reference_lod3.smd"
}
$lod 90
{
	replacemodel "pipe03_lcurve01_short_reference.smd" "pipe03_lcurve01_short_reference_lod4.smd"
}

$surfaceprop "metalpanel"

$contents "solid"

$illumposition 8.963 -0.001 -0.562

$cdmaterials "models\props_borealis\"

$texturegroup "skinfamilies"
{
	{ "pipesystem03"        }
	{ "Pipesystem01a_skin2" }
	{ "Pipesystem01a_skin3" }
}

$cbox 0 0 0 0 0 0

$bbox -8.257 -23.072 -16.342 8.259 40.998 15.218

$definebone "static_prop" "" 0 0 0 0 0 0 0 0 0 0 0 0

$animation "a_idle" "pipe03_lcurve01_short_anims\idle.smd" {
	fps 30
}

$sequence "idle" {
	"a_idle"
	fadein 0.2
	fadeout 0.2
	fps 30
}


$collisionmodel "pipe03_lcurve01_short_physics.smd"
{
	$mass 50
	$inertia 1
	$damping 0
	$rotdamping 0
	$rootbone " "
	$concave

}
