// Created by Crowbar 0.56

$modelname "props_borealis/pipe03_90degree01.mdl"

$staticprop

$bodygroup "Body"
{
	studio "pipe03_90degree01_reference.smd"
}


$surfaceprop "metalpanel"

$contents "solid"

$illumposition -2.805 -1.513 -0.024

$cdmaterials "models\props_borealis\"

$texturegroup "skinfamilies"
{
	{ "pipesystem03"        }
	{ "Pipesystem01a_skin2" }
	{ "Pipesystem01a_skin3" }
}

$cbox 0 0 0 0 0 0

$bbox -12.97 -17.297 -11.766 15.996 11.688 11.719

$definebone "static_prop" "" 0 0 0 0 0 0 0 0 0 0 0 0

$animation "a_idle" "pipe03_90degree01_anims\idle.smd" {
	fps 30
}

$sequence "idle" {
	"a_idle"
	fadein 0.2
	fadeout 0.2
	fps 30
}


$collisionmodel "pipe03_90degree01_physics.smd"
{
	$mass 50
	$inertia 1
	$damping 0
	$rotdamping 0
	$rootbone " "
	$concave

}
