// Created by Crowbar 0.56

$modelname "props_borealis/shrimp_DeckA001.mdl"

$staticprop

$bodygroup "Body"
{
	studio "shrimp_DeckA001_reference.smd"
}


$surfaceprop "metal"

$contents "solid"

$illumposition 0 0 0

$cdmaterials "models\props_borealis\"

$cbox 0 0 0 0 0 0

$bbox -204.5 -503.661 -303.366 204.5 503.661 303.366

$definebone "static_prop" "" 0 0 0 0 0 0 0 0 0 0 0 0

$animation "a_idle" "shrimp_DeckA001_anims\idle.smd" {
	fps 30
}

$sequence "idle" {
	"a_idle"
	fadein 0.2
	fadeout 0.2
	fps 30
}


$collisionmodel "shrimp_DeckA001_physics.smd"
{
	$mass 20
	$inertia 1
	$damping 0
	$rotdamping 0
	$rootbone " "
	$concave

}
