// Created by Crowbar 0.56

$modelname "props_borealis/smokestack01.mdl"

$staticprop

$bodygroup "Body"
{
	studio "smokestack01_reference.smd"
}


$surfaceprop "metalpanel"

$contents "solid"

$illumposition -0.003 -1.955 8.907

$cdmaterials "models\props_borealis\"

$cbox 0 0 0 0 0 0

$bbox -14.885 -16.003 -10.919 18.795 15.997 28.733

$definebone "static_prop" "" 0 0 0 0 0 0 0 0 0 0 0 0

$animation "a_idle" "smokestack01_anims\idle.smd" {
	fps 30
}

$sequence "idle" {
	"a_idle"
	fadein 0.2
	fadeout 0.2
	fps 30
}


$collisionmodel "smokestack01_physics.smd"
{
	$mass 500
	$inertia 1
	$damping 0
	$rotdamping 0
	$rootbone " "
	$concave

}
