// Created by Crowbar 0.56

$modelname "props_borealis/valve003.mdl"

$staticprop

$bodygroup "Body"
{
	studio "valve003_reference.smd"
}

$lod 5
{
	replacemodel "valve003_reference.smd" "valve003_reference_lod1.smd"
}
$lod 10
{
	replacemodel "valve003_reference.smd" "valve003_reference_lod2.smd"
}
$lod 15
{
	replacemodel "valve003_reference.smd" "valve003_reference_lod3.smd"
}
$lod 25
{
	replacemodel "valve003_reference.smd" "valve003_reference_lod4.smd"
}

$surfaceprop "metalpanel"

$contents "solid"

$illumposition 0 0 5.377

$cdmaterials "models\props_borealis\"

$texturegroup "skinfamilies"
{
	{ "valve003"       }
	{ "valve001_skin2" }
	{ "valve001_skin3" }
}

$cbox 0 0 0 0 0 0

$bbox -4 -4 0 4 4 10.754

$definebone "static_prop" "" 0 0 0 0 0 0 0 0 0 0 0 0

$animation "a_idle" "valve003_anims\idle.smd" {
	fps 30
}

$sequence "idle" {
	"a_idle"
	fadein 0.2
	fadeout 0.2
	fps 30
}


$collisionmodel "valve003_physics.smd"
{
	$mass 50
	$inertia 1
	$damping 0
	$rotdamping 0
	$rootbone " "
	$concave

}
