// Created by Crowbar 0.56

$modelname "props_borealis/valve001.mdl"

$staticprop

$bodygroup "Body"
{
	studio "valve001_reference.smd"
}

$lod 10
{
	replacemodel "valve001_reference.smd" "valve001_reference_lod1.smd"
}
$lod 16
{
	replacemodel "valve001_reference.smd" "valve001_reference_lod2.smd"
}
$lod 27
{
	replacemodel "valve001_reference.smd" "valve001_reference_lod3.smd"
}
$lod 45
{
	replacemodel "valve001_reference.smd" "valve001_reference_lod4.smd"
}

$surfaceprop "metalpanel"

$contents "solid"

$illumposition -0.5 0 16.85

$cdmaterials "models\props_borealis\"

$texturegroup "skinfamilies"
{
	{ "valve001"       }
	{ "valve001_skin2" }
	{ "valve001_skin3" }
}

$cbox 0 0 0 0 0 0

$bbox -8 -13 0 8 12 33.7

$definebone "static_prop" "" 0 0 0 0 0 0 0 0 0 0 0 0

$animation "a_idle" "valve001_anims\idle.smd" {
	fps 30
}

$sequence "idle" {
	"a_idle"
	fadein 0.2
	fadeout 0.2
	fps 30
}


$collisionmodel "valve001_physics.smd"
{
	$mass 50
	$inertia 1
	$damping 0
	$rotdamping 0
	$rootbone " "
	$concave

}
