"friends/ChatRoomDlg.res"
{
	"ChatRoomDlg"
	{
		"ControlName"		"CChatRoomDlg"
		"fieldName"		"ChatRoomDlg"
		"xpos"		"739"
		"ypos"		"575"
		"wide"		"979"
		"tall"		"478"
		"AutoResize"		"0"
		"PinCorner"		"0"
		"visible"		"1"
		"enabled"		"1"
		"tabPosition"		"0"
		"paintbackground"		"1"
		"settitlebarvisible"		"1"
		"title"		"#Friends_Chat_Group_Title"
	}
	"TextEntry"
	{
		"ControlName"		"TextEntry"
		"fieldName"		"TextEntry"
		"xpos"		"9"
		"ypos"		"400"
		"wide"		"713"
		"tall"		"44"
		"AutoResize"		"1"
		"PinCorner"		"2"
		"visible"		"1"
		"enabled"		"1"
		"tabPosition"		"1"
		"paintbackground"		"1"
		"appearance"		"CChatTextEntry"
		"textHidden"		"0"
		"editable"		"1"
		"maxchars"		"2048"
		"NumericInputOnly"		"0"
		"unicode"		"1"
	}
	"ChatHistory"
	{
		"ControlName"		"RichText"
		"fieldName"		"ChatHistory"
		"xpos"		"9"
		"ypos"		"118"
		"wide"		"776"
		"tall"		"274"
		"AutoResize"		"3"
		"PinCorner"		"0"
		"visible"		"1"
		"enabled"		"0"
		"tabPosition"		"0"
		"paintbackground"		"1"
		"appearance"		"CChatHistoryPanel"
		"maxchars"		"-1"
		"ScrollBar"		"1"
	}
	"SendButton"
	{
		"ControlName"		"Button"
		"fieldName"		"SendButton"
		"xpos"		"730"
		"ypos"		"400"
		"wide"		"55"
		"tall"		"44"
		"AutoResize"		"0"
		"PinCorner"		"3"
		"visible"		"1"
		"enabled"		"0"
		"tabPosition"		"2"
		"paintbackground"		"1"
		"labelText"		"#Friends_Chat_Send"
		"textAlignment"		"west"
		"wrap"		"0"
		"Default"		"1"
		"selected"		"0"
	}
	"InviteButton"
	{
		"ControlName"		"CChatInviteButton"
		"fieldName"		"InviteButton"
		"xpos"		"800"
		"ypos"		"79"
		"wide"		"163"
		"tall"		"24"
		"AutoResize"		"0"
		"PinCorner"		"1"
		"visible"		"1"
		"enabled"		"1"
		"tabPosition"		"0"
		"paintbackground"		"1"
		"labelText"		"#Friends_Chat_InviteToChat"
		"textAlignment"		"west"
		"wrap"		"0"
		"Default"		"0"
		"showDownArrow"		"1"
	}
	"StatusLabel"
	{
		"ControlName"		"Label"
		"fieldName"		"StatusLabel"
		"xpos"		"12"
		"ypos"		"448"
		"wide"		"904"
		"tall"		"18"
		"AutoResize"		"1"
		"PinCorner"		"2"
		"visible"		"0"
		"enabled"		"1"
		"tabPosition"		"0"
		"paintbackground"		"1"
		"labelText"		"#Friends_LastMessageReceived"
		"textAlignment"		"west"
		"font"		"DefaultSmall"
		"wrap"		"0"
	}
	"VoiceBar"
	{
		"ControlName"		"CVoiceBar"
		"fieldName"		"VoiceBar"
		"xpos"		"9"
		"ypos"		"72"
		"wide"		"776"
		"tall"		"38"
		"AutoResize"		"1"
		"PinCorner"		"0"
		"visible"		"1"
		"enabled"		"1"
		"tabPosition"		"0"
		"paintbackground"		"1"
		"appearance"		"CVoiceChatOffBG"
	}
	"TitlePanel"
	{
		"ControlName"		"CChatTitlePanel"
		"fieldName"		"TitlePanel"
		"xpos"		"8"
		"ypos"		"25"
		"zpos"		"-2"
		"wide"		"776"
		"tall"		"48"
		"AutoResize"		"1"
		"PinCorner"		"0"
		"visible"		"1"
		"enabled"		"1"
		"tabPosition"		"0"
		"paintbackground"		"1"
	}
	"UserList"
	{
		"ControlName"		"CFriendsListSubPanel"
		"fieldName"		"UserList"
		"xpos"		"793"
		"ypos"		"109"
		"wide"		"177"
		"tall"		"335"
		"AutoResize"		"2"
		"PinCorner"		"1"
		"visible"		"1"
		"enabled"		"1"
		"tabPosition"		"0"
		"paintbackground"		"1"
		"appearance"		"CChatUserPanel"
		"linespacing"		"50"
	}
	"Splitter"
	{
		"ControlName"		"CChatSplitter"
		"fieldName"		"Splitter"
		"xpos"		"787"
		"ypos"		"23"
		"wide"		"4"
		"tall"		"451"
		"AutoResize"		"2"
		"PinCorner"		"1"
		"visible"		"1"
		"enabled"		"1"
		"tabPosition"		"0"
		"paintbackground"		"1"
	}
	"Settings"
	{
		"ControlName"		"URLLabel"
		"fieldName"		"settings"
		"xpos"		"533"
		"ypos"		"79"
		"wide"		"120"
		"tall"		"24"
		"AutoResize"		"0"
		"PinCorner"		"1"
		"visible"		"0"
		"enabled"		"1"
		"tabPosition"		"0"
		"paintbackground"		"1"
		"textAlignment"		"west"
		"wrap"		"0"
	}
	"InvitePanelBG"
	{
		"ControlName"		"ImagePanel"
		"fieldName"		"InvitePanelBG"
		"xpos"		"793"
		"ypos"		"72"
		"zpos"		"-1"
		"wide"		"177"
		"tall"		"38"
		"AutoResize"		"0"
		"PinCorner"		"1"
		"visible"		"1"
		"enabled"		"1"
		"tabPosition"		"0"
		"paintbackground"		"1"
		"appearance"		"CChatInviteBG"
		"gradientVertical"		"0"
		"scaleImage"		"0"
	}
}
