"friends/ChatRoomDlgFriend.res"
{
	"ChatRoomDlg"
	{
		"ControlName"		"CChatRoomDlg"
		"fieldName"		"ChatRoomDlg"
		"xpos"		"666"
		"ypos"		"936"
		"wide"		"482"
		"tall"		"361"
		"AutoResize"		"0"
		"PinCorner"		"0"
		"visible"		"1"
		"enabled"		"1"
		"tabPosition"		"0"
		"paintbackground"		"1"
		"settitlebarvisible"		"1"
		"title"		"#Friends_Chat_Title"
	}
	"TextEntry"
	{
		"ControlName"		"TextEntry"
		"fieldName"		"TextEntry"
		"xpos"		"9"
		"ypos"		"287"
		"wide"		"385"
		"tall"		"44"
		"AutoResize"		"1"
		"PinCorner"		"2"
		"visible"		"1"
		"enabled"		"1"
		"tabPosition"		"1"
		"paintbackground"		"1"
		"appearance"		"CChatTextEntry"
		"textHidden"		"0"
		"editable"		"1"
		"maxchars"		"2048"
		"NumericInputOnly"		"0"
		"unicode"		"1"
	}
	"ChatHistory"
	{
		"ControlName"		"RichText"
		"fieldName"		"ChatHistory"
		"xpos"		"9"
		"ypos"		"132"
		"wide"		"464"
		"tall"		"147"
		"AutoResize"		"3"
		"PinCorner"		"0"
		"visible"		"1"
		"enabled"		"0"
		"tabPosition"		"0"
		"paintbackground"		"1"
		"appearance"		"CChatHistoryPanel"
		"maxchars"		"-1"
		"ScrollBar"		"1"
	}
	"SendButton"
	{
		"ControlName"		"Button"
		"fieldName"		"SendButton"
		"xpos"		"402"
		"ypos"		"287"
		"wide"		"71"
		"tall"		"44"
		"AutoResize"		"0"
		"PinCorner"		"3"
		"visible"		"1"
		"enabled"		"0"
		"tabPosition"		"2"
		"paintbackground"		"1"
		"labelText"		"#Friends_Chat_Send"
		"textAlignment"		"west"
		"wrap"		"0"
		"Default"		"1"
		"selected"		"0"
	}
	"InviteButton"
	{
		"ControlName"		"CChatInviteButton"
		"fieldName"		"InviteButton"
		"xpos"		"316"
		"ypos"		"54"
		"wide"		"157"
		"tall"		"24"
		"AutoResize"		"0"
		"PinCorner"		"1"
		"visible"		"1"
		"enabled"		"1"
		"tabPosition"		"0"
		"paintbackground"		"1"
		"labelText"		"#Friends_Chat_InviteToChat"
		"textAlignment"		"west"
		"wrap"		"0"
		"Default"		"0"
		"showDownArrow"		"1"
	}
	"StatusLabel"
	{
		"ControlName"		"Label"
		"fieldName"		"StatusLabel"
		"xpos"		"12"
		"ypos"		"335"
		"wide"		"431"
		"tall"		"18"
		"AutoResize"		"1"
		"PinCorner"		"2"
		"visible"		"0"
		"enabled"		"1"
		"tabPosition"		"0"
		"paintbackground"		"1"
		"labelText"		"#Friends_LastMessageReceived"
		"textAlignment"		"west"
		"font"		"DefaultSmall"
		"wrap"		"0"
	}
	"TitlePanel"
	{
		"ControlName"		"CFriendPanel"
		"fieldName"		"TitlePanel"
		"xpos"		"9"
		"ypos"		"28"
		"wide"		"299"
		"tall"		"50"
		"AutoResize"		"1"
		"PinCorner"		"0"
		"visible"		"1"
		"enabled"		"1"
		"tabPosition"		"0"
		"paintbackground"		"1"
		"appearance"	"CChatFriendTitlePanel"
	}
	"VoiceBar"
	{
		"ControlName"		"CVoiceBar"
		"fieldName"		"VoiceBar"
		"xpos"		"9"
		"ypos"		"86"
		"wide"		"464"
		"tall"		"38"
		"AutoResize"		"1"
		"PinCorner"		"0"
		"visible"		"1"
		"enabled"		"1"
		"tabPosition"		"0"
		"paintbackground"		"1"
	}
}
