"Friends/FriendsDialog.res"
{
	"FriendsDialog"
	{
		"ControlName"		"CFriendsDialog"
		"fieldName"		"FriendsDialog"
		"xpos"		"2123"
		"ypos"		"549"
		"wide"		"356"
		"tall"		"746"
		"AutoResize"		"1"
		"PinCorner"		"0"
		"visible"		"1"
		"enabled"		"1"
		"tabPosition"		"0"
		"paintbackground"		"1"
		"settitlebarvisible"		"1"
		"title"		"#Friends_Title_Online"
	}
	"BuddyList"
	{
		"ControlName"		"CFriendsListSubPanel"
		"fieldName"		"BuddyList"
		"xpos"		"1"
		"ypos"		"48"
		"wide"		"354"
		"tall"		"651"
		"AutoResize"		"3"
		"PinCorner"		"0"
		"visible"		"1"
		"enabled"		"1"
		"tabPosition"		"0"
		"paintbackground"		"1"
		"linespacing"		"48"
		"appearance"		"CFriendsListUserPanel"
	}
	"DownLabel"
	{
		"ControlName"		"Label"
		"fieldName"		"DownLabel"
		"xpos"		"10"
		"ypos"		"85"
		"wide"		"336"
		"tall"		"80"
		"AutoResize"		"1"
		"PinCorner"		"0"
		"visible"		"0"
		"enabled"		"1"
		"tabPosition"		"0"
		"paintbackground"		"1"
		"labelText"		"#Friends_NoFriendsInList"
		"textAlignment"		"north-west"
		"wrap"		"1"
	}
	"MenuBar"
	{
		"ControlName"		"MenuBar"
		"fieldName"		"MenuBar"
		"xpos"		"2"
		"ypos"		"20"
		"wide"		"356"
		"tall"		"25"
		"AutoResize"		"1"
		"PinCorner"		"0"
		"visible"		"1"
		"enabled"		"1"
		"tabPosition"		"6"
		"paintbackground"		"1"
	}
	"AddFriendsButton"
	{
		"ControlName"		"Button"
		"fieldName"		"AddFriendsButton"
		"xpos"		"10"
		"ypos"		"709"
		"wide"		"110"
		"tall"		"28"
		"AutoResize"		"0"
		"PinCorner"		"2"
		"visible"		"1"
		"enabled"		"1"
		"tabPosition"		"0"
		"paintbackground"		"1"
		"labelText"		"#Friends_AddFriend"
		"textAlignment"		"west"
		"wrap"		"0"
		"Default"		"0"
		"selected"		"0"
	}
	"NoFriendsAddFriendButton"
	{
		"ControlName"		"Button"
		"fieldName"		"NoFriendsAddFriendButton"
		"xpos"		"11"
		"ypos"		"160"
		"wide"		"132"
		"tall"		"24"
		"AutoResize"		"0"
		"PinCorner"		"0"
		"visible"		"0"
		"enabled"		"1"
		"tabPosition"		"0"
		"paintbackground"		"1"
		"labelText"		"#Friends_AddFriend"
		"textAlignment"		"west"
		"wrap"		"0"
		"Default"		"0"
		"selected"		"0"
	}
	"FriendsState"
	{
		"ControlName"		"EditablePanel"
		"fieldName"		"FriendsState"
		"xpos"		"6"
		"ypos"		"52"
		"wide"		"310"
		"tall"		"457"
		"AutoResize"		"0"
		"PinCorner"		"0"
		"visible"		"0"
		"enabled"		"1"
		"tabPosition"		"0"
		"paintbackground"		"1"
	}
}
