"friends/friendaliasesdialog.res"
{
	"friendaliasesdialog"
	{
		"ControlName"		"CFriendAliasesDialog"
		"fieldName"		"FriendAliasesDialog"
		"xpos"		"795"
		"ypos"		"442"
		"wide"		"330"
		"tall"		"288"
		"AutoResize"		"0"
		"PinCorner"		"0"
		"visible"		"1"
		"enabled"		"1"
		"tabPosition"		"0"
		"paintbackground"		"1"
		"settitlebarvisible"		"1"
		"title"		"#Friends_FriendAliases_Title"
	}
	"Button1"
	{
		"ControlName"		"Button"
		"fieldName"		"Button1"
		"xpos"		"256"
		"ypos"		"255"
		"wide"		"64"
		"tall"		"24"
		"AutoResize"		"0"
		"PinCorner"		"0"
		"visible"		"1"
		"enabled"		"1"
		"tabPosition"		"1"
		"paintbackground"		"1"
		"labelText"		"#vgui_close"
		"textAlignment"		"west"
		"wrap"		"0"
		"Command"		"Close"
		"Default"		"0"
	}
	"Label1"
	{
		"ControlName"		"Label"
		"fieldName"		"Label1"
		"xpos"		"10"
		"ypos"		"30"
		"wide"		"308"
		"tall"		"18"
		"AutoResize"		"0"
		"PinCorner"		"0"
		"visible"		"1"
		"enabled"		"1"
		"tabPosition"		"0"
		"paintbackground"		"1"
		"labelText"		"#Friends_FriendAliasesInfo"
		"textAlignment"		"west"
		"wrap"		"0"
	}
	"Label3"
	{
		"ControlName"		"Label"
		"fieldName"		"Label3"
		"xpos"		"38"
		"ypos"		"60"
		"wide"		"264"
		"tall"		"20"
		"AutoResize"		"0"
		"PinCorner"		"0"
		"visible"		"1"
		"enabled"		"1"
		"tabPosition"		"0"
		"paintbackground"		"1"
		"labelText"		"%FriendNameOld1%"
		"textAlignment"		"west"
		"wrap"		"0"
	}
	"Label4"
	{
		"ControlName"		"Label"
		"fieldName"		"Label4"
		"xpos"		"38"
		"ypos"		"80"
		"wide"		"264"
		"tall"		"20"
		"AutoResize"		"0"
		"PinCorner"		"0"
		"visible"		"1"
		"enabled"		"1"
		"tabPosition"		"0"
		"paintbackground"		"1"
		"labelText"		"%FriendNameOld2%"
		"textAlignment"		"west"
		"wrap"		"0"
	}
	"Label5"
	{
		"ControlName"		"Label"
		"fieldName"		"Label5"
		"xpos"		"38"
		"ypos"		"100"
		"wide"		"204"
		"tall"		"20"
		"AutoResize"		"0"
		"PinCorner"		"0"
		"visible"		"1"
		"enabled"		"1"
		"tabPosition"		"0"
		"paintbackground"		"1"
		"labelText"		"%FriendNameOld3%"
		"textAlignment"		"west"
		"wrap"		"0"
	}
	"Label6"
	{
		"ControlName"		"Label"
		"fieldName"		"Label6"
		"xpos"		"38"
		"ypos"		"120"
		"wide"		"264"
		"tall"		"20"
		"AutoResize"		"0"
		"PinCorner"		"0"
		"visible"		"1"
		"enabled"		"1"
		"tabPosition"		"0"
		"paintbackground"		"1"
		"labelText"		"%FriendNameOld4%"
		"textAlignment"		"west"
		"wrap"		"0"
	}
	"Label7"
	{
		"ControlName"		"Label"
		"fieldName"		"Label7"
		"xpos"		"38"
		"ypos"		"140"
		"wide"		"264"
		"tall"		"20"
		"AutoResize"		"0"
		"PinCorner"		"0"
		"visible"		"1"
		"enabled"		"1"
		"tabPosition"		"0"
		"paintbackground"		"1"
		"labelText"		"%FriendNameOld5%"
		"textAlignment"		"west"
		"wrap"		"0"
	}
	"Label8"
	{
		"ControlName"		"Label"
		"fieldName"		"Label8"
		"xpos"		"38"
		"ypos"		"160"
		"wide"		"264"
		"tall"		"20"
		"AutoResize"		"0"
		"PinCorner"		"0"
		"visible"		"1"
		"enabled"		"1"
		"tabPosition"		"0"
		"paintbackground"		"1"
		"labelText"		"%FriendNameOld6%"
		"textAlignment"		"west"
		"wrap"		"0"
	}
	"Label9"
	{
		"ControlName"		"Label"
		"fieldName"		"Label9"
		"xpos"		"38"
		"ypos"		"180"
		"wide"		"264"
		"tall"		"20"
		"AutoResize"		"0"
		"PinCorner"		"0"
		"visible"		"1"
		"enabled"		"1"
		"tabPosition"		"0"
		"paintbackground"		"1"
		"labelText"		"%FriendNameOld7%"
		"textAlignment"		"west"
		"wrap"		"0"
	}
	"Label10"
	{
		"ControlName"		"Label"
		"fieldName"		"Label10"
		"xpos"		"38"
		"ypos"		"200"
		"wide"		"264"
		"tall"		"20"
		"AutoResize"		"0"
		"PinCorner"		"0"
		"visible"		"1"
		"enabled"		"1"
		"tabPosition"		"0"
		"paintbackground"		"1"
		"labelText"		"%FriendNameOld8%"
		"textAlignment"		"west"
		"wrap"		"0"
	}
	"Label11"
	{
		"ControlName"		"Label"
		"fieldName"		"Label11"
		"xpos"		"38"
		"ypos"		"220"
		"wide"		"264"
		"tall"		"20"
		"AutoResize"		"0"
		"PinCorner"		"0"
		"visible"		"1"
		"enabled"		"1"
		"tabPosition"		"0"
		"paintbackground"		"1"
		"labelText"		"%FriendNameOld10%"
		"textAlignment"		"west"
		"wrap"		"0"
	}
}
