"friends/GameInviteNotification.res"
{
	"GameInviteNotification"
	{
		"ControlName"		"CGameInvitationNotification"
		"fieldName"		"GameInviteNotification"
		"xpos"		"0"
		"ypos"		"0"
		"wide"		"240"
		"tall"		"98"
		"AutoResize"		"0"
		"PinCorner"		"0"
		"visible"		"1"
		"enabled"		"1"
		"tabPosition"		"0"
		"paintbackground"		"1"
	}
	"ImageAvatar"
	{
		"ControlName"		"ImagePanel"
		"fieldName"		"ImageAvatar"
		"xpos"		"16"
		"ypos"		"16"
		"wide"		"42"
		"tall"		"42"
		"AutoResize"		"0"
		"PinCorner"		"0"
		"visible"		"1"
		"enabled"		"1"
		"tabPosition"		"0"
		"paintbackground"		"1"
		"gradientVertical"		"0"
		"scaleImage"		"0"
	}
	"NotificationClickPanel"
	{
		"ControlName"		"CNotificationClickPanel"
		"fieldName"		"NotificationClickPanel"
		"xpos"		"0"
		"ypos"		"0"
		"zpos"		"1"
		"wide"		"64"
		"tall"		"24"
		"AutoResize"		"0"
		"PinCorner"		"0"
		"visible"		"1"
		"enabled"		"1"
		"tabPosition"		"0"
		"paintbackground"		"0"
	}
	"LabelSender"
	{
		"ControlName"		"Label"
		"fieldName"		"LabelSender"
		"xpos"		"64"
		"ypos"		"16"
		"wide"		"172"
		"tall"		"14"
		"AutoResize"		"0"
		"PinCorner"		"0"
		"visible"		"1"
		"enabled"		"1"
		"tabPosition"		"0"
		"paintbackground"		"1"
		"labelText"		"%name%"
		"textAlignment"		"north-west"
		"wrap"		"0"
		"font"		FriendsSmall
	}
	"LabelInfo"
	{
		"ControlName"		"Label"
		"fieldName"		"LabelInfo"
		"xpos"		"64"
		"ypos"		"30"
		"wide"		"172"
		"tall"		"14"
		"AutoResize"		"0"
		"PinCorner"		"0"
		"visible"		"1"
		"enabled"		"1"
		"tabPosition"		"0"
		"paintbackground"		"1"
		"labelText"		"#Friends_GameInvitation_Info"
		"textAlignment"		"north-west"
		"wrap"		"0"
		"font"		FriendsSmall
	}
	"LabelGame"
	{
		"ControlName"		"Label"
		"fieldName"		"LabelGame"
		"xpos"		"64"
		"ypos"		"44"
		"wide"		"172"
		"tall"		"14"
		"AutoResize"		"0"
		"PinCorner"		"0"
		"visible"		"1"
		"enabled"		"1"
		"tabPosition"		"0"
		"paintbackground"		"1"
		"labelText"		"%game%"
		"textAlignment"		"north-west"
		"wrap"		"0"
		"font"		FriendsSmall
	}
	"DarkenedRegion"
	{
		"controlname"	"imagepanel"
		"fieldname"		"DarkenedRegion"
		"xpos"		"0"
		"ypos"		"74"
		"wide"		"240"
		"tall"		"24"
		"fillcolor"	"Black"
		"zpos"		"-1"
	}
	"LabelHotkey"
	{
		"ControlName"		"Label"
		"fieldName"		"LabelHotkey"
		"xpos"		"0"
		"ypos"		"74"
		"wide"		"240"
		"tall"		"24"
		"AutoResize"		"0"
		"PinCorner"		"0"
		"visible"		"1"
		"enabled"		"1"
		"tabPosition"		"0"
		"paintbackground"		"1"
		"labelText"		"#Friends_InviteNotification_Hotkey"
		"textAlignment"		"center"
		"wrap"		"0"
		"font"		FriendsSmall
	}
}
