"friends/PlayersSubRecentPlayers.res"
{
	"PlayersList"
	{
		"ControlName"		"ListPanel"
		"fieldName"		"PlayersList"
		"xpos"		"0"
		"ypos"		"10"
		"wide"		"582"
		"tall"		"322"
		"AutoResize"		"0"
		"PinCorner"		"0"
		"visible"		"1"
		"enabled"		"1"
		"tabPosition"		"0"
		"paintbackground"		"1"
	}
	"AddFriendButton"
	{
		"ControlName"		"Button"
		"fieldName"		"AddFriendButton"
		"xpos"		"420"
		"ypos"		"344"
		"wide"		"155"
		"tall"		"24"
		"AutoResize"		"0"
		"PinCorner"		"0"
		"visible"		"1"
		"enabled"		"1"
		"tabPosition"		"1"
		"paintbackground"		"1"
		"textAlignment"		"west"
		"wrap"		"0"
		"Default"		"0"
	}
}
