"Friends/SubPanelOptionsPersonal.res"
{
	"UserName"
	{
		"ControlName"		"Label"
		"fieldName"		"UserName"
		"xpos"		"132"
		"ypos"		"28"
		"wide"		"130"
		"tall"		"24"
		"autoResize"		"0"
		"pinCorner"		"0"
		"visible"		"1"
		"enabled"		"1"
		"tabPosition"		"0"
		"labelText"		"Имя пользователя"
		"textAlignment"		"west"
		"dulltext"		"0"
		"brighttext"		"0"
	}
	"FirstNameLabel"
	{
		"ControlName"		"Label"
		"fieldName"		"FirstNameLabel"
		"xpos"		"92"
		"ypos"		"95"
		"wide"		"64"
		"tall"		"24"
		"autoResize"		"0"
		"pinCorner"		"0"
		"visible"		"1"
		"enabled"		"1"
		"tabPosition"		"0"
		"labelText"		"Имя"
		"textAlignment"		"west"
		"dulltext"		"0"
		"brighttext"		"0"
	}
	"LastNameLabel"
	{
		"ControlName"		"Label"
		"fieldName"		"LastNameLabel"
		"xpos"		"265"
		"ypos"		"95"
		"wide"		"64"
		"tall"		"24"
		"autoResize"		"0"
		"pinCorner"		"0"
		"visible"		"1"
		"enabled"		"1"
		"tabPosition"		"0"
		"labelText"		"Фамилия"
		"textAlignment"		"west"
		"dulltext"		"0"
		"brighttext"		"0"
	}
	"UserNameEdit"
	{
		"ControlName"		"TextEntry"
		"fieldName"		"UserNameEdit"
		"xpos"		"156"
		"ypos"		"56"
		"wide"		"64"
		"tall"		"24"
		"autoResize"		"0"
		"pinCorner"		"0"
		"visible"		"1"
		"enabled"		"1"
		"tabPosition"		"0"
		"textHidden"		"0"
		"editable"		"1"
		"maxchars"		"-1"
		"NumericInputOnly"		"0"
	}
	"FirstNameEdit"
	{
		"ControlName"		"TextEntry"
		"fieldName"		"FirstNameEdit"
		"xpos"		"80"
		"ypos"		"123"
		"wide"		"64"
		"tall"		"24"
		"autoResize"		"0"
		"pinCorner"		"0"
		"visible"		"1"
		"enabled"		"1"
		"tabPosition"		"0"
		"textHidden"		"0"
		"editable"		"1"
		"maxchars"		"-1"
		"NumericInputOnly"		"0"
	}
	"LastNameEdit"
	{
		"ControlName"		"TextEntry"
		"fieldName"		"LastNameEdit"
		"xpos"		"261"
		"ypos"		"123"
		"wide"		"64"
		"tall"		"24"
		"autoResize"		"0"
		"pinCorner"		"0"
		"visible"		"1"
		"enabled"		"1"
		"tabPosition"		"0"
		"textHidden"		"0"
		"editable"		"1"
		"maxchars"		"-1"
		"NumericInputOnly"		"0"
	}
}
