"Friends/SubPanelCreateUser3.res"
{
	"ProgressBar"
	{
		"ControlName"		"ProgressBar"
		"fieldName"		"ProgressBar"
		"xpos"		"132"
		"ypos"		"105"
		"wide"		"128"
		"tall"		"24"
		"AutoResize"		"0"
		"PinCorner"		"0"
		"visible"		"1"
		"enabled"		"1"
		"tabposition"		"0"
	}
	"InfoText"
	{
		"ControlName"		"Label"
		"fieldName"		"InfoText"
		"xpos"		"45"
		"ypos"		"162"
		"wide"		"400"
		"tall"		"50"
		"AutoResize"		"0"
		"PinCorner"		"0"
		"visible"		"1"
		"enabled"		"1"
		"tabposition"		"0"
		"labelText"		""
		"textAlignment"		"west"
		"dulltext"		"0"
		"brighttext"		"0"
	}
	"ProgressText"
	{
		"ControlName"		"Label"
		"fieldName"		"ProgressText"
		"xpos"		"124"
		"ypos"		"58"
		"wide"		"300"
		"tall"		"24"
		"AutoResize"		"0"
		"PinCorner"		"0"
		"visible"		"1"
		"enabled"		"1"
		"tabposition"		"0"
		"labelText"		""
		"textAlignment"		"west"
		"dulltext"		"0"
		"brighttext"		"0"
	}
}
