"Friends/SubPanelLoginUser.res"
{
	"EmailEdit"
	{
		"ControlName"		"TextEntry"
		"fieldName"		"EmailEdit"
		"xpos"		"164"
		"ypos"		"116"
		"wide"		"150"
		"tall"		"24"
		"autoResize"		"0"
		"pinCorner"		"0"
		"visible"		"1"
		"enabled"		"1"
		"tabPosition"		"0"
		"textHidden"		"0"
		"editable"		"1"
		"maxchars"		"-1"
		"NumericInputOnly"		"0"
	}
	"PasswordEdit"
	{
		"ControlName"		"TextEntry"
		"fieldName"		"PasswordEdit"
		"xpos"		"165"
		"ypos"		"179"
		"wide"		"150"
		"tall"		"24"
		"autoResize"		"0"
		"pinCorner"		"0"
		"visible"		"1"
		"enabled"		"1"
		"tabPosition"		"0"
		"textHidden"		"0"
		"editable"		"1"
		"maxchars"		"-1"
		"NumericInputOnly"		"0"
	}
	"InformLabel"
	{
		"ControlName"		"Label"
		"fieldName"		"InformLabel"
		"xpos"		"73"
		"ypos"		"54"
		"wide"		"400"
		"tall"		"24"
		"autoResize"		"0"
		"pinCorner"		"0"
		"visible"		"1"
		"enabled"		"1"
		"tabPosition"		"0"
		"labelText"		"Введите адрес электронной почты и пароль для входа в Tracker."
		"textAlignment"		"west"
		"dulltext"		"0"
		"brighttext"		"0"
	}
	"EmailLabel"
	{
		"ControlName"		"Label"
		"fieldName"		"EmailLabel"
		"xpos"		"161"
		"ypos"		"84"
		"wide"		"200"
		"tall"		"24"
		"autoResize"		"0"
		"pinCorner"		"0"
		"visible"		"1"
		"enabled"		"1"
		"tabPosition"		"0"
		"labelText"		"Адрес электронной почты"
		"textAlignment"		"west"
		"dulltext"		"0"
		"brighttext"		"0"
	}
	"PasswordLabel"
	{
		"ControlName"		"Label"
		"fieldName"		"PasswordLabel"
		"xpos"		"185"
		"ypos"		"145"
		"wide"		"100"
		"tall"		"24"
		"autoResize"		"0"
		"pinCorner"		"0"
		"visible"		"1"
		"enabled"		"1"
		"tabPosition"		"0"
		"labelText"		"Пароль Tracker"
		"textAlignment"		"west"
		"dulltext"		"0"
		"brighttext"		"0"
	}
}
