"Friends/SubPanelConnectionTest.res"
{
	"RetryButton"
	{
		"ControlName"		"Button"
		"fieldName"		"RetryButton"
		"xpos"		"255"
		"ypos"		"140"
		"wide"		"64"
		"tall"		"24"
		"autoResize"		"0"
		"pinCorner"		"0"
		"visible"		"1"
		"enabled"		"1"
		"tabPosition"		"0"
		"labelText"		"Повтор"
		"textAlignment"		"west"
		"dulltext"		"0"
		"brighttext"		"0"
		"Command"		"RetryConnect"
		"Default"		"1"
	}
	"InfoText"
	{
		"ControlName"		"Label"
		"fieldName"		"InfoText"
		"xpos"		"57"
		"ypos"		"40"
		"wide"		"450"
		"tall"		"24"
		"autoResize"		"0"
		"pinCorner"		"0"
		"visible"		"1"
		"enabled"		"1"
		"tabPosition"		"0"
		"labelText"		"Попытка подключения к серверам tracker... прошла успешно."
		"textAlignment"		"west"
		"dulltext"		"0"
		"brighttext"		"0"
	}
	"DescriptionText"
	{
		"ControlName"		"Label"
		"fieldName"		"DescriptionText"
		"xpos"		"47"
		"ypos"		"79"
		"wide"		"450"
		"tall"		"24"
		"autoResize"		"0"
		"pinCorner"		"0"
		"visible"		"1"
		"enabled"		"1"
		"tabPosition"		"0"
		"labelText"		"Tracker успешно подключен к серверу.Для продолжения щелкните \"
		"textAlignment"		"west"
		"dulltext"		"0"
		"brighttext"		"0"
	}
}
