"Friends/SubPanelLoginUser2.res"
{
	"ProgressBar"
	{
		"ControlName"		"ProgressBar"
		"fieldName"		"ProgressBar"
		"xpos"		"140"
		"ypos"		"113"
		"wide"		"150"
		"tall"		"24"
		"AutoResize"		"0"
		"PinCorner"		"0"
		"visible"		"1"
		"enabled"		"1"
		"tabposition"		"0"
	}
	"InfoText"
	{
		"ControlName"		"Label"
		"fieldName"		"InfoText"
		"xpos"		"41"
		"ypos"		"164"
		"wide"		"499"
		"tall"		"50"
		"AutoResize"		"0"
		"PinCorner"		"0"
		"visible"		"1"
		"enabled"		"1"
		"tabposition"		"0"
		"labelText"		"#TrackerUI_LoginServerConnectFailed"
		"textAlignment"		"west"
		"dulltext"		"0"
		"brighttext"		"0"
	}
	"ProgressText"
	{
		"ControlName"		"Label"
		"fieldName"		"ProgressText"
		"xpos"		"175"
		"ypos"		"77"
		"wide"		"150"
		"tall"		"24"
		"AutoResize"		"0"
		"PinCorner"		"0"
		"visible"		"1"
		"enabled"		"1"
		"tabposition"		"0"
		"labelText"		"#TrackerUI_LoginFailed"
		"textAlignment"		"west"
		"dulltext"		"0"
		"brighttext"		"0"
	}
}
