"Friends/SubPanelSelectLoginOption.res"
{
	"CreateUser"
	{
		"ControlName"		"RadioButton"
		"fieldName"		"CreateUser"
		"xpos"		"100"
		"ypos"		"66"
		"wide"		"350"
		"tall"		"24"
		"autoResize"		"0"
		"pinCorner"		"0"
		"visible"		"1"
		"enabled"		"1"
		"tabPosition"		"0"
		"labelText"		"Создать нового пользователя"
		"textAlignment"		"west"
		"dulltext"		"0"
		"brighttext"		"0"
		"Default"		"0"
		"SubTabPosition"		"0"
	}
	"ExistingUser"
	{
		"ControlName"		"RadioButton"
		"fieldName"		"ExistingUser"
		"xpos"		"100"
		"ypos"		"125"
		"wide"		"350"
		"tall"		"24"
		"autoResize"		"0"
		"pinCorner"		"0"
		"visible"		"1"
		"enabled"		"1"
		"tabPosition"		"0"
		"labelText"		"Войти в качестве существующего пользователя"
		"textAlignment"		"west"
		"dulltext"		"0"
		"brighttext"		"0"
		"Default"		"0"
		"SubTabPosition"		"0"
	}
}
