"Friends/SubPanelOptionsConnection.res"
{
	"InternetSpeed"
	{
		"ControlName"		"ComboBox"
		"fieldName"		"InternetSpeed"
		"xpos"		"113"
		"ypos"		"79"
		"wide"		"128"
		"tall"		"24"
		"autoResize"		"0"
		"pinCorner"		"0"
		"visible"		"1"
		"enabled"		"1"
		"tabPosition"		"0"
		"textHidden"		"0"
		"editable"		"0"
		"maxchars"		"-1"
		"NumericInputOnly"		"0"
	}
	"InternetSpedLabel"
	{
		"ControlName"		"Label"
		"fieldName"		"InternetSpedLabel"
		"xpos"		"112"
		"ypos"		"41"
		"wide"		"130"
		"tall"		"24"
		"autoResize"		"0"
		"pinCorner"		"0"
		"visible"		"1"
		"enabled"		"1"
		"tabPosition"		"0"
		"labelText"		"Скорость Интернета"
		"textAlignment"		"west"
		"dulltext"		"0"
		"brighttext"		"0"
	}
}
