"Friends/SubPanelOptionsSounds.res"
{
	"IngameSoundCheck"
	{
		"ControlName"		"CheckButton"
		"fieldName"		"IngameSoundCheck"
		"xpos"		"7"
		"ypos"		"41"
		"wide"		"370"
		"tall"		"24"
		"autoResize"		"0"
		"pinCorner"		"0"
		"visible"		"1"
		"enabled"		"1"
		"tabPosition"		"0"
		"labelText"		"Воспроизводить звук при присоединении друзей к игре"
		"textAlignment"		"west"
		"dulltext"		"0"
		"brighttext"		"0"
		"Default"		"0"
	}
	"OnlineSoundCheck"
	{
		"ControlName"		"CheckButton"
		"fieldName"		"OnlineSoundCheck"
		"xpos"		"7"
		"ypos"		"71"
		"wide"		"370"
		"tall"		"24"
		"autoResize"		"0"
		"pinCorner"		"0"
		"visible"		"1"
		"enabled"		"1"
		"tabPosition"		"0"
		"labelText"		"Воспроизводить звук при появлении друзей в сети"
		"textAlignment"		"west"
		"dulltext"		"0"
		"brighttext"		"0"
		"Default"		"0"
	}
	"MessageSoundCheck"
	{
		"ControlName"		"CheckButton"
		"fieldName"		"MessageSoundCheck"
		"xpos"		"7"
		"ypos"		"101"
		"wide"		"370"
		"tall"		"24"
		"autoResize"		"0"
		"pinCorner"		"0"
		"visible"		"1"
		"enabled"		"1"
		"tabPosition"		"0"
		"labelText"		"Воспроизводить звук при получении сообщения"
		"textAlignment"		"west"
		"dulltext"		"0"
		"brighttext"		"0"
		"Default"		"0"
	}
}
