"Friends/SubPanelCreateUser2.res"
{
	"LoginIDEdit"
	{
		"ControlName"		"TextEntry"
		"fieldName"		"LoginIDEdit"
		"xpos"		"192"
		"ypos"		"53"
		"wide"		"128"
		"tall"		"24"
		"autoResize"		"0"
		"pinCorner"		"0"
		"visible"		"1"
		"enabled"		"1"
		"tabPosition"		"0"
		"textHidden"		"0"
		"editable"		"1"
		"maxchars"		"-1"
		"NumericInputOnly"		"0"
	}
	"FirstNameEdit"
	{
		"ControlName"		"TextEntry"
		"fieldName"		"FirstNameEdit"
		"xpos"		"25"
		"ypos"		"100"
		"wide"		"128"
		"tall"		"24"
		"autoResize"		"0"
		"pinCorner"		"0"
		"visible"		"1"
		"enabled"		"1"
		"tabPosition"		"0"
		"textHidden"		"0"
		"editable"		"1"
		"maxchars"		"-1"
		"NumericInputOnly"		"0"
	}
	"LastNameEdit"
	{
		"ControlName"		"TextEntry"
		"fieldName"		"LastNameEdit"
		"xpos"		"360"
		"ypos"		"99"
		"wide"		"128"
		"tall"		"24"
		"autoResize"		"0"
		"pinCorner"		"0"
		"visible"		"1"
		"enabled"		"1"
		"tabPosition"		"0"
		"textHidden"		"0"
		"editable"		"1"
		"maxchars"		"-1"
		"NumericInputOnly"		"0"
	}
	"PasswordEdit"
	{
		"ControlName"		"TextEntry"
		"fieldName"		"PasswordEdit"
		"xpos"		"25"
		"ypos"		"164"
		"wide"		"128"
		"tall"		"24"
		"autoResize"		"0"
		"pinCorner"		"0"
		"visible"		"1"
		"enabled"		"1"
		"tabPosition"		"0"
		"textHidden"		"0"
		"editable"		"1"
		"maxchars"		"-1"
		"NumericInputOnly"		"0"
	}
	"PasswordRepeatEdit"
	{
		"ControlName"		"TextEntry"
		"fieldName"		"PasswordRepeatEdit"
		"xpos"		"360"
		"ypos"		"165"
		"wide"		"128"
		"tall"		"24"
		"autoResize"		"0"
		"pinCorner"		"0"
		"visible"		"1"
		"enabled"		"1"
		"tabPosition"		"0"
		"textHidden"		"0"
		"editable"		"1"
		"maxchars"		"-1"
		"NumericInputOnly"		"0"
	}
	"UserName"
	{
		"ControlName"		"Label"
		"fieldName"		"UserName"
		"xpos"		"203"
		"ypos"		"22"
		"wide"		"150"
		"tall"		"24"
		"autoResize"		"0"
		"pinCorner"		"0"
		"visible"		"1"
		"enabled"		"1"
		"tabPosition"		"0"
		"labelText"		"Имя пользователя"
		"textAlignment"		"west"
		"dulltext"		"0"
		"brighttext"		"0"
	}
	"FirstNameLabel"
	{
		"ControlName"		"Label"
		"fieldName"		"FirstNameLabel"
		"xpos"		"395"
		"ypos"		"70"
		"wide"		"64"
		"tall"		"24"
		"autoResize"		"0"
		"pinCorner"		"0"
		"visible"		"1"
		"enabled"		"1"
		"tabPosition"		"0"
		"labelText"		"Имя"
		"textAlignment"		"west"
		"dulltext"		"0"
		"brighttext"		"0"
	}
	"LastNameLabel"
	{
		"ControlName"		"Label"
		"fieldName"		"LastNameLabel"
		"xpos"		"60"
		"ypos"		"70"
		"wide"		"64"
		"tall"		"24"
		"autoResize"		"0"
		"pinCorner"		"0"
		"visible"		"1"
		"enabled"		"1"
		"tabPosition"		"0"
		"labelText"		"Фамилия"
		"textAlignment"		"west"
		"dulltext"		"0"
		"brighttext"		"0"
	}
	"PasswordLabel"
	{
		"ControlName"		"Label"
		"fieldName"		"PasswordLabel"
		"xpos"		"60"
		"ypos"		"137"
		"wide"		"128"
		"tall"		"24"
		"autoResize"		"0"
		"pinCorner"		"0"
		"visible"		"1"
		"enabled"		"1"
		"tabPosition"		"0"
		"labelText"		"Пароль"
		"textAlignment"		"west"
		"dulltext"		"0"
		"brighttext"		"0"
	}
	"RepeatPassword"
	{
		"ControlName"		"Label"
		"fieldName"		"RepeatPassword"
		"xpos"		"369"
		"ypos"		"137"
		"wide"		"125"
		"tall"		"24"
		"autoResize"		"0"
		"pinCorner"		"0"
		"visible"		"1"
		"enabled"		"1"
		"tabPosition"		"0"
		"labelText"		"Повторить пароль"
		"textAlignment"		"west"
		"dulltext"		"0"
		"brighttext"		"0"
	}
}
