"Friends/SubPanelConnectionIntro.res"
{
	"WelcomeLabel"
	{
		"ControlName"		"Label"
		"fieldName"		"WelcomeLabel"
		"xpos"		"144"
		"ypos"		"76"
		"wide"		"300"
		"tall"		"24"
		"autoResize"		"0"
		"pinCorner"		"0"
		"visible"		"1"
		"enabled"		"1"
		"tabPosition"		"0"
		"labelText"		"#TrackerUI_WelcomeToTracker"
		"textAlignment"		"west"
		"dulltext"		"0"
		"brighttext"		"0"
	}
}
