"Friends/SubPanelOptionsChat.res"
{
	"ChatAlwaysOnTop"
	{
		"ControlName"		"CheckButton"
		"fieldName"		"ChatAlwaysOnTop"
		"xpos"		"73"
		"ypos"		"61"
		"wide"		"300"
		"tall"		"24"
		"autoResize"		"0"
		"pinCorner"		"0"
		"visible"		"1"
		"enabled"		"1"
		"tabPosition"		"0"
		"labelText"		"Окно программы разговора всегда наверху"
		"textAlignment"		"west"
		"dulltext"		"0"
		"brighttext"		"0"
		"Default"		"0"
	}
}
