"Friends/SubPanelCreateUser.res"
{
	"EmailEdit"
	{
		"ControlName"		"TextEntry"
		"fieldName"		"EmailEdit"
		"xpos"		"185"
		"ypos"		"127"
		"wide"		"128"
		"tall"		"24"
		"autoResize"		"0"
		"pinCorner"		"0"
		"visible"		"1"
		"enabled"		"1"
		"tabPosition"		"0"
		"textHidden"		"0"
		"editable"		"1"
		"maxchars"		"-1"
		"NumericInputOnly"		"0"
	}
	"EmailLabel"
	{
		"ControlName"		"Label"
		"fieldName"		"EmailLabel"
		"xpos"		"172"
		"ypos"		"89"
		"wide"		"300"
		"tall"		"24"
		"autoResize"		"0"
		"pinCorner"		"0"
		"visible"		"1"
		"enabled"		"1"
		"tabPosition"		"0"
		"labelText"		"Адрес электронной почты"
		"textAlignment"		"west"
		"dulltext"		"0"
		"brighttext"		"0"
	}
}
