"friends/voicebar.res"
{
	"VoiceBar"
	{
		"ControlName"		"CVoiceBar"
		"fieldName"		"VoiceBar"
		"xpos"		"9"
		"ypos"		"86"
		"wide"		"559"
		"tall"		"38"
		"AutoResize"		"1"
		"PinCorner"		"0"
		"visible"		"1"
		"enabled"		"1"
		"tabPosition"		"0"
		"paintbackground"		"1"
		"appearance"		"CVoiceChatOnBG"
	}
	"micvolume"
	{
		"ControlName"		"CVoiceTraffic"
		"fieldName"		"micvolume"
		"xpos"		"5"
		"ypos"		"7"
		"wide"		"64"
		"tall"		"24"
		"AutoResize"		"0"
		"PinCorner"		"0"
		"visible"		"0"
		"enabled"		"1"
		"tabPosition"		"0"
		"paintbackground"		"1"
	}
	"SpeakerVolume"
	{
		"ControlName"		"CVoiceTraffic"
		"fieldName"		"speakervolume"
		"xpos"		"76"
		"ypos"		"7"
		"wide"		"64"
		"tall"		"24"
		"AutoResize"		"0"
		"PinCorner"		"0"
		"visible"		"0"
		"enabled"		"1"
		"tabPosition"		"0"
		"paintbackground"		"1"
	}
	"StartVoiceChat"
	{
		"ControlName"		"Button"
		"fieldName"		"StartVoiceChat"
		"xpos"		"394"
		"ypos"		"6"
		"wide"		"157"
		"tall"		"24"
		"AutoResize"		"0"
		"PinCorner"		"1"
		"visible"		"0"
		"enabled"		"1"
		"tabPosition"		"0"
		"paintbackground"		"1"
		"textAlignment"		"west"
		"wrap"		"0"
		"Default"		"0"
	}
	"EndVoiceChat"
	{
		"ControlName"		"Button"
		"fieldName"		"EndVoiceChat"
		"xpos"		"459"
		"ypos"		"6"
		"wide"		"92"
		"tall"		"24"
		"AutoResize"		"0"
		"PinCorner"		"1"
		"visible"		"1"
		"enabled"		"1"
		"tabPosition"		"0"
		"paintbackground"		"1"
		"textAlignment"		"west"
		"wrap"		"0"
		"Default"		"0"
	}
	"action2"
	{
		"ControlName"		"Button"
		"fieldName"		"action2"
		"xpos"		"361"
		"ypos"		"6"
		"wide"		"92"
		"tall"		"24"
		"AutoResize"		"0"
		"PinCorner"		"1"
		"visible"		"1"
		"enabled"		"1"
		"tabPosition"		"0"
		"paintbackground"		"1"
		"textAlignment"		"west"
		"wrap"		"0"
		"Default"		"0"
	}
	"Settings"
	{
		"ControlName"		"URLLabel"
		"fieldName"		"settings"
		"xpos"		"156"
		"ypos"		"7"
		"wide"		"94"
		"tall"		"24"
		"AutoResize"		"0"
		"PinCorner"		"0"
		"visible"		"0"
		"enabled"		"1"
		"tabPosition"		"0"
		"paintbackground"		"1"
		"textAlignment"		"west"
		"wrap"		"0"
		"URLText"		"steam://settings/voice"
	}
	"StatusLabel"
	{
		"ControlName"		"Label"
		"fieldName"		"StatusLabel"
		"xpos"		"26"
		"ypos"		"7"
		"wide"		"345"
		"tall"		"24"
		"AutoResize"		"1"
		"PinCorner"		"0"
		"visible"		"1"
		"enabled"		"1"
		"tabPosition"		"0"
		"paintbackground"		"1"
		"textAlignment"		"west"
		"wrap"		"0"
	}
	"VoiceImage"
	{
		"ControlName"		"ImagePanel"
		"fieldName"		"VoiceImage"
		"xpos"		"0"
		"ypos"		"7"
		"wide"		"24"
		"tall"		"24"
		"AutoResize"		"0"
		"PinCorner"		"0"
		"visible"		"1"
		"enabled"		"1"
		"tabPosition"		"0"
		"paintbackground"		"1"
		"gradientVertical"		"0"
		"scaleImage"		"0"
	}
}
