"Resource/CreateMultiplayerGameServerPage.res"
{
	"MapList"
	{
		"ControlName"		"ListPanel"
		"fieldName"		"MapList"
		"xpos"		"170"
		"ypos"		"40"
		"wide"		"233"
		"tall"		"260"
		"autoResize"		"0"
		"pinCorner"		"0"
		"visible"		"1"
		"enabled"		"1"
		"tabPosition"		"5"
	}
	"SelectMod"
	{
		"ControlName"		"Label"
		"fieldName"		"InfoText"
		"xpos"		"30"
		"ypos"		"100"
		"wide"		"120"
		"tall"		"44"
		"autoResize"		"0"
		"pinCorner"		"0"
		"visible"		"1"
		"enabled"		"1"
		"tabPosition"		"0"
		"labelText"		"Select Mod"
		"textAlignment"		"west"
		"dulltext"		"0"
		"brighttext"		"0"
		"wrap"		"1"
	}
	"MODCombo"
	{
		"ControlName"		"ComboBox"
		"fieldName"		"MODCombo"
		"xpos"		"16"
		"ypos"		"144"
		"wide"		"124"
		"tall"		"24"
		"autoResize"		"1"
		"pinCorner"		"0"
		"visible"		"1"
		"enabled"		"1"
		"tabPosition"		"1"
		"textHidden"		"0"
		"editable"		"0"
		"maxchars"		"-1"
		"NumericInputOnly"		"0"
	}
	"ServerName"
	{
		"ControlName"		"Label"
		"fieldName"		"InfoText"
		"xpos"		"30"
		"ypos"		"12"
		"wide"		"120"
		"tall"		"44"
		"autoResize"		"0"
		"pinCorner"		"0"
		"visible"		"1"
		"enabled"		"1"
		"tabPosition"		"0"
		"labelText"		"Server Name"
		"textAlignment"		"west"
		"dulltext"		"0"
		"brighttext"		"0"
		"wrap"		"1"
	}
	"ExtraEdit"
	{
		"ControlName"		"TextEntry"
		"fieldName"		"ExtraEdit"
		"xpos"		"16"
		"ypos"		"57"
		"wide"		"124"
		"tall"		"24"
		"autoResize"		"0"
		"pinCorner"		"0"
		"visible"		"1"
		"enabled"		"1"
		"tabPosition"		"1"
		"textHidden"		"0"
		"editable"		"1"
		"maxchars"		"-1"
	}
	"GoButton"
	{
		"ControlName"		"Button"
		"fieldName"		"GoButton"
		"xpos"		"30"
		"ypos"		"270"
		"wide"		"90"
		"tall"		"24"
		"autoResize"		"0"
		"pinCorner"		"0"
		"visible"		"1"
		"enabled"		"1"
		"tabPosition"		"9"
		"labelText"		"#GameUI_OK"
		"textAlignment"		"west"
		"dulltext"		"0"
		"brighttext"		"0"
		"Command"		"OK"
		"Default"		"1"
	}

