"Server/dlg.res"
{
	"VInternetDlg"
	{
		"ControlName"		"Frame"
		"fieldName"		"VInternetDlg"
		"xpos"		"0"
		"ypos"		"0"
		"wide"		"480"
		"tall"		"400"
		"AutoResize"		"0"
		"PinCorner"		"0"
		"visible"		"1"
		"enabled"		"1"
		"tabPosition"		"0"
		"settitlebarvisible"		"1"
	}
	"ServerTabs"
	{
		"ControlName"		"PropertySheet"
		"fieldName"		"ServerTabs"
		"xpos"		"8"
		"ypos"		"37"
		"wide"		"464"
		"tall"		"338"
		"AutoResize"		"0"
		"PinCorner"		"0"
		"visible"		"1"
		"enabled"		"1"
		"tabPosition"		"0"
	}
	"Server"
	{
		"ControlName"		"CGameServer"
		"fieldName"		"Server"
		"xpos"		"0"
		"ypos"		"0"
		"wide"		"64"
		"tall"		"24"
		"AutoResize"		"0"
		"PinCorner"		"0"
		"visible"		"1"
		"enabled"		"1"
		"tabPosition"		"0"
	}
	"Config"
	{
		"ControlName"		"PropertyPage"
		"fieldName"		"Config"
		"xpos"		"0"
		"ypos"		"28"
		"wide"		"464"
		"tall"		"310"
		"AutoResize"		"0"
		"PinCorner"		"0"
		"visible"		"1"
		"enabled"		"1"
		"tabPosition"		"0"
	}
}
