// Choreo version 1
actor "Monk"
{
  channel "audio"
  {
    event speak "guard yourself well!"
    {
      time 0.066667 3.317461
      ramp 1.00 1.00 1.00
      param "vo\monk\monk_bucket02.wav"
      param2 "90dB"
      fixedlength
    }
  }
  channel "look at"
  {
    event lookat "look at player"
    {
      time 0.020000 3.433333
      ramp 1.00 1.00 1.00
      param "!player"
    }
  }
}

