// Choreo version 1
actor "monk"
{
  channel "targets"
  {
    event lookat "look at player"
    {
      time 0.006667 3.006667
      ramp 1.00 1.00 1.00
      param "!player"
    }
  }
  channel "audio"
  {
    event speak "audio1"
    {
      time 0.626667 1.764445
      ramp 1.00 1.00 1.00
      param "vo\monk\monk_verygoodbro.wav"
      param2 "90dB"
      fixedlength
      tags
      {
        "brother" 0.597656
      }
    }
  }
  channel "gesture"
  {
    event sequence "g1"
    {
      time 0.493333 2.160000
      ramp 1.00 1.00 1.00
      param "G_twofist_midsharp"
      fixedlength
    }
  }
}

mapname "maps\balcony_large.bsp"
fps 60
snap off
