// Choreo version 1
actor "Monk"
{
  channel "Audio"
  {
    event speak "Quickly find the gun"
    {
      time 0.153334 2.150250
      ramp 1.00 1.00 1.00
      param "vo\monk\monk_balc04.wav"
      param2 "90dB"
    }
  }
  channel "look at"
  {
    event lookat "look at player"
    {
      time 0.020000 2.406667
      ramp 1.00 1.00 1.00
      param "!player"
    }
  }
}

