// Choreo version 1
actor "Monk"
{
  channel "audio"
  {
    event speak "what are you doing down there?"
    {
      time 0.066667 6.080635
      ramp 1.00 1.00 1.00
      param "vo\monk\monk_wrong01.wav"
      param2 "90dB"
      fixedlength
    }
  }
  channel "look at"
  {
    event lookat "look at player"
    {
      time 0.020000 6.200000
      ramp 1.00 1.00 1.00
      param "!player"
    }
  }
}

