// Choreo version 1
actor "Monk"
{
  channel "audio"
  {
    event speak "well, if you can survive"
    {
      time 0.066667 9.238549
      ramp 1.00 1.00 1.00
      param "vo\monk\monk_greet07.wav"
      param2 "90dB"
      fixedlength
    }
  }
  channel "look at"
  {
    event lookat "look at player"
    {
      time 0.020000 9.353333
      ramp 1.00 1.00 1.00
      param "!player"
    }
  }
}

