// Created by Crowbar 0.56

$modelname "Advisor.mdl"

$bodygroup "studio"
{
	studio "Advisor_Combine_Advisor_reference.smd"
}


$contents "solid"

$illumposition -2.658 0.03 0.124

$cdmaterials "models\combine_advisor\"

$cbox 0 0 0 0 0 0

$bbox -37.116 -65.325 -79.419 37.055 60.009 79.667

$definebone "Dummy04" "" 0 -0.625578 36.49057 0 89.999983 89.999983 0 0 0 0 0 0
$definebone "Bip01" "Dummy04" 25.623358 -32.128086 -0.124287 0 -102.800031 89.999928 0 0 0 0 0 0
$definebone "Combine Advisor" "Bip01" 9.664772 0.056863 23.407986 77.19999 179.999624 89.999641 0 0 0 0 0 0

$animation "a_Idle01" "Advisor_anims\Idle01.smd" {
	fps 30
	loop
}

$animation "a_fore" "Advisor_anims\fore.smd" {
	fps 30
	loop
	walkframe 109 LX
}

$animation "a_back" "Advisor_anims\back.smd" {
	fps 30
	loop
	walkframe 30 LX
}

$animation "a_turnR" "Advisor_anims\turnR.smd" {
	fps 30
	walkframe 29 LX
}

$animation "a_turnL" "Advisor_anims\turnL.smd" {
	fps 30
	walkframe 29 LX
}

$animation "a_attackR" "Advisor_anims\attackR.smd" {
	fps 30
	walkframe 29 LX
}

$animation "a_attackL" "Advisor_anims\attackL.smd" {
	fps 30
	walkframe 29 LX
}

$sequence "Idle01" {
	"a_Idle01"
	activity "ACT_IDLE" 1
	fadein 0.2
	fadeout 0.2
	fps 30
	loop
}

$sequence "fore" {
	"a_fore"
	fadein 0.2
	fadeout 0.2
	fps 30
	loop
}

$sequence "back" {
	"a_back"
	fadein 0.2
	fadeout 0.2
	fps 30
	loop
}

$sequence "turnR" {
	"a_turnR"
	fadein 0.2
	fadeout 0.2
	fps 30
}

$sequence "turnL" {
	"a_turnL"
	fadein 0.2
	fadeout 0.2
	fps 30
}

$sequence "attackR" {
	"a_attackR"
	fadein 0.2
	fadeout 0.2
	fps 30
}

$sequence "attackL" {
	"a_attackL"
	fadein 0.2
	fadeout 0.2
	fps 30
}

