// Created by Crowbar 0.56

$modelname "Assassin.mdl"

$bodygroup "studio"
{
	studio "Assassin_reference.smd"
}

$lod 30
{
	replacemodel "Assassin_reference.smd" "Assassin_reference_lod1.smd"
}
$lod 40
{
	replacemodel "Assassin_reference.smd" "Assassin_reference_lod2.smd"
}
$lod 50
{
	replacemodel "Assassin_reference.smd" "Assassin_reference_lod3.smd"
}
$lod 90
{
	replacemodel "Assassin_reference.smd" "Assassin_reference_lod4.smd"
}
$lod 100
{
	replacemodel "Assassin_reference.smd" "Assassin_reference_lod5.smd"
}
$lod 120
{
	replacemodel "Assassin_reference.smd" "Assassin_reference_lod6.smd"
}

$illumposition 1.354 -8.835 45.415

$eyeposition 0 0 72

$cdmaterials "models\assassin\"

$texturegroup "skinfamilies"
{
	{ "eyepiece"    }
	{ "eyepiecered" }
}

$cbox 0 0 0 0 0 0

$bbox -19.335 -31.744 -0.11 28.96 20.844 66.11

$definebone "Bip01" "" -0.003784 3.056205 54.626595 0 -89.999921 0 0 0 0 0 0 0
$definebone "Bip01 Pelvis" "Bip01" 0.74077 0 0 -89.980216 -89.999921 0 0 0 0 0 0 0
$definebone "Bip01 Spine" "Bip01 Pelvis" 4.932549 -0.004437 0.000007 -0.000057 0.045607 -0.000229 0 0 0 0 0 0
$definebone "Bip01 Spine1" "Bip01 Spine" 5.576175 -0.004066 0 0 3.49997 0 0 0 0 0 0 0
$definebone "Bip01 Spine2" "Bip01 Spine1" 5.116507 -0.003388 0 -0.000057 15.999962 0 0 0 0 0 0 0
$definebone "Bip01 Spine3" "Bip01 Spine2" 4.425521 -0.001989 0 0 5.499994 0 0 0 0 0 0 0
$definebone "Bip01 Neck" "Bip01 Spine3" 2.514349 -0.00182 0 -0.000115 55.718884 -0.000057 0 0 0 0 0 0
$definebone "Bip01 Neck1" "Bip01 Neck" 4.052278 -0.002235 0 0.000057 -23.781129 0 0 0 0 0 0 0
$definebone "Bip01 Head" "Bip01 Neck1" 3.079409 -0.000008 0 0.000057 -31.98342 0 0 0 0 0 0 0
$definebone "Bip01 L Clavicle" "Bip01 Neck" 0.000001 0.003224 1.981597 -78.54094 124.235924 -0.000458 0 0 0 0 0 0
$definebone "Bip01 L UpperArm" "Bip01 L Clavicle" 7.088035 0.000004 0.000001 50.646775 -38.998485 -40.783309 0 0 0 0 0 0
$definebone "Bip01 L Forearm" "Bip01 L UpperArm" 17.499836 0.000001 -0.000002 0.000002 -12.459137 -0.000003 0 0 0 0 0 0
$definebone "Bip01 L Hand" "Bip01 L Forearm" 22.775501 0.000001 -0.000003 17.988642 -0.649673 -2.057208 0 0 0 0 0 0
$definebone "Bip01 L Finger0" "Bip01 L Hand" 3.456929 1.676791 -0.169407 10.364752 51.33868 3.774591 0 0 0 0 0 0
$definebone "Bip01 L Finger01" "Bip01 L Finger0" 1.75975 0 0 0.000004 0.50002 0.000002 0 0 0 0 0 0
$definebone "Bip01 L Finger02" "Bip01 L Finger01" 1.297475 -0.000001 0.000001 0.000003 16.499977 0.000003 0 0 0 0 0 0
$definebone "Bip01 L Finger1" "Bip01 L Hand" 5.30733 -1.721482 -2.220441 12.235807 -11.781211 -2.576479 0 0 0 0 0 0
$definebone "Bip01 L Finger11" "Bip01 L Finger1" 3.954962 0.000001 0.000001 0.000006 12.499994 0 0 0 0 0 0 0
$definebone "Bip01 L Finger12" "Bip01 L Finger11" 2.908061 -0.000001 0 0.000006 1.500007 0 0 0 0 0 0 0
$definebone "Bip01 L Finger2" "Bip01 L Hand" 5.687304 -1.353117 -1.10985 9.844394 -20.320404 -3.670543 0 0 0 0 0 0
$definebone "Bip01 L Finger21" "Bip01 L Finger2" 1.621305 -0.000001 0.000001 0.000005 2.49999 -0.000003 0 0 0 0 0 0
$definebone "Bip01 L Finger22" "Bip01 L Finger21" 1.12873 0 0.000003 0.000005 0.000002 -0.000003 0 0 0 0 0 0
$definebone "Bip01 L Finger3" "Bip01 L Hand" 5.759282 -1.402616 0.045167 9.224397 -13.687899 -2.282036 0 0 0 0 0 0
$definebone "Bip01 L Finger31" "Bip01 L Finger3" 1.762849 -0.000001 0 0.000004 -0.999977 -0.000003 0 0 0 0 0 0
$definebone "Bip01 L Finger32" "Bip01 L Finger31" 1.202573 0.000001 0.000002 0.000004 0.000005 -0.000003 0 0 0 0 0 0
$definebone "Bip01 L Finger4" "Bip01 L Hand" 5.813794 -0.840688 1.364314 9.487785 -15.507328 -0.044579 0 0 0 0 0 0
$definebone "Bip01 L Finger41" "Bip01 L Finger4" 4.173366 0 0.000001 0.000006 13.000015 -0.000001 0 0 0 0 0 0
$definebone "Bip01 L Finger42" "Bip01 L Finger41" 3.279073 -0.000001 -0.000002 0.000006 12.000029 0 0 0 0 0 0 0
$definebone "Bip01 R Clavicle" "Bip01 Neck" 0.000001 0.003237 -1.981597 78.540708 124.235077 -0.000458 0 0 0 0 0 0
$definebone "Bip01 R UpperArm" "Bip01 R Clavicle" 7.088037 0.000002 -0.000007 -50.646775 -38.998492 40.783306 0 0 0 0 0 0
$definebone "Bip01 R Forearm" "Bip01 R UpperArm" 17.499838 0 0.000002 -0.000005 -12.459139 0.000001 0 0 0 0 0 0
$definebone "Bip01 R Hand" "Bip01 R Forearm" 22.775509 0.000001 0.000006 -17.988642 -0.649677 2.057206 0 0 0 0 0 0
$definebone "Bip01 R Finger0" "Bip01 R Hand" 3.430613 1.627536 0.492781 -7.082103 53.655378 -2.550924 0 0 0 0 0 0
$definebone "Bip01 R Finger01" "Bip01 R Finger0" 1.731555 0 0.000002 -0.000001 -5.499991 -0.000001 0 0 0 0 0 0
$definebone "Bip01 R Finger02" "Bip01 R Finger01" 1.254586 -0.000001 0 -0.000001 17.999989 -0.000001 0 0 0 0 0 0
$definebone "Bip01 R Finger1" "Bip01 R Hand" 4.763641 -1.497735 2.231699 -11.766434 -11.758241 2.272638 0 0 0 0 0 0
$definebone "Bip01 R Finger11" "Bip01 R Finger1" 3.632632 -0.000001 -0.000001 -0.000001 7.500017 0.000001 0 0 0 0 0 0
$definebone "Bip01 R Finger12" "Bip01 R Finger11" 3.632629 0 0.000003 -0.000001 6.999997 0.000001 0 0 0 0 0 0
$definebone "Bip01 R Finger2" "Bip01 R Hand" 5.752891 -1.84908 1.144223 -10.52856 -16.799694 3.204325 0 0 0 0 0 0
$definebone "Bip01 R Finger21" "Bip01 R Finger2" 1.936562 0.000001 -0.000001 -0.000001 6.499979 0.000001 0 0 0 0 0 0
$definebone "Bip01 R Finger22" "Bip01 R Finger21" 1.021233 0 0.000001 -0.000001 -0.500019 0.000001 0 0 0 0 0 0
$definebone "Bip01 R Finger3" "Bip01 R Hand" 5.941065 -1.658548 -0.102012 -10.25841 -12.206348 2.252069 0 0 0 0 0 0
$definebone "Bip01 R Finger31" "Bip01 R Finger3" 1.5441 -0.000001 0.000002 -0.000001 -2.499988 0.000001 0 0 0 0 0 0
$definebone "Bip01 R Finger32" "Bip01 R Finger31" 1.249273 0 0 -0.000001 1.500003 0.000001 0 0 0 0 0 0
$definebone "Bip01 R Finger4" "Bip01 R Hand" 6.061067 -0.879989 -1.489959 -8.588066 -14.124613 3.319146 0 0 0 0 0 0
$definebone "Bip01 R Finger41" "Bip01 R Finger4" 3.650945 0 -0.000002 -0.000001 6.499978 0.000001 0 0 0 0 0 0
$definebone "Bip01 R Finger42" "Bip01 R Finger41" 3.650946 0 0.000001 -0.000001 9.499985 0.000001 0 0 0 0 0 0
$definebone "Bip01 L Thigh" "Bip01 Spine" -4.932544 0.008355 4.632308 -2.074105 -175.670568 163.564946 0 0 0 0 0 0
$definebone "Bip01 L Calf" "Bip01 L Thigh" 21.363577 0 0 0 -7.970646 -0.000001 0 0 0 0 0 0
$definebone "Bip01 L Foot" "Bip01 L Calf" 28.956022 0 0.000001 -3.221398 11.586009 -4.74604 0 0 0 0 0 0
$definebone "Bip01 L Toe0" "Bip01 L Foot" 4.932548 7.711931 -2.037357 4.500012 89.999983 0 0 0 0 0 0 0
$definebone "Bip01 L Toe1" "Bip01 L Foot" 4.932548 7.852635 1.670812 -9.499983 89.999983 0 0 0 0 0 0 0
$definebone "Bip01 R Thigh" "Bip01 Spine" -4.932546 0.008381 -4.632307 2.160999 -175.6449 -163.566189 0 0 0 0 0 0
$definebone "Bip01 R Calf" "Bip01 R Thigh" 21.363573 0 0.000001 0 -7.916387 -0.000002 0 0 0 0 0 0
$definebone "Bip01 R Foot" "Bip01 R Calf" 28.956024 -0.000001 0 3.311753 11.532208 5.253619 0 0 0 0 0 0
$definebone "Bip01 R Toe0" "Bip01 R Foot" 4.932549 7.71193 2.037356 0.000004 89.999983 0 0 0 0 0 0 0
$definebone "Bip01 R Toe1" "Bip01 R Foot" 4.932549 7.71193 -2.037356 9.000023 89.999983 0 0 0 0 0 0 0
$definebone "Assasin" "Bip01 Pelvis" -54.626595 2.315434 0.003701 -0.000172 -89.999983 -179.999911 0 0 0 0 0 0

$animation "a_Idle01" "Assassin_anims\Idle01.smd" {
	fps 30
	loop
}

$animation "a_walk" "Assassin_anims\walk.smd" {
	fps 30
	loop
}

$animation "a_run" "Assassin_anims\run.smd" {
	fps 30
	loop
}

$animation "a_runrope" "Assassin_anims\runrope.smd" {
	fps 30
	loop
}

$animation "a_knife" "Assassin_anims\knife.smd" {
	fps 30
}

$animation "a_tripwire" "Assassin_anims\tripwire.smd" {
	fps 30
}

$animation "a_pests" "Assassin_anims\pests.smd" {
	fps 30
}

$animation "a_stab" "Assassin_anims\stab.smd" {
	fps 30
}

$animation "a_jump" "Assassin_anims\jump.smd" {
	fps 30
}

$animation "a_falling" "Assassin_anims\falling.smd" {
	fps 30
	loop
}

$animation "a_landsft" "Assassin_anims\landsft.smd" {
	fps 30
}

$animation "a_jumpbackt" "Assassin_anims\jumpbackt.smd" {
	fps 25
}

$animation "a_smoke" "Assassin_anims\smoke.smd" {
	fps 30
}

$animation "a_inspect" "Assassin_anims\inspect.smd" {
	fps 30
	loop
}

$animation "a_toinspect" "Assassin_anims\toinspect.smd" {
	fps 30
}

$animation "a_inspectalert" "Assassin_anims\inspectalert.smd" {
	fps 30
}

$animation "a_ragdoll" "Assassin_anims\ragdoll.smd" {
	fps 15
}

$sequence "Idle01" {
	"Assassin_anims\Idle01.smd"
	activity "ACT_IDLE" 1
	fadein 0
	fadeout 0
	fps 30
	loop
}

$sequence "walk" {
	"Assassin_anims\walk.smd"
	activity "ACT_WALK" 1
	fadein 0
	fadeout 0
	fps 30
	loop
}

$sequence "run" {
	"Assassin_anims\run.smd"
	activity "ACT_RUN" 1
	fadein 0
	fadeout 0
	fps 30
	loop
}

$sequence "runrope" {
	"Assassin_anims\runrope.smd"
	fadein 0
	fadeout 0
	fps 30
	loop
}

$sequence "knife" {
	"Assassin_anims\knife.smd"
	activity "ACT_RANGE_ATTACK1" 1
}

$sequence "tripwire" {
	"Assassin_anims\tripwire.smd"
	activity "ACT_ASSASSIN_THROWTRIPWIRE" 1
}

$sequence "pests" {
	"Assassin_anims\pests.smd"
	activity "ACT_ASSASSIN_THROWPESTS" 1
}

$sequence "stab" {
	"Assassin_anims\stab.smd"
	activity "ACT_MELEE_ATTACK1" 1
}

$sequence "jump" {
	"Assassin_anims\jump.smd"
	activity "ACT_HOP" 1
	fadein 0
	fadeout 0
	fps 30
}

$sequence "falling" {
	"Assassin_anims\falling.smd"
	activity "ACT_JUMP" 1
	fadein 0
	fadeout 0
	fps 30
	loop
}

$sequence "landsft" {
	"Assassin_anims\landsft.smd"
	fadein 0
	fadeout 0
	fps 30
}

$sequence "jumpbackt" {
	"Assassin_anims\jumpbackt.smd"
	activity "ACT_ASSASSIN_DEPLOYPESTS" 1
}

$sequence "smoke" {
	"Assassin_anims\smoke.smd"
	activity "ACT_ASSASSIN_SMOKE" 1
}

$sequence "inspect" {
	"Assassin_anims\inspect.smd"
	activity "ACT_ASSASSIN_INSPECT" 1
	fadein 0
	fadeout 0
	fps 30
	loop
}

$sequence "toinspect" {
	"Assassin_anims\toinspect.smd"
	activity "ACT_ASSASSIN_TOINSPECT" 1
	fadein 0
	fadeout 0
	fps 30
}

$sequence "inspectalert" {
	"Assassin_anims\inspectalert.smd"
	activity "ACT_ASSASSIN_INSPECTALERT" 1
	fadein 0
	fadeout 0
	fps 30
}

$sequence "ragdoll" {
	"Assassin_anims\ragdoll.smd"
	activity "ACT_DIERAGDOLL" 1
	fadein 0
	fadeout 0
	fps 30
}


$collisionjoints "Assassin_physics.smd"
{
	$mass 90
	$inertia 5
	$damping 0.01
	$rotdamping 1.5
	$rootbone " "


	$jointmassbias "Bip01 R Thigh" 2
	$jointconstrain "Bip01 R Thigh" x limit -25 20 1
	$jointconstrain "Bip01 R Thigh" y limit -40 20 1
	$jointconstrain "Bip01 R Thigh" z limit -37 63 1

	$jointconstrain "Bip01 R Calf" x limit 0 0 0
	$jointconstrain "Bip01 R Calf" y limit 0 0 0
	$jointconstrain "Bip01 R Calf" z limit -95 4 1

	$jointmassbias "Bip01 L Thigh" 2
	$jointconstrain "Bip01 L Thigh" x limit -25 20 1
	$jointconstrain "Bip01 L Thigh" y limit -20 40 1
	$jointconstrain "Bip01 L Thigh" z limit -37 63 1

	$jointconstrain "Bip01 L Calf" x limit 0 0 0
	$jointconstrain "Bip01 L Calf" y limit 0 0 0
	$jointconstrain "Bip01 L Calf" z limit -95 4 1

	$jointconstrain "Bip01 L Foot" x limit 0 0 0
	$jointconstrain "Bip01 L Foot" y limit 0 0 0
	$jointconstrain "Bip01 L Foot" z limit -15 35 1

	$jointconstrain "Bip01 Spine2" x limit -60 60 1
	$jointconstrain "Bip01 Spine2" y limit -25 25 1
	$jointconstrain "Bip01 Spine2" z limit -25 15 1

	$jointmassbias "Bip01 R UpperArm" 2
	$jointconstrain "Bip01 R UpperArm" x limit -20 20 1
	$jointconstrain "Bip01 R UpperArm" y limit -45 76 1
	$jointconstrain "Bip01 R UpperArm" z limit 0 0 0

	$jointmassbias "Bip01 R Forearm" 3
	$jointconstrain "Bip01 R Forearm" x limit 0 0 0
	$jointconstrain "Bip01 R Forearm" y limit 0 0 0
	$jointconstrain "Bip01 R Forearm" z limit -120 4 1

	$jointmassbias "Bip01 L UpperArm" 2
	$jointconstrain "Bip01 L UpperArm" x limit -20 20 1
	$jointconstrain "Bip01 L UpperArm" y limit -76 30 1
	$jointconstrain "Bip01 L UpperArm" z limit 0 0 0

	$jointmassbias "Bip01 L Forearm" 3
	$jointconstrain "Bip01 L Forearm" x limit 0 0 0
	$jointconstrain "Bip01 L Forearm" y limit 0 0 0
	$jointconstrain "Bip01 L Forearm" z limit -120 4 1

	$jointmassbias "Bip01 L Hand" 2
	$jointconstrain "Bip01 L Hand" x limit 0 0 0
	$jointconstrain "Bip01 L Hand" y limit 0 0 0
	$jointconstrain "Bip01 L Hand" z limit -35 60 1

	$jointconstrain "Bip01 Neck1" x limit 0 0 0
	$jointconstrain "Bip01 Neck1" y limit 0 0 0
	$jointconstrain "Bip01 Neck1" z limit 0 0 0

	$jointrotdamping "Bip01 Head" 5
	$jointconstrain "Bip01 Head" x limit -20 20 1
	$jointconstrain "Bip01 Head" y limit -25 25 1
	$jointconstrain "Bip01 Head" z limit -13 30 1

	$jointmassbias "Bip01 R Hand" 2
	$jointconstrain "Bip01 R Hand" x limit 0 0 0
	$jointconstrain "Bip01 R Hand" y limit 0 0 0
	$jointconstrain "Bip01 R Hand" z limit -35 60 1

	$jointconstrain "Bip01 R Foot" x limit 0 0 0
	$jointconstrain "Bip01 R Foot" y limit 0 0 0
	$jointconstrain "Bip01 R Foot" z limit -15 35 1
}
