// Created by Crowbar 0.56

$modelname "Combine_wall.mdl"

$bodygroup "Body"
{
	studio "Combine_wall_Wall_reference.smd"
}


$surfaceprop "metal"

$contents "solid"

$illumposition -11.888 89.79 753.695

$cdmaterials "models\combine_wall\"

$cbox 0 0 0 0 0 0

$bbox -295.614 -311.005 31.7 116.033 287.228 1475.69

$definebone "cube" "" 0 127.449165 403.014648 0 0 89.999983 0 0 0 0 0 0
$definebone "Primary_A" "cube" 252.791107 502.57196 -4.779257 0 0 0 0 0 0 0 0 0
$definebone "Secondary_A" "Primary_A" 24.190521 -143.90155 149.821136 0 0 0 0 0 0 0 0 0
$definebone "Primary_B" "cube" 145.143219 502.57196 -4.779257 0 0 0 0 0 0 0 0 0
$definebone "Secondary_B" "Primary_B" 65.314453 -143.90155 149.821136 0 0 0 0 0 0 0 0 0
$definebone "Primary_C" "cube" 58.057285 502.57196 -4.779257 0 0 0 0 0 0 0 0 0
$definebone "Secondary_C" "Primary_C" -42.333439 -143.90155 149.821136 0 0 0 0 0 0 0 0 0
$definebone "Primary_E" "cube" -110.06694 502.57196 -4.779257 0 0 0 0 0 0 0 0 0
$definebone "Secondary_E" "Primary_E" -35.076279 -143.90155 149.821136 0 0 0 0 0 0 0 0 0
$definebone "Primary_F" "cube" -211.667191 502.57196 -4.779257 0 0 0 0 0 0 0 0 0
$definebone "Secondary_F" "Primary_F" -33.866745 -143.90155 149.821136 0 0 0 0 0 0 0 0 0
$definebone "Primary_D" "cube" -42.333439 502.57196 -4.779257 0 0 0 0 0 0 0 0 0
$definebone "Secondary_D" "Primary_D" -26.609592 -143.90155 149.821136 0 0 0 0 0 0 0 0 0

$animation "a_idleup" "Combine_wall_anims\idleup.smd" {
	fps 30
	loop
}

$animation "a_idle" "Combine_wall_anims\idle.smd" {
	fps 30
	loop
}

$animation "a_crush" "Combine_wall_anims\crush.smd" {
	fps 30
}

$sequence "idleup" {
	"a_idleup"
	fadein 0.2
	fadeout 0.2
	fps 30
	loop
}

$sequence "idle" {
	"a_idle"
	fadein 0.2
	fadeout 0.2
	fps 30
	loop
}

$sequence "crush" {
	"a_crush"
	{ event 1003 8 "1" }
	{ event 1003 170 "2" }
	{ event 1003 240 "3" }
	{ event 1003 201 "4" }
	{ event 1003 187 "5" }
	{ event 1003 245 "6" }
	fadein 0.2
	fadeout 0.2
	fps 30
}

