// Created by Crowbar 0.56

$modelname "Combine_gate.mdl"

$bodygroup "Body"
{
	studio "Combine_gate_Gate_reference.smd"
}

$lod 20
{
	replacemodel "Combine_gate_Gate_reference.smd" "Combine_gate_Gate_reference_lod1.smd"
}
$lod 90
{
	replacemodel "Combine_gate_Gate_reference.smd" "Combine_gate_Gate_reference_lod2.smd"
}
$lod 130
{
	replacemodel "Combine_gate_Gate_reference.smd" "Combine_gate_Gate_reference_lod3.smd"
}
$lod 155
{
	replacemodel "Combine_gate_Gate_reference.smd" "Combine_gate_Gate_reference_lod4.smd"
}

$surfaceprop "metal"

$contents "solid"

$illumposition 0.142 22.418 148.962

$cdmaterials "models\combine_gate\"

$cbox 0 0 0 0 0 0

$bbox -139.172 -210.501 2.249 94.337 210.785 295.675

$definebone "Base" "" -0.798786 126.562675 143.406479 0 0 89.999983 0 0 0 0 0 0
$definebone "A_Primary" "Base" 157.989105 60.964363 145.911026 0 0 0 0 0 0 0 0 0
$definebone "A_Secondary" "A_Primary" 25.926987 -69.731773 46.71278 0 0 0 0 0 0 0 0 0
$definebone "A_1" "A_Primary" -8.327713 -76.931885 46.998947 0 0 0 0 0 0 0 0 0
$definebone "A_2" "A_Primary" -22.099716 -76.931885 46.998947 0 0 0 0 0 0 0 0 0
$definebone "A_3" "A_Primary" -26.98996 -76.931885 46.998947 0 0 0 0 0 0 0 0 0
$definebone "B_Primary" "Base" 76.03273 60.964363 145.909592 0 0 0 0 0 0 0 0 0
$definebone "B_Secondary" "B_Primary" 26.057556 -69.731773 46.714199 0 0 0 0 0 0 0 0 0
$definebone "B_1" "B_Primary" -7.314163 -76.931885 47.004829 0 0 0 0 0 0 0 0 0
$definebone "B_2" "B_Primary" -21.228371 -76.931885 47.004829 0 0 0 0 0 0 0 0 0
$definebone "B_3" "B_Primary" -26.181492 -76.931885 47.004829 0 0 0 0 0 0 0 0 0
$definebone "C_Primary" "Base" -4.8429 60.964363 145.911072 0 0 0 0 0 0 0 0 0
$definebone "C_Secondary" "C_Primary" 25.681334 -69.731773 46.712727 0 0 0 0 0 0 0 0 0
$definebone "C_1" "C_Primary" -8.194796 -76.931885 47.003357 0 0 0 0 0 0 0 0 0
$definebone "C_2" "C_Primary" -21.706854 -76.931885 47.003357 0 0 0 0 0 0 0 0 0
$definebone "C_3" "C_Primary" -26.781651 -76.931885 47.003357 0 0 0 0 0 0 0 0 0
$definebone "D_Primary" "Base" -86.5896 60.964363 145.911072 0 0 0 0 0 0 0 0 0
$definebone "D_Secondary" "D_Primary" 26.222939 -69.731773 46.712727 0 0 0 0 0 0 0 0 0
$definebone "D_1" "D_Primary" -7.207115 -76.931885 47.003357 0 0 0 0 0 0 0 0 0
$definebone "D_2" "D_Primary" -20.948647 -76.931885 47.003357 0 0 0 0 0 0 0 0 0
$definebone "D_3" "D_Primary" -26.031128 -76.931885 47.003357 0 0 0 0 0 0 0 0 0
$definebone "E_Primary" "Base" -167.348419 60.964363 145.911072 0 0 0 0 0 0 0 0 0
$definebone "E_Secondary" "E_Primary" 26.102005 -69.731773 46.712727 0 0 0 0 0 0 0 0 0
$definebone "E_1" "E_Primary" -7.736053 -76.931885 47.003357 0 0 0 0 0 0 0 0 0
$definebone "E_2" "E_Primary" -21.505371 -76.931885 47.003357 0 0 0 0 0 0 0 0 0
$definebone "E_3" "E_Primary" -26.494308 -76.931885 47.003357 0 0 0 0 0 0 0 0 0
$definebone "Elbow_D" "Base" -115.279831 60.321331 37.441044 0 0 0 0 0 0 0 0 0
$definebone "Elbow_C" "Base" -48.692097 92.278648 3.23274 0 0 0 0 0 0 0 0 0
$definebone "Elbow_E" "Base" -99.982643 21.173634 66.248039 0 0 0 0 0 0 0 0 0
$definebone "Elbow_B" "Base" 85.383202 109.056229 35.640614 0 0 0 0 0 0 0 0 0
$definebone "Elbow_A" "Base" 102.480057 47.53841 13.135146 0 0 0 0 0 0 0 0 0
$definebone "Gate" "" 0 0 0 0 0 89.999983 0 0 0 0 0 0

$animation "a_idle1" "Combine_gate_anims\idle1.smd" {
	fps 30
	loop
}

$animation "a_idleopen" "Combine_gate_anims\idleopen.smd" {
	fps 30
	loop
}

$animation "a_open" "Combine_gate_anims\open.smd" {
	fps 30
}

$animation "a_close" "Combine_gate_anims\close.smd" {
	fps 30
}

$animation "a_shutterclose" "Combine_gate_anims\shutterclose.smd" {
	fps 30
}

$animation "a_shutteropen" "Combine_gate_anims\shutteropen.smd" {
	fps 30
}

$sequence "idle1" {
	"a_idle1"
	fadein 0.2
	fadeout 0.2
	fps 30
	loop
}

$sequence "idleopen" {
	"a_idleopen"
	fadein 0.2
	fadeout 0.2
	fps 30
	loop
}

$sequence "open" {
	"a_open"
	fadein 0.2
	fadeout 0.2
	fps 30
}

$sequence "close" {
	"a_close"
	fadein 0.2
	fadeout 0.2
	fps 30
}

$sequence "shutterclose" {
	"a_shutterclose"
	fadein 0.2
	fadeout 0.2
	fps 30
}

$sequence "shutteropen" {
	"a_shutteropen"
	fadein 0.2
	fadeout 0.2
	fps 30
}

