// Created by Crowbar 0.56

$modelname "Crow.mdl"

$bodygroup "studio"
{
	studio "Crow_reference.smd"
}

$lod 8
{
	replacemodel "Crow_reference.smd" "Crow_reference_lod1.smd"
}
$lod 15
{
	replacemodel "Crow_reference.smd" "Crow_reference_lod2.smd"
}
$lod 45
{
	replacemodel "Crow_reference.smd" "Crow_reference_lod3.smd"
}
$shadowlod
{
	replacemodel "Crow_reference.smd" "Crow_reference_lod4.smd"
}

$surfaceprop "flesh"

$contents "solid"

$illumposition -0.172 -0.174 5.257

$eyeposition 0 0 4

$cdmaterials "models\crow\"

$cbox 0 0 0 0 0 0

$bbox -9.798 -16.633 -9.182 10.145 16.29 19.696

$hboxset "default"
$hbox 0 "Crow.Body" -2 -2.2 -4.38 2 2.8 2.62 ""
$hbox 0 "Crow.Tail_L" 0.37 -1.49 -0.8 5.37 1.51 1.2 ""
$hbox 0 "Crow.Head" -1.21 -2.35 -1.28 3.25 1.37 1.26 ""
$hbox 0 "Crow.Phalanges2_L" -0.78 -1.08 -4.12 10.63 1.39 6 ""
$hbox 0 "Crow.Tail_R" 0.37 -1.49 -1.2 5.37 1.51 0.8 ""
$hbox 0 "Crow.Phalanges2_R" -0.78 -1.08 -6 10.63 1.39 4.12 ""
$skipboneinbbox

$definebone "Crow.Body" "" 0 0 4.892646 0 0 89.999983 0 0 0 0 0 0
$definebone "Crow.Tail_L" "Crow.Body" 1.005224 0.078411 -3.282914 58.858732 -70.775336 -164.87626 0 0 0 0 0 0
$definebone "Crow.Head" "Crow.Body" -0.008096 3.431618 2.617966 -89.999983 0 0 0 0 0 0 0 0
$definebone "Crow.Clavical_L" "Crow.Body" 0.64996 2.198929 1.118921 -28.393727 20.565348 -100.115787 0 0 0 0 0 0
$definebone "Crow.Humerus_L" "Crow.Clavical_L" 0.997563 0.022142 -0.003165 26.490933 51.345155 104.437889 0 0 0 0 0 0
$definebone "Crow.Ulna_L" "Crow.Humerus_L" 2.663113 0.000001 0 -54.000333 36.436758 -107.992197 0 0 0 0 0 0
$definebone "Crow.Phalanges1_L" "Crow.Ulna_L" -0.292841 0.366622 -0.128552 15.040314 130.431151 97.885143 0 0 0 0 0 0
$definebone "Crow.Phalanges2_L" "Crow.Ulna_L" 2.394981 0.293334 -0.061246 17.407832 96.49177 103.254675 0 0 0 0 0 0
$definebone "Crow.Phalanges3_L" "Crow.Ulna_L" 3.500529 0 -0.000001 11.170155 48.324238 99.423363 0 0 0 0 0 0
$definebone "Crow.Femur_L" "Crow.Body" 1.130464 -0.678652 -0.387796 19.235053 -93.744661 -101.120637 0 0 0 0 0 0
$definebone "Crow.Tibia_L" "Crow.Femur_L" 2.190637 0 0 0 -46.475644 0 0 0 0 0 0 0
$definebone "Crow.Talon_L" "Crow.Tibia_L" 1.974897 -0.045726 -0.031442 -2.505888 -64.403664 -179.904507 0 0 0 0 0 0
$definebone "Crow.Tail_R" "Crow.Body" -1.005224 0.078411 -3.282914 58.858753 -109.224664 -15.123738 0 0 0 0 0 0
$definebone "Crow.Clavical_R" "Crow.Body" -0.64996 2.198929 1.118921 -28.393727 159.434676 -79.88424 0 0 0 0 0 0
$definebone "Crow.Humerus_R" "Crow.Clavical_R" 0.997563 0.022142 0.003165 -26.490935 51.345155 -104.437889 0 0 0 0 0 0
$definebone "Crow.Ulna_R" "Crow.Humerus_R" 2.663113 0.000001 0 54.000302 36.436734 107.99219 0 0 0 0 0 0
$definebone "Crow.Phalanges1_R" "Crow.Ulna_R" -0.292841 0.366622 0.128552 -15.040317 130.431151 -97.885149 0 0 0 0 0 0
$definebone "Crow.Phalanges2_R" "Crow.Ulna_R" 2.394981 0.293334 0.061246 -17.407833 96.491763 -103.254675 0 0 0 0 0 0
$definebone "Crow.Phalanges3_R" "Crow.Ulna_R" 3.500529 0 0.000001 -11.17016 48.324234 -99.423363 0 0 0 0 0 0
$definebone "Crow.Femur_R" "Crow.Body" -1.130464 -0.678652 -0.387796 19.235053 -86.255359 -78.879328 0 0 0 0 0 0
$definebone "Crow.Tibia_R" "Crow.Femur_R" 2.190637 0 0 0 -46.475644 0 0 0 0 0 0 0
$definebone "Crow.Talon_R" "Crow.Tibia_R" 1.974897 -0.045726 0.031442 2.507435 -63.108606 179.96117 0 0 0 0 0 0
$definebone "XSISceneRoot" "" 0 0 0 0 0 89.999983 0 0 0 0 0 0

$animation "a_Fly01" "Crow_anims\Fly01.smd" {
	fps 40
	loop
}

$animation "a_Idle01" "Crow_anims\Idle01.smd" {
	fps 30
	loop
}

$animation "a_Walk" "Crow_anims\Walk.smd" {
	fps 30
	loop
	walkframe 23 LX LY
}

$animation "a_Run" "Crow_anims\Run.smd" {
	fps 30
	loop
	walkframe 11 LX LY
}

$animation "a_Eat_A" "Crow_anims\Eat_A.smd" {
	fps 30
	loop
}

$animation "a_Eat_B" "Crow_anims\Eat_B.smd" {
	fps 30
	loop
}

$animation "a_Takeoff" "Crow_anims\Takeoff.smd" {
	fps 30
}

$animation "a_Soar" "Crow_anims\Soar.smd" {
	fps 30
	loop
}

$animation "a_Land" "Crow_anims\Land.smd" {
	fps 30
}

$animation "a_Land_b" "Crow_anims\Land_b.smd" {
	fps 30
}

$animation "a_Hop" "Crow_anims\Hop.smd" {
	fps 30
}

$animation "a_Hop_B" "Crow_anims\Hop_B.smd" {
	fps 30
}

$animation "a_reference" "Crow_anims\reference.smd" {
	fps 30
}

$animation "a_ragdoll" "Crow_anims\ragdoll.smd" {
	fps 30
}

$sequence "Fly01" {
	"a_Fly01"
	activity "ACT_FLY" 1
	fadein 0.2
	fadeout 0.2
	fps 40
	loop
}

$sequence "Idle01" {
	"a_Idle01"
	activity "ACT_IDLE" 1
	fadein 0.2
	fadeout 0.2
	fps 30
	loop
}

$sequence "Walk" {
	"a_Walk"
	activity "ACT_WALK" 1
	fadein 0.2
	fadeout 0.2
	fps 30
	loop
}

$sequence "Run" {
	"a_Run"
	activity "ACT_RUN" 1
	fadein 0.2
	fadeout 0.2
	fps 30
	loop
}

$sequence "Eat_A" {
	"a_Eat_A"
	fadein 0.2
	fadeout 0.2
	fps 30
	loop
}

$sequence "Eat_B" {
	"a_Eat_B"
	fadein 0.2
	fadeout 0.2
	fps 30
	loop
}

$sequence "Takeoff" {
	"a_Takeoff"
	activity "ACT_CROW_TAKEOFF" 1
	{ event 2 7 "" }
	{ event 3 8 "" }
	fadein 0.2
	fadeout 0.2
	fps 30
}

$sequence "Soar" {
	"a_Soar"
	fadein 0.2
	fadeout 0.2
	fps 30
	loop
}

$sequence "Land" {
	"a_Land"
	fadein 0.2
	fadeout 0.2
	fps 30
}

$sequence "Land_b" {
	"a_Land_b"
	fadein 0.2
	fadeout 0.2
	fps 30
}

$sequence "Hop" {
	"a_Hop"
	activity "ACT_HOP" 1
	{ event 4 0 "" }
	fadein 0.2
	fadeout 0.2
	fps 30
}

$sequence "Hop_B" {
	"a_Hop_B"
	fadein 0.2
	fadeout 0.2
	fps 30
}

$sequence "reference" {
	"a_reference"
	fadein 0.2
	fadeout 0.2
	fps 30
}

$sequence "ragdoll" {
	"a_ragdoll"
	activity "ACT_DIERAGDOLL" 1
	fadein 0.2
	fadeout 0.2
	fps 30
}


$collisionjoints "Crow_physics.smd"
{
	$mass 1.5
	$inertia 10
	$damping 0.01
	$rotdamping 1
	$rootbone "crow.body"


	$jointconstrain "Crow.Humerus_R" x limit -23 32 1
	$jointconstrain "Crow.Humerus_R" y limit -26 44 1
	$jointconstrain "Crow.Humerus_R" z limit -37 50 1

	$jointconstrain "Crow.Ulna_R" x limit 0 0 1
	$jointconstrain "Crow.Ulna_R" y limit 0 0 0
	$jointconstrain "Crow.Ulna_R" z limit -46 10 1

	$jointconstrain "Crow.Phalanges3_R" x limit 0 0 0
	$jointconstrain "Crow.Phalanges3_R" y limit -35 0 1
	$jointconstrain "Crow.Phalanges3_R" z limit 0 0 1

	$jointconstrain "Crow.Phalanges1_R" x limit 0 0 1
	$jointconstrain "Crow.Phalanges1_R" y limit -10 10 1
	$jointconstrain "Crow.Phalanges1_R" z limit -15 15 1

	$jointconstrain "Crow.Tail_R" x limit 0 0 0
	$jointconstrain "Crow.Tail_R" y limit 28 -19 1
	$jointconstrain "Crow.Tail_R" z limit 0 23 1

	$jointconstrain "Crow.Humerus_L" x limit -23 32 1
	$jointconstrain "Crow.Humerus_L" y limit -26 44 1
	$jointconstrain "Crow.Humerus_L" z limit -37 50 1

	$jointconstrain "Crow.Ulna_L" x limit 0 0 0
	$jointconstrain "Crow.Ulna_L" y limit 0 0 0
	$jointconstrain "Crow.Ulna_L" z limit -46 10 1

	$jointconstrain "Crow.Phalanges1_L" x limit 0 0 1
	$jointconstrain "Crow.Phalanges1_L" y limit -10 10 1
	$jointconstrain "Crow.Phalanges1_L" z limit -15 15 1

	$jointconstrain "Crow.Phalanges3_L" x limit 0 0 0
	$jointconstrain "Crow.Phalanges3_L" y limit 35 0 1
	$jointconstrain "Crow.Phalanges3_L" z limit 0 0 0

	$jointconstrain "Crow.Phalanges2_L" x limit 0 0 1
	$jointconstrain "Crow.Phalanges2_L" y limit -1 30 1
	$jointconstrain "Crow.Phalanges2_L" z limit -8 8 1

	$jointconstrain "Crow.Head" x limit -21 21 1
	$jointconstrain "Crow.Head" y limit -28 28 1
	$jointconstrain "Crow.Head" z limit -55 23 1

	$jointconstrain "Crow.Tail_L" x limit 0 0 0
	$jointconstrain "Crow.Tail_L" y limit -28 19 1
	$jointconstrain "Crow.Tail_L" z limit 0 23 1

	$jointconstrain "Crow.Phalanges2_R" x limit 0 0 1
	$jointconstrain "Crow.Phalanges2_R" y limit -1 30 1
	$jointconstrain "Crow.Phalanges2_R" z limit -8 8 1
}
