// Created by Crowbar 0.56

$modelname "error.mdl"

$staticprop

$bodygroup "body"
{
	studio "error_waypoint.smd"
}


$contents "solid"

$illumposition 3.456 -1.048 34.633

$cdmaterials "models\error\"

$cbox 0 0 0 0 0 0

$bbox -7.545 -37.84 1.483 9.642 44.751 67.783

$definebone "static_prop" "" 0 0 0 0 0 0 0 0 0 0 0 0

$animation "a_idle" "error_anims\idle.smd" {
	fps 30
}

$sequence "idle" {
	"a_idle"
	fadein 0.2
	fadeout 0.2
	fps 30
}


$collisionmodel "error_physics.smd"
{
	$mass 80
	$inertia 1
	$damping 0
	$rotdamping 0
	$rootbone " "
	$concave

}
