// Created by Crowbar 0.56

$modelname "fan_destroyed.mdl"

$staticprop

$bodygroup "Body"
{
	studio "fan_destroyed.smd"
}


$surfaceprop "metalpanel"

$contents "solid"

$illumposition -20.896 2.548 15.345

$cdmaterials "models\insignia\\"

$cbox 0 0 0 0 0 0

$bbox -14.079 -60.062 -35.233 8.983 18.271 65.923

$definebone "static_prop" "" 0 0 0 0 0 0 0 0 0 0 0 0

$animation "a_idle" "fan_destroyed_anims\idle.smd" {
	fps 30
}

$sequence "idle" {
	"a_idle"
	fadein 0.2
	fadeout 0.2
	fps 30
}


$collisionmodel "fan_destroyed_physics.smd"
{
	$mass 80
	$inertia 1
	$damping 0
	$rotdamping 0
	$rootbone " "
	$concave

}
