// Created by Crowbar 0.56

$modelname "ihvtest_noflex.mdl"

$bodygroup "ihvtest"
{
	studio "ihvtest_noflex_ihvtest_reference.smd"
}


$illumposition -1.842 1.302 34.667

$eyeposition 0 0 67

$cdmaterials "models\ihvtest\"

$cbox 0 0 0 0 0 0

$bbox -10.349 -19.758 -0.248 7.85 13.337 72.418

$controller 0 "Bip01 Head" 8 -60 60

$definebone "Bip01" "" -0.000005 -0.533613 38.566917 0 -89.999921 0 0 0 0 0 0 0
$definebone "Bip01 Pelvis" "Bip01" 0 0 0 -89.980216 -89.999921 0 0 0 0 0 0 0
$definebone "Bip01 Spine" "Bip01 Pelvis" 3.345123 -2.981906 0.000013 -0.000115 -4.904347 -0.000229 0 0 0 0 0 0
$definebone "Bip01 Spine1" "Bip01 Spine" 4.018329 -0.0028 0 0 -1.599984 0 0 0 0 0 0 0
$definebone "Bip01 Spine2" "Bip01 Spine1" 3.518559 -0.007086 0 0 5.649994 0 0 0 0 0 0 0
$definebone "Bip01 Spine3" "Bip01 Spine2" 8.942638 -0.002583 0 -0.000057 11.149988 0 0 0 0 0 0 0
$definebone "Bip01 Neck" "Bip01 Spine3" 3.307266 -0.002637 0 -0.000057 22.899977 0 0 0 0 0 0 0
$definebone "Bip01 Head" "Bip01 Neck" 3.593717 0 0 0.000057 -23.29572 0 0 0 0 0 0 0
$definebone "Bip01 L Clavicle" "Bip01 Neck" -0.782959 1.418225 1.937639 -73.711996 145.67377 11.843266 0 0 0 0 0 0
$definebone "Bip01 L UpperArm" "Bip01 L Clavicle" 6.028142 0 0.000004 33.439647 -3.585969 -10.534689 0 0 0 0 0 0
$definebone "Bip01 L Forearm" "Bip01 L UpperArm" 11.692551 0 -0.000001 -0.000006 -3.45906 0 0 0 0 0 0 0
$definebone "Bip01 L Hand" "Bip01 L Forearm" 11.481696 0 0 -0.000006 0.000001 -89.954378 0 0 0 0 0 0
$definebone "Bip01 L Finger0" "Bip01 L Hand" 1.10115 0.265635 -1.943413 33.210074 26.574296 100.452051 0 0 0 0 0 0
$definebone "Bip01 L Finger01" "Bip01 L Finger0" 1.164268 -0.000002 -0.000001 -0.000004 -2.499995 0.000003 0 0 0 0 0 0
$definebone "Bip01 L Finger02" "Bip01 L Finger01" 1.206993 0 -0.000001 -0.000004 -0.000009 0.000003 0 0 0 0 0 0
$definebone "Bip01 L Finger1" "Bip01 L Hand" 4.047053 -0.043013 -1.517347 10.999873 0.602344 0.07013 0 0 0 0 0 0
$definebone "Bip01 L Finger11" "Bip01 L Finger1" 1.242486 -0.000002 0 0 0.599998 -0.000001 0 0 0 0 0 0
$definebone "Bip01 L Finger12" "Bip01 L Finger11" 1.135128 -0.000002 0 0 0.599997 -0.000001 0 0 0 0 0 0
$definebone "Bip01 L Finger2" "Bip01 L Hand" 4.012393 0.002951 -0.508147 0.000458 0.599996 -0.045608 0 0 0 0 0 0
$definebone "Bip01 L Finger21" "Bip01 L Finger2" 1.426186 0 0 -0.000001 0.599998 0 0 0 0 0 0 0
$definebone "Bip01 L Finger22" "Bip01 L Finger21" 1.324317 -0.000001 0 -0.000001 0.599998 0 0 0 0 0 0 0
$definebone "Bip01 L Finger3" "Bip01 L Hand" 4.134456 -0.142551 0.552376 -6.298926 0.606642 -0.161059 0 0 0 0 0 0
$definebone "Bip01 L Finger31" "Bip01 L Finger3" 1.222447 0.000003 0 0 0.599994 0.000001 0 0 0 0 0 0
$definebone "Bip01 L Finger32" "Bip01 L Finger31" 1.135129 0.000003 0 0 0.599993 0.000001 0 0 0 0 0 0
$definebone "Bip01 L Finger4" "Bip01 L Hand" 4.076244 -0.127489 1.47643 -20.49831 0.657635 -0.273014 0 0 0 0 0 0
$definebone "Bip01 L Finger41" "Bip01 L Finger4" 1.018704 -0.000001 0 -0.000001 0.599995 0.000003 0 0 0 0 0 0
$definebone "Bip01 L Finger42" "Bip01 L Finger41" 0.945942 0.000003 0 -0.000001 0.599995 0.000003 0 0 0 0 0 0
$definebone "Bip01 L Ulna" "Bip01 L Forearm" 5.070525 0 0.000001 -0.000006 0.000001 0.035867 0 0 0 0 0 0
$definebone "Bip01 L Wrist" "Bip01 L Forearm" 10.141048 0 0.000001 -0.000006 0.000001 0.071734 0 0 0 0 0 0
$definebone "Bip01 L Bicep" "Bip01 L UpperArm" 5.903592 0 -0.000003 -0.000005 0.000001 7.621885 0 0 0 0 0 0
$definebone "Bip01 L Elbow" "Bip01 L UpperArm" 11.807183 0 -0.000004 -0.000006 -2.663393 0 0 0 0 0 0 0
$definebone "Bip01 L Shoulder" "Bip01 L Clavicle" 5.892992 0 0.000005 33.338406 -18.441789 -46.304387 0 0 0 0 0 0
$definebone "Bip01 R Clavicle" "Bip01 Neck" -0.782959 1.418236 -1.937631 73.711826 145.67291 -11.844241 0 0 0 0 0 0
$definebone "Bip01 R UpperArm" "Bip01 R Clavicle" 6.028142 0 0.000001 -33.439596 -3.586028 10.534691 0 0 0 0 0 0
$definebone "Bip01 R Forearm" "Bip01 R UpperArm" 11.692553 0 0.000003 0.000001 -3.459059 0.000002 0 0 0 0 0 0
$definebone "Bip01 R Hand" "Bip01 R Forearm" 11.481696 0 -0.000003 0.000001 0.000002 89.954378 0 0 0 0 0 0
$definebone "Bip01 R Finger0" "Bip01 R Hand" 1.101153 0.265633 1.943413 -33.210064 26.574299 -100.452051 0 0 0 0 0 0
$definebone "Bip01 R Finger01" "Bip01 R Finger0" 1.164268 -0.000001 -0.000001 0.000001 -2.499983 -0.000001 0 0 0 0 0 0
$definebone "Bip01 R Finger02" "Bip01 R Finger01" 1.206999 0.000002 0.000001 0.000001 0.000002 -0.000001 0 0 0 0 0 0
$definebone "Bip01 R Finger1" "Bip01 R Hand" 4.047055 -0.043015 1.517347 -10.99987 0.602349 -0.070132 0 0 0 0 0 0
$definebone "Bip01 R Finger11" "Bip01 R Finger1" 1.242487 -0.000003 0 0.000004 0.599999 -0.000002 0 0 0 0 0 0
$definebone "Bip01 R Finger12" "Bip01 R Finger11" 1.135125 -0.000004 0.000001 0.000004 0.599999 -0.000002 0 0 0 0 0 0
$definebone "Bip01 R Finger2" "Bip01 R Hand" 4.012394 0.002951 0.508147 -0.000457 0.600001 0.045606 0 0 0 0 0 0
$definebone "Bip01 R Finger21" "Bip01 R Finger2" 1.426187 0.000001 0 0.000002 0.600001 -0.000002 0 0 0 0 0 0
$definebone "Bip01 R Finger22" "Bip01 R Finger21" 1.324315 0.000001 0 0.000002 0.600001 -0.000002 0 0 0 0 0 0
$definebone "Bip01 R Finger3" "Bip01 R Hand" 4.134458 -0.142555 -0.552376 6.298926 0.606648 0.161057 0 0 0 0 0 0
$definebone "Bip01 R Finger31" "Bip01 R Finger3" 1.222448 0.000003 0 0 0.600003 -0.000002 0 0 0 0 0 0
$definebone "Bip01 R Finger32" "Bip01 R Finger31" 1.135126 0.000001 0 0 0.600002 -0.000002 0 0 0 0 0 0
$definebone "Bip01 R Finger4" "Bip01 R Hand" 4.076245 -0.127491 -1.47643 20.498306 0.657641 0.273012 0 0 0 0 0 0
$definebone "Bip01 R Finger41" "Bip01 R Finger4" 1.018704 0.000003 0 -0.000001 0.600001 -0.000002 0 0 0 0 0 0
$definebone "Bip01 R Finger42" "Bip01 R Finger41" 0.945942 0.000001 0 -0.000001 0.600002 -0.000002 0 0 0 0 0 0
$definebone "Bip01 R Ulna" "Bip01 R Forearm" 5.070527 0 -0.000003 0.000001 0.000002 -0.035865 0 0 0 0 0 0
$definebone "Bip01 R Wrist" "Bip01 R Forearm" 10.14105 0 -0.000006 0.000001 0.000002 -0.071732 0 0 0 0 0 0
$definebone "Bip01 R Bicep" "Bip01 R UpperArm" 5.903595 0 0.000004 0 0.000002 -7.621884 0 0 0 0 0 0
$definebone "Bip01 R Elbow" "Bip01 R UpperArm" 11.807186 0 0.000005 0 -2.663393 0.000002 0 0 0 0 0 0
$definebone "Bip01 R Shoulder" "Bip01 R Clavicle" 5.892992 0 0 -33.338413 -18.441791 46.30439 0 0 0 0 0 0
$definebone "Bip01 L Thigh" "Bip01 Spine" -3.587808 2.684995 3.890455 -0.299239 -172.125317 179.961443 0 0 0 0 0 0
$definebone "Bip01 L Calf" "Bip01 L Thigh" 17.848173 0 0 0 -1.959173 0 0 0 0 0 0 0
$definebone "Bip01 L Foot" "Bip01 L Calf" 14.887616 0 0 -0.30086 4.92927 -2.977146 0 0 0 0 0 0
$definebone "Bip01 L Toe0" "Bip01 L Foot" 5.816137 5.737836 0 0 89.999983 0 0 0 0 0 0 0
$definebone "Bip01 L Ankle" "Bip01 L Calf" 16.250042 0 0 0 -0.000001 -4.129651 0 0 0 0 0 0
$definebone "Bip01 L Quadricep" "Bip01 L Thigh" 7.791799 0 0 0 -0.000001 -0.318163 0 0 0 0 0 0
$definebone "Bip01 L Knee" "Bip01 L Thigh" 18.205141 0 0 0 -1.491868 0 0 0 0 0 0 0
$definebone "Bip01 R Thigh" "Bip01 Spine" -3.587808 2.685016 -3.890449 0.299294 -172.125317 -179.961771 0 0 0 0 0 0
$definebone "Bip01 R Calf" "Bip01 R Thigh" 17.848175 0 0 0 -1.959172 0 0 0 0 0 0 0
$definebone "Bip01 R Foot" "Bip01 R Calf" 14.887618 0 0 0.30086 4.929269 2.977204 0 0 0 0 0 0
$definebone "Bip01 R Toe0" "Bip01 R Foot" 5.816138 5.737837 0 0 89.999983 0 0 0 0 0 0 0
$definebone "Bip01 R Ankle" "Bip01 R Calf" 16.250046 0 0 0 -0.000001 4.129708 0 0 0 0 0 0
$definebone "Bip01 R Quadricep" "Bip01 R Thigh" 7.7918 0 0 0 0 0.316502 0 0 0 0 0 0
$definebone "Bip01 R Knee" "Bip01 R Thigh" 18.205141 0 0 0 -1.491868 0 0 0 0 0 0 0
$definebone "Bip01 R Hip" "Bip01 Spine" -3.994537 0.033343 -3.473618 0 5.920201 0 0 0 0 0 0 0
$definebone "Bip01 L Hip" "Bip01 Spine" -3.994535 0.033323 3.473618 0 5.920201 0 0 0 0 0 0 0

$ikchain "leftankle" "Bip01 L Foot"
$ikchain "rightankle" "Bip01 R Foot"

$animation "a_Idle01" "ihvtest_noflex_anims\Idle01.smd" {
	fps 30
	loop
}

$animation "a_Idle02" "ihvtest_noflex_anims\Idle02.smd" {
	fps 30
	loop
}

$animation "a_Walk" "ihvtest_noflex_anims\Walk.smd" {
	fps 30
	loop
}

$animation "a_Run" "ihvtest_noflex_anims\Run.smd" {
	fps 30
	loop
}

$sequence "Idle01" {
	"ihvtest_noflex_anims\Idle01.smd"
	activity "ACT_IDLE" 1
	fadein 0
	fadeout 0
	fps 30
	loop
}

$sequence "Idle02" {
	"ihvtest_noflex_anims\Idle02.smd"
	activity "ACT_IDLE" 2
	fadein 0
	fadeout 0
	fps 30
	loop
}

$sequence "Walk" {
	"ihvtest_noflex_anims\Walk.smd"
	activity "ACT_WALK" 1
	fadein 0
	fadeout 0
	fps 30
	loop
}

$sequence "Run" {
	"ihvtest_noflex_anims\Run.smd"
	activity "ACT_RUN" 1
	fadein 0
	fadeout 0
	fps 30
	loop
}

