// Created by Crowbar 0.56

$modelname "manhack.mdl"

$bodygroup "Body"
{
	studio "manhack_reference.smd"
}
$bodygroup "Blade"
{
	blank
	studio "ManhackBlade_Reference.smd"
}
$bodygroup "BladeBlur"
{
	blank
	studio "ManhackBladeBlur_Reference.smd"
}

$lod 8
{
	replacemodel "manhack_reference.smd" "manhack_reference_lod1.smd"
	replacemodel "manhack_body1_model0.smd" "manhack_body1_model0_lod1.smd"
	replacemodel "ManhackBlade_Reference.smd" "ManhackBlade_Reference_lod1.smd"
	replacemodel "manhack_body2_model0.smd" "manhack_body2_model0_lod1.smd"
	replacemodel "ManhackBladeBlur_Reference.smd" "ManhackBladeBlur_Reference_lod1.smd"
}
$lod 15
{
	replacemodel "manhack_reference.smd" "manhack_reference_lod2.smd"
	replacemodel "manhack_body1_model0.smd" "manhack_body1_model0_lod2.smd"
	replacemodel "ManhackBlade_Reference.smd" "ManhackBlade_Reference_lod2.smd"
	replacemodel "manhack_body2_model0.smd" "manhack_body2_model0_lod2.smd"
	replacemodel "ManhackBladeBlur_Reference.smd" "ManhackBladeBlur_Reference_lod2.smd"
}
$lod 45
{
	replacemodel "manhack_reference.smd" "manhack_reference_lod3.smd"
	replacemodel "manhack_body1_model0.smd" "manhack_body1_model0_lod3.smd"
	replacemodel "ManhackBlade_Reference.smd" "ManhackBlade_Reference_lod3.smd"
	replacemodel "manhack_body2_model0.smd" "manhack_body2_model0_lod3.smd"
	replacemodel "ManhackBladeBlur_Reference.smd" "ManhackBladeBlur_Reference_lod3.smd"
}
$lod 70
{
	replacemodel "manhack_reference.smd" "manhack_reference_lod4.smd"
	replacemodel "manhack_body1_model0.smd" "manhack_body1_model0_lod4.smd"
	replacemodel "ManhackBlade_Reference.smd" "ManhackBlade_Reference_lod4.smd"
	replacemodel "manhack_body2_model0.smd" "manhack_body2_model0_lod4.smd"
	replacemodel "ManhackBladeBlur_Reference.smd" "ManhackBladeBlur_Reference_lod4.smd"
}
$shadowlod
{
	replacemodel "manhack_reference.smd" "manhack_reference_lod5.smd"
	replacemodel "manhack_body1_model0.smd" "manhack_body1_model0_lod5.smd"
	replacemodel "ManhackBlade_Reference.smd" "ManhackBlade_Reference_lod5.smd"
	replacemodel "manhack_body2_model0.smd" "manhack_body2_model0_lod5.smd"
	replacemodel "ManhackBladeBlur_Reference.smd" "ManhackBladeBlur_Reference_lod5.smd"
}

$surfaceprop "metal"

$contents "solid"

$illumposition -0.073 0.998 -0.015

$eyeposition 0 0 2

$cdmaterials "models\manhack\"

$attachment "Eye" "Manhack.MH_ControlCamera" 0 0 2 rotate -90 -90 0
$attachment "Light" "Manhack.MH_ControlCamera" 0 4.3 1 rotate -90 -90 0

$cbox 0 0 0 0 0 0

$bbox -17.01 -4.438 -16.881 15.014 4.292 16.852

$hboxset "default"
$hbox 0 "Manhack.MH_Control" -3.5 -7 -7.5 3.5 7 3.5 ""
$hbox 0 "Manhack.MH_ControlPanel1" -1.1 -1.88 -2.29 3.05 2.64 10.54 ""
$hbox 0 "Manhack.MH_ControlPanel2" -2.04 -1.67 -2.33 -0.04 2.51 8.57 ""
$hbox 0 "Manhack.MH_ControlPanel3" -1.52 -1.5 -2.8 1.48 2.5 10.05 ""
$hbox 0 "Manhack.MH_ControlPanel4" -1.44 -2.35 -1.99 0.56 1.65 7.25 ""
$hbox 0 "Manhack.MH_ControlPanel5" -0.5 -1.3 -1.99 1.5 1.7 7.25 ""
$hbox 0 "Manhack.MH_ControlPincerTop" -0.5 -4.5 -2.5 2.5 6.5 4.5 ""
$hbox 0 "Manhack.MH_ControlPincerBottom" -1 -5.5 0 1 1.5 8 ""
$skipboneinbbox

$controller 0 "Manhack.MH_Control" ZR 0 360
$controller 1 "Manhack.MH_ControlBlade" YR 0 360

$definebone "Manhack.MH_Control" "" 0 0 0 0 0 89.999983 0 0 0 0 0 0
$definebone "Manhack.MH_ControlBodyUpper" "Manhack.MH_Control" 0 0 0 0 0 0 0 0 0 0 0 0
$definebone "Manhack.MH_ControlPincerTop" "Manhack.MH_ControlBodyUpper" -0.433175 4.33036 2.462177 0 0 0 0 0 0 0 0 0
$definebone "Manhack.MH_ControlPanel6" "Manhack.MH_ControlBodyUpper" 0.459194 5.424639 -3.280252 0 0 0 0 0 0 0 0 0
$definebone "Manhack.MH_ControlPanel1" "Manhack.MH_ControlBodyUpper" -3.091789 4.36715 -4.70472 0 -29.250012 0 0 0 0 0 0 0
$definebone "Manhack.MH_ControlPanel2" "Manhack.MH_ControlBodyUpper" 4.633011 5.083186 -2.807404 0 29.250012 0 0 0 0 0 0 0
$definebone "Manhack.MH_ControlPanel3" "Manhack.MH_ControlBodyUpper" 3.355705 2.1265 -4.406456 0 -6.000014 0 0 0 0 0 0 0
$definebone "Manhack.MH_ControlExhaust" "Manhack.MH_ControlBodyUpper" 0.021141 3.033439 -4.5979 0 0 0 0 0 0 0 0 0
$definebone "Manhack.MH_ControlBodyLower" "Manhack.MH_Control" 0 0 0 0 0 0 0 0 0 0 0 0
$definebone "Manhack.MH_ControlPincerBottom" "Manhack.MH_ControlBodyLower" -0.1487 -6.257166 -2.55635 0 0 0 0 0 0 0 0 0
$definebone "Manhack.MH_ControlPanel4" "Manhack.MH_ControlBodyLower" 1.627963 -5.677351 -3.154841 0 -34.999986 0 0 0 0 0 0 0
$definebone "Manhack.MH_ControlPanel5" "Manhack.MH_ControlBodyLower" -1.899124 -5.677351 -3.154841 0 34.999986 0 0 0 0 0 0 0
$definebone "Manhack.MH_ControlCamera" "Manhack.MH_ControlBodyLower" -0.128819 -3.374037 2.944813 0 0 0 0 0 0 0 0 0
$definebone "Manhack.MH_ControlBlade" "Manhack.MH_Control" 0.403549 -1.445762 -0.614974 0 0 0 0 0 0 0 0 0
$definebone "Manhack.MH_ControlBlade1" "Manhack.MH_Control" 0.403549 -1.445762 -0.614974 0 0 0 0 0 0 0 0 0
$definebone "XSISceneRoot" "" 0 0 0 0 0 89.999983 0 0 0 0 0 0
$definebone "Manhack_Mesh" "XSISceneRoot" 0 0 0 0 0 0 0 0 0 0 0 0

$poseparameter "Panel1" 0 90 loop 0
$poseparameter "Panel2" 0 90 loop 0
$poseparameter "Panel3" 0 90 loop 0
$poseparameter "Panel4" 0 90 loop 0
$poseparameter "PincerTop" 0 45 loop 0
$poseparameter "PincerBottom" -45 45 loop 0

$animation "a_idle" "manhack_anims\idle.smd" {
	fps 30
	loop
}

$animation "a_fly" "manhack_anims\fly.smd" {
	fps 100
	loop
}

$animation "a_fly2" "manhack_anims\fly2.smd" {
	fps 100
	loop
}

$animation "a_fly3" "manhack_anims\fly3.smd" {
	fps 100
	loop
}

$animation "a_Deploy" "manhack_anims\Deploy.smd" {
	fps 60
	walkframe 126
}

$animation "a_dead" "manhack_anims\dead.smd" {
	fps 30
	loop
}

$animation "a_neutral" "manhack_anims\a_neutral.smd" {
	fps 30
}

$animation "a_nothing" "manhack_anims\a_nothing.smd" {
	fps 30
}

$animation "a_panel1" "manhack_anims\a_panel1.smd" {
	fps 30
}

$animation "a_panel2" "manhack_anims\a_panel2.smd" {
	fps 30
}

$animation "a_panel3" "manhack_anims\a_panel3.smd" {
	fps 30
}

$animation "a_panel4" "manhack_anims\a_panel4.smd" {
	fps 30
}

$animation "a_pincerTop" "manhack_anims\a_pincerTop.smd" {
	fps 30
}

$animation "a_pincerBottomMin" "manhack_anims\a_pincerBottomMin.smd" {
	fps 30
}

$animation "a_pincerBottomMax" "manhack_anims\a_pincerBottomMax.smd" {
	fps 30
}

$animation "a_PanelPoses" "manhack_anims\PanelPoses.smd" {
	fps 30
}

$animation "a_ragdoll" "manhack_anims\ragdoll.smd" {
	fps 30
}

$sequence "idle" {
	"a_idle"
	activity "ACT_IDLE" 1
	fadein 0.2
	fadeout 0.2
	fps 30
	loop
}

$sequence "fly" {
	"a_fly"
	activity "ACT_FLY" 1
	fadein 0.2
	fadeout 0.2
	fps 100
	loop
}

$sequence "fly2" {
	"a_fly2"
	activity "ACT_WALK" 1
	fadein 0.2
	fadeout 0.2
	fps 100
	loop
}

$sequence "fly3" {
	"a_fly3"
	activity "ACT_RUN" 1
	fadein 0.2
	fadeout 0.2
	fps 100
	loop
}

$sequence "Deploy" {
	"a_Deploy"
	activity "ACT_MANHACK_UNPACK" 1
	{ event 50 39 "" }
	{ event 52 66 "" }
	{ event 51 109 "" }
	fadein 0.2
	fadeout 0.2
	fps 60
}

$sequence "dead" {
	"a_dead"
	activity "ACT_DIE" 1
	fadein 0.2
	fadeout 0.2
	fps 30
	loop
}

$sequence "panel1" {
	"a_nothing"
	"a_panel1"
	autoplay
	blend "Panel1" 0 90
	blendwidth 2
	delta
	fadein 0.2
	fadeout 0.2
	fps 30
}

$sequence "panel2" {
	"a_nothing"
	"a_panel2"
	autoplay
	blend "Panel2" 0 90
	blendwidth 2
	delta
	fadein 0.2
	fadeout 0.2
	fps 30
}

$sequence "panel3" {
	"a_nothing"
	"a_panel3"
	autoplay
	blend "Panel3" 0 90
	blendwidth 2
	delta
	fadein 0.2
	fadeout 0.2
	fps 30
}

$sequence "panel4" {
	"a_nothing"
	"a_panel4"
	autoplay
	blend "Panel4" 0 90
	blendwidth 2
	delta
	fadein 0.2
	fadeout 0.2
	fps 30
}

$sequence "pincertop" {
	"a_nothing"
	"a_pincerTop"
	autoplay
	blend "PincerTop" 0 45
	blendwidth 2
	delta
	fadein 0.2
	fadeout 0.2
	fps 30
}

$sequence "pincerbottom" {
	"a_pincerBottomMax"
	"a_nothing"
	"a_pincerBottomMin"
	autoplay
	blend "PincerBottom" -45 45
	blendwidth 3
	delta
	fadein 0.2
	fadeout 0.2
	fps 30
}

$sequence "PanelPoses" {
	"a_PanelPoses"
	fadein 0.2
	fadeout 0.2
	fps 30
}

$sequence "ragdoll" {
	"a_ragdoll"
	activity "ACT_DIERAGDOLL" 1
	fadein 0.2
	fadeout 0.2
	fps 30
}


$collisionjoints "manhack_physics.smd"
{
	$mass 7
	$inertia 5
	$damping 0.01
	$rotdamping 1.5
	$rootbone "manhack.mh_control"


	$jointconstrain "Manhack.MH_ControlPanel5" x limit 0 0 1
	$jointconstrain "Manhack.MH_ControlPanel5" y limit -79 0 1
	$jointconstrain "Manhack.MH_ControlPanel5" z limit 0 0 0

	$jointconstrain "Manhack.MH_ControlPanel4" x limit 0 0 1
	$jointconstrain "Manhack.MH_ControlPanel4" y limit 0 82 1
	$jointconstrain "Manhack.MH_ControlPanel4" z limit 0 0 0

	$jointconstrain "Manhack.MH_ControlPincerBottom" x limit -35 35 1
	$jointconstrain "Manhack.MH_ControlPincerBottom" y limit 0 0 1
	$jointconstrain "Manhack.MH_ControlPincerBottom" z limit 0 0 0

	$jointconstrain "Manhack.MH_ControlPanel3" x limit 0 0 1
	$jointconstrain "Manhack.MH_ControlPanel3" y limit 0 82 1
	$jointconstrain "Manhack.MH_ControlPanel3" z limit 0 0 0

	$jointconstrain "Manhack.MH_ControlPanel2" x limit 0 0 1
	$jointconstrain "Manhack.MH_ControlPanel2" y limit 0 82 1
	$jointconstrain "Manhack.MH_ControlPanel2" z limit 0 0 0

	$jointconstrain "Manhack.MH_ControlPanel1" x limit 0 0 1
	$jointconstrain "Manhack.MH_ControlPanel1" y limit -79 0 1
	$jointconstrain "Manhack.MH_ControlPanel1" z limit 0 0 0

	$jointconstrain "Manhack.MH_ControlPincerTop" x limit 0 55 1
	$jointconstrain "Manhack.MH_ControlPincerTop" y limit 0 0 1
	$jointconstrain "Manhack.MH_ControlPincerTop" z limit 0 0 0

	$jointconstrain "Manhack.MH_ControlBlade" x limit 0 0 1
	$jointconstrain "Manhack.MH_ControlBlade" y limit -180 180 1
	$jointconstrain "Manhack.MH_ControlBlade" z limit 0 0 0
}

$collisiontext
{
	break 
	{
		"model" "Gibs/Manhack_Gib01"
		"health" "0"
		"fadetime" "30"
	}
	break 
	{
		"model" "Gibs/Manhack_Gib02"
		"health" "0"
		"fadetime" "30"
	}
	break 
	{
		"model" "Gibs/Manhack_Gib03"
		"health" "0"
		"fadetime" "30"
	}
	break 
	{
		"model" "Gibs/Manhack_Gib04"
		"health" "0"
		"fadetime" "30"
	}
	break 
	{
		"model" "Gibs/Manhack_Gib05"
		"health" "0"
		"fadetime" "30"
	}
	break 
	{
		"model" "Gibs/Manhack_Gib06"
		"health" "0"
		"fadetime" "30"
	}
}
