// Created by Crowbar 0.56

$modelname "sandbarnacle.mdl"

$bodygroup "Body"
{
	studio "sandbarnacle_reference.smd"
}


$contents "solid"

$illumposition 0.455 0.995 106.343

$cdmaterials "models\sandbarnacle\"

$cbox 0 0 0 0 0 0

$bbox -63.447 -62.763 -12.838 61.458 63.672 225.524

$definebone "Line02" "" 2.29422 -5.08482 112.772003 0 -90.000208 90.000208 0 0 0 0 0 0

$animation "a_idle" "sandbarnacle_anims\idle.smd" {
	fps 30
}

$sequence "idle" {
	"a_idle"
	fadein 0.2
	fadeout 0.2
	fps 30
}

