// Created by Crowbar 0.56

$modelname "spitball_medium.mdl"

$staticprop

$bodygroup "Body"
{
	studio "spitball_medium.smd"
}


$contents "solid"

$illumposition 0.053 -0.029 -0.28

$cdmaterials "models\bullsquid_xsi\spitballs\"

$cbox 0 0 0 0 0 0

$bbox -2.554 -2.661 -3.022 2.613 2.768 2.461

$definebone "static_prop" "" 0 0 0 0 0 0 0 0 0 0 0 0

$animation "a_Idle" "spitball_medium_anims\Idle.smd" {
	fps 30
	loop
}

$sequence "Idle" {
	"a_Idle"
	fadein 0.2
	fadeout 0.2
	fps 30
	loop
}

