// Created by Crowbar 0.56

$modelname "effects/rotorwash_dust.mdl"

$staticprop

$bodygroup "Body"
{
	studio "rotorwash_dust_reference.smd"
}


$surfaceprop "flesh"

$contents "solid"

$illumposition 0 0 27.259

$cdmaterials "models\effects\"

$cbox 0 0 0 0 0 0

$bbox -322.465 -330.758 -0.484 322.465 330.758 55.002

$definebone "static_prop" "" 0 0 0 0 0 0 0 0 0 0 0 0

$animation "a_idle" "rotorwash_dust_anims\idle.smd" {
	fps 30
}

$sequence "idle" {
	"a_idle"
	fadein 0.2
	fadeout 0.2
	fps 30
}

