// Created by Crowbar 0.56

$modelname "props_rooftop/chimneypipe_cluster02a.mdl"

$staticprop

$bodygroup "Body"
{
	studio "chimneypipe_cluster02a_reference.smd"
}

$lod 30
{
	replacemodel "chimneypipe_cluster02a_reference.smd" "chimneypipe_cluster02a_reference_lod1.smd"
}
$lod 50
{
	replacemodel "chimneypipe_cluster02a_reference.smd" "chimneypipe_cluster02a_reference_lod2.smd"
}
$lod 60
{
	replacemodel "chimneypipe_cluster02a_reference.smd" "chimneypipe_cluster02a_reference_lod3.smd"
}
$lod 120
{
	replacemodel "chimneypipe_cluster02a_reference.smd" "chimneypipe_cluster02a_reference_lod4.smd"
}

$surfaceprop "metal"

$contents "solid"

$illumposition 0.079 0 0

$cdmaterials "models\props_rooftop\"

$cbox 0 0 0 0 0 0

$bbox -13.95 -59.121 -69.815 13.95 59.279 69.815

$definebone "static_prop" "" 0 0 0 0 0 0 0 0 0 0 0 0

$animation "a_idle" "chimneypipe_cluster02a_anims\idle.smd" {
	fps 30
}

$sequence "idle" {
	"a_idle"
	fadein 0.2
	fadeout 0.2
	fps 30
}


$collisionmodel "chimneypipe_cluster02a_physics.smd"
{
	$mass 10
	$inertia 1
	$damping 0
	$rotdamping 0
	$rootbone " "
	$concave

}
