// Created by Crowbar 0.56

$modelname "props_rooftop/chimneytoppipe_cluster03a.mdl"

$staticprop

$bodygroup "Body"
{
	studio "chimneytoppipe_cluster03a_reference.smd"
}

$lod 30
{
	replacemodel "chimneytoppipe_cluster03a_reference.smd" "chimneytoppipe_cluster03a_reference_lod1.smd"
}
$lod 60
{
	replacemodel "chimneytoppipe_cluster03a_reference.smd" "chimneytoppipe_cluster03a_reference_lod2.smd"
}
$lod 80
{
	replacemodel "chimneytoppipe_cluster03a_reference.smd" "chimneytoppipe_cluster03a_reference_lod3.smd"
}
$lod 100
{
	replacemodel "chimneytoppipe_cluster03a_reference.smd" "chimneytoppipe_cluster03a_reference_lod4.smd"
}

$surfaceprop "metal"

$contents "solid"

$illumposition 0 0 0

$cdmaterials "models\props_rooftop\"

$cbox 0 0 0 0 0 0

$bbox -8.977 -121.18 -16.592 8.977 121.18 16.592

$definebone "static_prop" "" 0 0 0 0 0 0 0 0 0 0 0 0

$animation "a_idle" "chimneytoppipe_cluster03a_anims\idle.smd" {
	fps 30
}

$sequence "idle" {
	"a_idle"
	fadein 0.2
	fadeout 0.2
	fps 30
}


$collisionmodel "chimneytoppipe_cluster03a_physics.smd"
{
	$mass 10
	$inertia 1
	$damping 0
	$rotdamping 0
	$rootbone " "
	$concave

}
