// Created by Crowbar 0.56

$modelname "props_rooftop/Gutter001_128.mdl"

$staticprop

$bodygroup "Body"
{
	studio "Gutter001_128_reference.smd"
}


$surfaceprop "metal"

$contents "solid"

$illumposition -1.75 0 -3.524

$cdmaterials "models\props_rooftop\"

$cbox 0 0 0 0 0 0

$bbox -64 -14 -8.5 64 10.5 1.451

$animation "a_idle" "Gutter001_128_anims\idle.smd" {
	fps 30
}

$sequence "idle" {
	"Gutter001_128_anims\idle.smd"
	fadein 0
	fadeout 0
	fps 30
}


$collisionmodel "Gutter001_128_physics.smd"
{
	$mass 100
	$inertia 1
	$damping 0
	$rotdamping 0
	$rootbone " "
	$concave

}
