// Created by Crowbar 0.56

$modelname "props_rooftop/Roof_Stack001.mdl"

$staticprop

$bodygroup "Body"
{
	studio "Roof_Stack001_reference.smd"
}


$surfaceprop "metal"

$contents "solid"

$illumposition 0 -1.18 24.219

$cdmaterials "models\props_rooftop\"

$cbox 0 0 0 0 0 0

$bbox -44.658 -10.658 0 47.018 10.658 48.438

$animation "a_idle" "Roof_Stack001_anims\idle.smd" {
	fps 30
}

$sequence "idle" {
	"Roof_Stack001_anims\idle.smd"
	fadein 0
	fadeout 0
	fps 30
}


$collisionmodel "Roof_Stack001_physics.smd"
{
	$mass 100
	$inertia 1
	$damping 0
	$rotdamping 0
	$rootbone " "
	$concave

}
