// Created by Crowbar 0.56

$modelname "props_rooftop/RooftopCluser09a.mdl"

$staticprop

$bodygroup "Body"
{
	studio "RooftopCluser09a_RooftopCluster09a_reference.smd"
}


$surfaceprop "metal"

$contents "solid"

$illumposition -161.11 158.437 -11.872

$cdmaterials "models\props_rooftop\"

$cbox 0 0 0 0 0 0

$bbox -479.22 -322.833 -160 162.347 0.612 136.255

$definebone "static_prop" "" 0 0 0 0 0 0 0 0 0 0 0 0

$animation "a_idle" "RooftopCluser09a_anims\idle.smd" {
	fps 30
}

$sequence "idle" {
	"a_idle"
	fadein 0.2
	fadeout 0.2
	fps 30
}

