// Created by Crowbar 0.56

$modelname "props_rooftop/roof_window001.mdl"

$staticprop

$bodygroup "Body"
{
	studio "roof_window001_reference.smd"
}


$surfaceprop "metal"

$contents "solid"

$illumposition 0 -3.5 16.033

$cdmaterials "models\props_rooftop\"

$cbox 0 0 0 0 0 0

$bbox -48 -56 0.067 55 56 32

$animation "a_idle" "roof_window001_anims\idle.smd" {
	fps 30
}

$sequence "idle" {
	"roof_window001_anims\idle.smd"
	fadein 0
	fadeout 0
	fps 30
}


$collisionmodel "roof_window001_physics.smd"
{
	$mass 100
	$inertia 1
	$damping 0
	$rotdamping 0
	$rootbone " "
	$concave

}
