// Created by Crowbar 0.56

$modelname "props_rooftop/RooftopCluser07a.mdl"

$staticprop

$bodygroup "Body"
{
	studio "RooftopCluser07a_reference.smd"
}


$surfaceprop "metal"

$contents "solid"

$illumposition -112.042 -36.023 -0.387

$cdmaterials "models\props_rooftop\"

$cbox 0 0 0 0 0 0

$bbox -62.165 -241 -102 134.211 16.916 101.226

$definebone "static_prop" "" 0 0 0 0 0 0 0 0 0 0 0 0

$animation "a_idle" "RooftopCluser07a_anims\idle.smd" {
	fps 30
}

$sequence "idle" {
	"a_idle"
	fadein 0.2
	fadeout 0.2
	fps 30
}


$collisionmodel "RooftopCluser07a_physics.smd"
{
	$mass 44
	$inertia 1
	$damping 0
	$rotdamping 0
	$rootbone " "
	$concave

}
