// Created by Crowbar 0.56

$modelname "props_rooftop/RooftopCluser05a.mdl"

$staticprop

$bodygroup "Body"
{
	studio "RooftopCluser05a_reference.smd"
}


$surfaceprop "metal"

$contents "solid"

$illumposition 0 0 0

$cdmaterials "models\props_rooftop\"

$cbox 0 0 0 0 0 0

$bbox -66.841 -104.421 -85.732 66.841 104.421 85.732

$definebone "static_prop" "" 0 0 0 0 0 0 0 0 0 0 0 0

$animation "a_idle" "RooftopCluser05a_anims\idle.smd" {
	fps 30
}

$sequence "idle" {
	"a_idle"
	fadein 0.2
	fadeout 0.2
	fps 30
}


$collisionmodel "RooftopCluser05a_physics.smd"
{
	$mass 44
	$inertia 1
	$damping 0
	$rotdamping 0
	$rootbone " "
	$concave

}
