// Created by Crowbar 0.56

$modelname "props_rooftop/Sign_Letter_W001.mdl"

$staticprop

$bodygroup "Body"
{
	studio "Sign_Letter_W001_reference.smd"
}

$lod 30
{
	replacemodel "Sign_Letter_W001_reference.smd" "Sign_Letter_W001_reference_lod1.smd"
}
$lod 60
{
	replacemodel "Sign_Letter_W001_reference.smd" "Sign_Letter_W001_reference_lod2.smd"
}
$lod 80
{
	replacemodel "Sign_Letter_W001_reference.smd" "Sign_Letter_W001_reference_lod3.smd"
}
$lod 100
{
	replacemodel "Sign_Letter_W001_reference.smd" "Sign_Letter_W001_reference_lod4.smd"
}

$surfaceprop "metal"

$contents "solid"

$illumposition 1.166 -2.225 32.75

$cdmaterials "models\props_rooftop\"

$texturegroup "skinfamilies"
{
	{ "Letter_Sign001"  }
	{ "Letter_Sign001b" }
}

$cbox 0 0 0 0 0 0

$bbox -2.525 -46.334 0.001 6.975 48.666 65.5

$definebone "static_prop" "" 0 0 0 0 0 0 0 0 0 0 0 0

$animation "a_idle" "Sign_Letter_W001_anims\idle.smd" {
	fps 30
}

$sequence "idle" {
	"a_idle"
	fadein 0.2
	fadeout 0.2
	fps 30
}


$collisionmodel "Sign_Letter_W001_physics.smd"
{
	$mass 100
	$inertia 1
	$damping 0
	$rotdamping 0
	$rootbone " "
	$concave

}
