// Created by Crowbar 0.56

$modelname "props_debris/Building_Skybridge128Chunk03a.mdl"

$staticprop

$bodygroup "Body"
{
	studio "Building_Skybridge128Chunk03a_reference.smd"
}


$surfaceprop "plaster"

$contents "solid"

$illumposition 38.632 -0.019 51.995

$cdmaterials "models\props_debris\"

$cbox 0 0 0 0 0 0

$bbox -3.981 13.198 39.742 4.019 64.065 64.248

$definebone "static_prop" "" 0 0 0 0 0 0 0 0 0 0 0 0

$animation "a_idle" "Building_Skybridge128Chunk03a_anims\idle.smd" {
	fps 30
}

$sequence "idle" {
	"a_idle"
	fadein 0.2
	fadeout 0.2
	fps 30
}


$collisionmodel "Building_Skybridge128Chunk03a_physics.smd"
{
	$mass 85
	$inertia 1
	$damping 0
	$rotdamping 0
	$rootbone " "
	$concave

}
