// Created by Crowbar 0.56

$modelname "props_debris/Building_Skybridge128Chunk04b.mdl"

$staticprop

$bodygroup "Body"
{
	studio "Building_Skybridge128Chunk04b_reference.smd"
}


$surfaceprop "metal"

$contents "solid"

$illumposition -52.982 0.018 -0.094

$cdmaterials "models\props_debris\"

$cbox 0 0 0 0 0 0

$bbox -4.018 -64.398 -23.155 3.982 -41.567 22.967

$definebone "static_prop" "" 0 0 0 0 0 0 0 0 0 0 0 0

$animation "a_idle" "Building_Skybridge128Chunk04b_anims\idle.smd" {
	fps 30
}

$sequence "idle" {
	"a_idle"
	fadein 0.2
	fadeout 0.2
	fps 30
}


$collisionmodel "Building_Skybridge128Chunk04b_physics.smd"
{
	$mass 85
	$inertia 1
	$damping 0
	$rotdamping 0
	$rootbone " "
	$concave

}
