// Created by Crowbar 0.56

$modelname "props_debris/Building_BrokenPillar001f.mdl"

$staticprop

$bodygroup "Body"
{
	studio "Building_BrokenPillar001f_reference.smd"
}


$surfaceprop "concrete"

$contents "solid"

$illumposition -10.254 0.005 84.385

$cdmaterials "models\props_debris\"

$cbox 0 0 0 0 0 0

$bbox -8 -16.007 70.588 7.99 -4.501 98.183

$definebone "static_prop" "" 0 0 0 0 0 0 0 0 0 0 0 0

$animation "a_idle" "Building_BrokenPillar001f_anims\idle.smd" {
	fps 30
}

$sequence "idle" {
	"a_idle"
	fadein 0.2
	fadeout 0.2
	fps 30
}


$collisionmodel "Building_BrokenPillar001f_physics.smd"
{
	$mass 80
	$inertia 1
	$damping 0
	$rotdamping 0
	$rootbone " "
	$concave

}
