// Created by Crowbar 0.56

$modelname "props_debris/Building_BrokenPillar001d.mdl"

$staticprop

$bodygroup "Body"
{
	studio "Building_BrokenPillar001d_reference.smd"
}


$surfaceprop "concrete"

$contents "solid"

$illumposition -9.898 -1.21 48.433

$cdmaterials "models\props_debris\"

$cbox 0 0 0 0 0 0

$bbox -4.79 -15.959 39.935 7.21 -3.836 56.93

$definebone "static_prop" "" 0 0 0 0 0 0 0 0 0 0 0 0

$animation "a_idle" "Building_BrokenPillar001d_anims\idle.smd" {
	fps 30
}

$sequence "idle" {
	"a_idle"
	fadein 0.2
	fadeout 0.2
	fps 30
}


$collisionmodel "Building_BrokenPillar001d_physics.smd"
{
	$mass 45
	$inertia 1
	$damping 0
	$rotdamping 0
	$rootbone " "
	$concave

}
