// Created by Crowbar 0.56

$modelname "props_debris/Building_Skybridge128Chunk05a.mdl"

$staticprop

$bodygroup "Body"
{
	studio "Building_Skybridge128Chunk05a_reference.smd"
}


$surfaceprop "plaster"

$contents "solid"

$illumposition 59.978 -0.043 41.104

$cdmaterials "models\props_debris\"

$cbox 0 0 0 0 0 0

$bbox -3.957 55.569 32.497 4.043 64.387 49.711

$definebone "static_prop" "" 0 0 0 0 0 0 0 0 0 0 0 0

$animation "a_idle" "Building_Skybridge128Chunk05a_anims\idle.smd" {
	fps 30
}

$sequence "idle" {
	"a_idle"
	fadein 0.2
	fadeout 0.2
	fps 30
}


$collisionmodel "Building_Skybridge128Chunk05a_physics.smd"
{
	$mass 85
	$inertia 1
	$damping 0
	$rotdamping 0
	$rootbone " "
	$concave

}
