// Created by Crowbar 0.56

$modelname "props_debris/Building_Skybridge256Chunk11.mdl"

$staticprop

$bodygroup "Body"
{
	studio "Building_Skybridge256Chunk11_reference.smd"
}


$surfaceprop "plaster"

$contents "solid"

$illumposition 0.052 -0.01 -28.438

$cdmaterials "models\props_debris\"

$cbox 0 0 0 0 0 0

$bbox -3.993 -21.968 -64.378 4.012 22.073 7.502

$definebone "static_prop" "" 0 0 0 0 0 0 0 0 0 0 0 0

$animation "a_idle" "Building_Skybridge256Chunk11_anims\idle.smd" {
	fps 30
}

$sequence "idle" {
	"a_idle"
	fadein 0.2
	fadeout 0.2
	fps 30
}


$collisionmodel "Building_Skybridge256Chunk11_physics.smd"
{
	$mass 85
	$inertia 1
	$damping 0
	$rotdamping 0
	$rootbone " "
	$concave

}
