// Created by Crowbar 0.56

$modelname "props_debris/concrete_chunk02c.mdl"

$staticprop

$bodygroup "Body"
{
	studio "concrete_chunk02c_reference.smd"
}


$surfaceprop "rock"

$contents "solid"

$illumposition 0 0 0

$cdmaterials "models\props_debris\"

$cbox 0 0 0 0 0 0

$bbox -29.188 -30.34 -5.781 29.188 30.34 5.781

$definebone "static_prop" "" 0 0 0 0 0 0 0 0 0 0 0 0

$animation "a_idle" "concrete_chunk02c_anims\idle.smd" {
	fps 30
}

$sequence "idle" {
	"a_idle"
	fadein 0.2
	fadeout 0.2
	fps 30
}


$collisionmodel "concrete_chunk02c_physics.smd"
{
	$mass 694.1285
	$inertia 1
	$damping 0
	$rotdamping 0
	$rootbone " "
	$concave

}
