// Created by Crowbar 0.56

$modelname "props_debris/concrete_spawnchunk001g.mdl"

$staticprop

$bodygroup "Body"
{
	studio "concrete_spawnchunk001g_reference.smd"
}


$surfaceprop "concrete"

$contents "solid"

$illumposition -33.371 -33.755 0.207

$cdmaterials "models\props_debris\"

$cbox 0 0 0 0 0 0

$bbox 27.107 -38.886 -2.944 40.403 -27.856 3.358

$definebone "static_prop" "" 0 0 0 0 0 0 0 0 0 0 0 0

$animation "a_idle" "concrete_spawnchunk001g_anims\idle.smd" {
	fps 30
}

$sequence "idle" {
	"a_idle"
	fadein 0.2
	fadeout 0.2
	fps 30
}


$collisionmodel "concrete_spawnchunk001g_physics.smd"
{
	$mass 85
	$inertia 1
	$damping 0
	$rotdamping 0
	$rootbone " "
	$concave

}
