// Created by Crowbar 0.56

$modelname "props_debris/concrete_debris128Pile001a.mdl"

$staticprop

$bodygroup "Body"
{
	studio "concrete_debris128Pile001a_reference.smd"
}

$lod 20
{
	replacemodel "concrete_debris128Pile001a_reference.smd" "concrete_debris128Pile001a_reference_lod1.smd"
}
$lod 50
{
	replacemodel "concrete_debris128Pile001a_reference.smd" "concrete_debris128Pile001a_reference_lod2.smd"
}

$surfaceprop "concrete"

$contents "solid"

$illumposition -0.416 2.181 3.725

$cdmaterials "models\props_debris\"

$cbox 0 0 0 0 0 0

$bbox -63.126 -63.719 -8.087 58.763 62.887 15.538

$definebone "static_prop" "" 0 0 0 0 0 0 0 0 0 0 0 0

$animation "a_idle" "concrete_debris128Pile001a_anims\idle.smd" {
	fps 30
}

$sequence "idle" {
	"a_idle"
	fadein 0.2
	fadeout 0.2
	fps 30
}


$collisionmodel "concrete_debris128Pile001a_physics.smd"
{
	$mass 200
	$inertia 1
	$damping 0
	$rotdamping 0
	$rootbone " "
	$concave

}
