// Created by Crowbar 0.56

$modelname "props_debris/concrete_debris256Pile001a.mdl"

$staticprop

$bodygroup "Body"
{
	studio "concrete_debris256Pile001a_reference.smd"
}

$lod 20
{
	replacemodel "concrete_debris256Pile001a_reference.smd" "concrete_debris256Pile001a_reference_lod1.smd"
}
$lod 40
{
	replacemodel "concrete_debris256Pile001a_reference.smd" "concrete_debris256Pile001a_reference_lod2.smd"
}
$lod 60
{
	replacemodel "concrete_debris256Pile001a_reference.smd" "concrete_debris256Pile001a_reference_lod3.smd"
}

$surfaceprop "concrete"

$contents "solid"

$illumposition 1.661 7.719 4.559

$cdmaterials "models\props_debris\"

$cbox 0 0 0 0 0 0

$bbox -128 -124.679 -20.209 112.563 128.001 29.327

$definebone "static_prop" "" 0 0 0 0 0 0 0 0 0 0 0 0

$animation "a_idle" "concrete_debris256Pile001a_anims\idle.smd" {
	fps 30
}

$sequence "idle" {
	"a_idle"
	fadein 0.2
	fadeout 0.2
	fps 30
}


$collisionmodel "concrete_debris256Pile001a_physics.smd"
{
	$mass 200
	$inertia 1
	$damping 0
	$rotdamping 0
	$rootbone " "
	$concave

}
