// Created by Crowbar 0.56

$modelname "props_debris/concrete_chunk06a.mdl"

$staticprop

$bodygroup "Body"
{
	studio "concrete_chunk06a_reference.smd"
}


$surfaceprop "rock"

$contents "solid"

$illumposition 0 0.013 0

$cdmaterials "models\props_debris\"

$cbox 0 0 0 0 0 0

$bbox -35.028 -32.999 -9.806 35.002 32.999 9.806

$definebone "static_prop" "" 0 0 0 0 0 0 0 0 0 0 0 0

$animation "a_idle" "concrete_chunk06a_anims\idle.smd" {
	fps 30
}

$sequence "idle" {
	"a_idle"
	fadein 0.2
	fadeout 0.2
	fps 30
}


$collisionmodel "concrete_chunk06a_physics.smd"
{
	$mass 2014.21
	$inertia 1
	$damping 0
	$rotdamping 0
	$rootbone " "
	$concave

}
