// Created by Crowbar 0.56

$modelname "props_debris/concrete_chunk09a.mdl"

$staticprop

$bodygroup "Body"
{
	studio "concrete_chunk09a_reference.smd"
}


$surfaceprop "rock"

$contents "solid"

$illumposition 0.836 -0.019 0

$cdmaterials "models\props_debris\"

$cbox 0 0 0 0 0 0

$bbox -3.927 -3.227 -6.815 3.965 4.899 6.815

$definebone "static_prop" "" 0 0 0 0 0 0 0 0 0 0 0 0

$animation "a_idle" "concrete_chunk09a_anims\idle.smd" {
	fps 30
}

$sequence "idle" {
	"a_idle"
	fadein 0.2
	fadeout 0.2
	fps 30
}


$collisionmodel "concrete_chunk09a_physics.smd"
{
	$mass 15.30614
	$inertia 1
	$damping 0
	$rotdamping 0
	$rootbone " "
	$concave

}
