// Created by Crowbar 0.56

$modelname "props_debris/metal_panel01a.mdl"

$staticprop

$bodygroup "Body"
{
	studio "metal_panel01a_reference.smd"
}


$surfaceprop "metal"

$contents "solid"

$illumposition -0.002 -0.544 0.043

$cdmaterials "models\props_debris\"

$cbox 0 0 0 0 0 0

$bbox -1.693 -24.002 -65.368 2.781 23.999 65.453

$definebone "static_prop" "" 0 0 0 0 0 0 0 0 0 0 0 0

$animation "a_idle" "metal_panel01a_anims\idle.smd" {
	fps 30
}

$sequence "idle" {
	"a_idle"
	fadein 0.2
	fadeout 0.2
	fps 30
}


$collisionmodel "metal_panel01a_physics.smd"
{
	$mass 150
	$inertia 1
	$damping 0
	$rotdamping 0
	$rootbone " "
	$concave

}

$collisiontext
{
	break 
	{
		"model" "props_debris/metal_panelchunk01a"
		"health" "10"
		"fadetime" "30"
	}
	break 
	{
		"model" "props_debris/metal_panelchunk01b"
		"health" "10"
		"fadetime" "30"
	}
}
