// Created by Crowbar 0.56

$modelname "props_debris/metal_panelchunk01d.mdl"

$staticprop

$bodygroup "Body"
{
	studio "metal_panelchunk01d_reference.smd"
}


$surfaceprop "metal"

$contents "solid"

$illumposition -0.007 -6.611 41.794

$cdmaterials "models\props_debris\"

$cbox 0 0 0 0 0 0

$bbox 0.57 -24.008 18.139 12.652 23.995 65.45

$definebone "static_prop" "" 0 0 0 0 0 0 0 0 0 0 0 0

$animation "a_idle" "metal_panelchunk01d_anims\idle.smd" {
	fps 30
}

$sequence "idle" {
	"a_idle"
	fadein 0.2
	fadeout 0.2
	fps 30
}


$collisionmodel "metal_panelchunk01d_physics.smd"
{
	$mass 50
	$inertia 1
	$damping 0
	$rotdamping 0
	$rootbone " "
	$concave

}

$collisiontext
{
	break 
	{
		"model" "props_debris/metal_panelshard01a"
		"health" "10"
		"fadetime" "30"
	}
	break 
	{
		"model" "props_debris/metal_panelshard01b"
		"health" "10"
		"fadetime" "30"
	}
	break 
	{
		"model" "props_debris/metal_panelshard01c"
		"health" "10"
		"fadetime" "30"
	}
	break 
	{
		"model" "props_debris/metal_panelshard01d"
		"health" "10"
		"fadetime" "30"
	}
	break 
	{
		"model" "props_debris/metal_panelshard01e"
		"health" "10"
		"fadetime" "30"
	}
}
