// Created by Crowbar 0.56

$modelname "props_debris/plaster_floor003a.mdl"

$staticprop

$bodygroup "Body"
{
	studio "plaster_floor003a_reference.smd"
}

$lod 15
{
	replacemodel "plaster_floor003a_reference.smd" "plaster_floor003a_reference_lod1.smd"
}
$lod 20
{
	replacemodel "plaster_floor003a_reference.smd" "plaster_floor003a_reference_lod2.smd"
}
$lod 25
{
	replacemodel "plaster_floor003a_reference.smd" "plaster_floor003a_reference_lod3.smd"
}
$lod 30
{
	replacemodel "plaster_floor003a_reference.smd" "plaster_floor003a_reference_lod4.smd"
}

$surfaceprop "plaster"

$contents "solid"

$illumposition 0 0 2.341

$cdmaterials "models\props_debris\"

$cbox 0 0 0 0 0 0

$bbox -64 -64 -8.077 64 64 12.759

$definebone "static_prop" "" 0 0 0 0 0 0 0 0 0 0 0 0

$animation "a_idle" "plaster_floor003a_anims\idle.smd" {
	fps 30
}

$sequence "idle" {
	"a_idle"
	fadein 0.2
	fadeout 0.2
	fps 30
}


$collisionmodel "plaster_floor003a_physics.smd"
{
	$mass 800
	$inertia 1
	$damping 0
	$rotdamping 0
	$rootbone " "
	$concave

}
