// Created by Crowbar 0.56

$modelname "props_debris/plaster_ceilingpile001c.mdl"

$staticprop

$bodygroup "Body"
{
	studio "plaster_ceilingpile001c_reference.smd"
}

$lod 15
{
	replacemodel "plaster_ceilingpile001c_reference.smd" "plaster_ceilingpile001c_reference_lod1.smd"
}
$lod 20
{
	replacemodel "plaster_ceilingpile001c_reference.smd" "plaster_ceilingpile001c_reference_lod2.smd"
}
$lod 25
{
	replacemodel "plaster_ceilingpile001c_reference.smd" "plaster_ceilingpile001c_reference_lod3.smd"
}
$lod 30
{
	replacemodel "plaster_ceilingpile001c_reference.smd" "plaster_ceilingpile001c_reference_lod4.smd"
}

$surfaceprop "plaster"

$contents "solid"

$illumposition 0 0 0.082

$cdmaterials "models\props_debris\"

$cbox 0 0 0 0 0 0

$bbox -55.042 -32.231 -23.503 55.042 32.231 23.668

$definebone "static_prop" "" 0 0 0 0 0 0 0 0 0 0 0 0

$animation "a_idle" "plaster_ceilingpile001c_anims\idle.smd" {
	fps 30
}

$sequence "idle" {
	"a_idle"
	fadein 0.2
	fadeout 0.2
	fps 30
}


$collisionmodel "plaster_ceilingpile001c_physics.smd"
{
	$mass 800
	$inertia 1
	$damping 0
	$rotdamping 0
	$rootbone " "
	$concave

}
