// Created by Crowbar 0.56

$modelname "props_debris/prison_wallchunk002c.mdl"

$staticprop

$bodygroup "Body"
{
	studio "prison_wallchunk002c_reference.smd"
}


$surfaceprop "plaster"

$contents "solid"

$illumposition 0 0 0

$cdmaterials "models\props_debris\"

$cbox 0 0 0 0 0 0

$bbox -4.919 -4.663 -3.352 4.919 4.663 3.352

$definebone "static_prop" "" 0 0 0 0 0 0 0 0 0 0 0 0

$animation "a_idle" "prison_wallchunk002c_anims\idle.smd" {
	fps 30
}

$sequence "idle" {
	"a_idle"
	fadein 0.2
	fadeout 0.2
	fps 30
}


$collisionmodel "prison_wallchunk002c_physics.smd"
{
	$mass 5
	$inertia 1
	$damping 0
	$rotdamping 0
	$rootbone " "
	$concave

}
