// Created by Crowbar 0.56

$modelname "props_debris/Rebar_MedThin02b.mdl"

$staticprop

$bodygroup "Body"
{
	studio "Rebar_MedThin02b_reference.smd"
}


$surfaceprop "metal"

$contents "solid"

$illumposition -1.015 -34.717 -27.647

$cdmaterials "models\props_debris\"

$cbox 0 0 0 0 0 0

$bbox 0 -3.23 -57.685 69.435 1.2 2.391

$definebone "static_prop" "" 0 0 0 0 0 0 0 0 0 0 0 0

$animation "a_idle" "Rebar_MedThin02b_anims\idle.smd" {
	fps 30
}

$sequence "idle" {
	"a_idle"
	fadein 0.2
	fadeout 0.2
	fps 30
}


$collisionmodel "Rebar_MedThin02b_physics.smd"
{
	$mass 50
	$inertia 1
	$damping 0
	$rotdamping 0
	$rootbone " "
	$concave

}
