// Created by Crowbar 0.56

$modelname "props_debris/rebar004d_96.mdl"

$staticprop

$bodygroup "Body"
{
	studio "rebar004d_96_reference.smd"
}


$surfaceprop "concrete"

$contents "solid"

$illumposition 0 0 0

$cdmaterials "models\props_debris\"

$cbox 0 0 0 0 0 0

$bbox -8.61 -21.232 -48 8.61 21.232 48

$definebone "static_prop" "" 0 0 0 0 0 0 0 0 0 0 0 0

$animation "a_idle" "rebar004d_96_anims\idle.smd" {
	fps 30
}

$sequence "idle" {
	"a_idle"
	fadein 0.2
	fadeout 0.2
	fps 30
}


$collisionmodel "rebar004d_96_physics.smd"
{
	$mass 120
	$inertia 1
	$damping 0
	$rotdamping 0
	$rootbone " "
	$concave

}
