// Created by Crowbar 0.56

$modelname "props_debris/Rebar_MedThin03a.mdl"

$staticprop

$bodygroup "Body"
{
	studio "Rebar_MedThin03a_reference.smd"
}


$surfaceprop "metal"

$contents "solid"

$illumposition -1.109 -52.656 -13.832

$cdmaterials "models\props_debris\"

$cbox 0 0 0 0 0 0

$bbox 0 -3.418 -30.461 105.311 1.2 2.798

$definebone "static_prop" "" 0 0 0 0 0 0 0 0 0 0 0 0

$animation "a_idle" "Rebar_MedThin03a_anims\idle.smd" {
	fps 30
}

$sequence "idle" {
	"a_idle"
	fadein 0.2
	fadeout 0.2
	fps 30
}


$collisionmodel "Rebar_MedThin03a_physics.smd"
{
	$mass 50
	$inertia 1
	$damping 0
	$rotdamping 0
	$rootbone " "
	$concave

}
