// Created by Crowbar 0.56

$modelname "props_debris/Rebar_MedNorm02c.mdl"

$staticprop

$bodygroup "Body"
{
	studio "Rebar_MedNorm02c_reference.smd"
}


$surfaceprop "metal"

$contents "solid"

$illumposition -0.304 -37.328 -19.891

$cdmaterials "models\props_debris\"

$cbox 0 0 0 0 0 0

$bbox 0 -2.109 -42.574 74.657 1.5 2.791

$definebone "static_prop" "" 0 0 0 0 0 0 0 0 0 0 0 0

$animation "a_idle" "Rebar_MedNorm02c_anims\idle.smd" {
	fps 30
}

$sequence "idle" {
	"a_idle"
	fadein 0.2
	fadeout 0.2
	fps 30
}


$collisionmodel "Rebar_MedNorm02c_physics.smd"
{
	$mass 50
	$inertia 1
	$damping 0
	$rotdamping 0
	$rootbone " "
	$concave

}
