// Created by Crowbar 0.56

$modelname "props_debris/Rebar_MedNorm02a.mdl"

$staticprop

$bodygroup "Body"
{
	studio "Rebar_MedNorm02a_reference.smd"
}


$surfaceprop "metal"

$contents "solid"

$illumposition -1.105 -52.678 -13.843

$cdmaterials "models\props_debris\"

$cbox 0 0 0 0 0 0

$bbox 0 -3.71 -30.744 105.355 1.5 3.057

$definebone "static_prop" "" 0 0 0 0 0 0 0 0 0 0 0 0

$animation "a_idle" "Rebar_MedNorm02a_anims\idle.smd" {
	fps 30
}

$sequence "idle" {
	"a_idle"
	fadein 0.2
	fadeout 0.2
	fps 30
}


$collisionmodel "Rebar_MedNorm02a_physics.smd"
{
	$mass 50
	$inertia 1
	$damping 0
	$rotdamping 0
	$rootbone " "
	$concave

}
