// Created by Crowbar 0.56

$modelname "props_debris/wood_chunk08b.mdl"

$staticprop

$bodygroup "Body"
{
	studio "wood_chunk08b_reference.smd"
}


$surfaceprop "wood"

$contents "solid"

$illumposition 0 0 0

$cdmaterials "models\props_debris\"

$attachment "placementOrigin" "static_prop" 0 0 10.37 rotate 0 90 0
$attachment "placementOrigin" "static_prop" -0.06 0 10.29 rotate 0 0 0

$cbox 0 0 0 0 0 0

$bbox -3.996 -3.999 -21.63 3.996 3.999 21.63

$definebone "static_prop" "" 0 0 0 0 0 0 0 0 0 0 0 0

$animation "a_idle" "wood_chunk08b_anims\idle.smd" {
	fps 30
}

$sequence "idle" {
	"a_idle"
	fadein 0.2
	fadeout 0.2
	fps 30
}


$collisionmodel "wood_chunk08b_physics.smd"
{
	$mass 23.19469
	$inertia 1
	$damping 0
	$rotdamping 0
	$rootbone " "
	$concave

}

$collisiontext
{
	break 
	{
		"model" "props_debris/wood_chunk08e"
		"health" "10"
		"fadetime" "30"
	}
	break 
	{
		"model" "props_debris/wood_chunk08f"
		"health" "10"
		"fadetime" "30"
	}
	break 
	{
		"model" "props_debris/wood_splinters01a"
		"health" "10"
		"fadetime" "2"
	}
	break 
	{
		"model" "props_debris/wood_splinters01b"
		"health" "10"
		"fadetime" "2"
	}
	break 
	{
		"model" "props_debris/wood_splinters01c"
		"health" "10"
		"fadetime" "2"
	}
	break 
	{
		"model" "props_debris/wood_splinters01d"
		"health" "10"
		"fadetime" "2"
	}
	break 
	{
		"model" "props_debris/wood_splinters01e"
		"health" "10"
		"fadetime" "2"
	}
}
