// Created by Crowbar 0.56

$modelname "props_debris/wood_chunk08c.mdl"

$staticprop

$bodygroup "Body"
{
	studio "wood_chunk08c_reference.smd"
}


$surfaceprop "wood"

$contents "solid"

$illumposition 0 0 0

$cdmaterials "models\props_debris\"

$attachment "placementOrigin" "static_prop" -1.79 0 -14.13 rotate 0 90 0
$attachment "placementOrigin" "static_prop" 0.03 1.84 -14.09 rotate 0 0 0

$cbox 0 0 0 0 0 0

$bbox -3.996 -2.207 -17.866 3.996 2.207 17.865

$definebone "static_prop" "" 0 0 0 0 0 0 0 0 0 0 0 0

$animation "a_idle" "wood_chunk08c_anims\idle.smd" {
	fps 30
}

$sequence "idle" {
	"a_idle"
	fadein 0.2
	fadeout 0.2
	fps 30
}


$collisionmodel "wood_chunk08c_physics.smd"
{
	$mass 10.31547
	$inertia 1
	$damping 0
	$rotdamping 0
	$rootbone " "
	$concave

}

$collisiontext
{
	break 
	{
		"model" "props_debris/wood_splinters01a"
		"health" "10"
		"fadetime" "2"
	}
	break 
	{
		"model" "props_debris/wood_splinters01b"
		"health" "10"
		"fadetime" "2"
	}
	break 
	{
		"model" "props_debris/wood_splinters01c"
		"health" "10"
		"fadetime" "2"
	}
	break 
	{
		"model" "props_debris/wood_splinters01d"
		"health" "10"
		"fadetime" "2"
	}
	break 
	{
		"model" "props_debris/wood_splinters01e"
		"health" "10"
		"fadetime" "2"
	}
}
