// Created by Crowbar 0.56

$modelname "props_debris/wood_chunk03b.mdl"

$staticprop

$bodygroup "Body"
{
	studio "wood_chunk03b_reference.smd"
}


$surfaceprop "wood"

$contents "solid"

$illumposition 0 0 0

$cdmaterials "models\props_debris\"

$attachment "placementOrigin" "static_prop" 0 0 24.22 rotate 0 90 0
$attachment "placementOrigin" "static_prop" 0.03 -0.02 24.28 rotate 0 0 0

$cbox 0 0 0 0 0 0

$bbox -1.002 -4 -39.783 1.002 4 39.783

$definebone "static_prop" "" 0 0 0 0 0 0 0 0 0 0 0 0

$animation "a_idle" "wood_chunk03b_anims\idle.smd" {
	fps 30
}

$sequence "idle" {
	"a_idle"
	fadein 0.2
	fadeout 0.2
	fps 30
}


$collisionmodel "wood_chunk03b_physics.smd"
{
	$mass 7.597362
	$inertia 1
	$damping 0
	$rotdamping 0
	$rootbone " "
	$concave

}

$collisiontext
{
	break 
	{
		"model" "props_debris/wood_chunk03e"
		"health" "10"
		"fadetime" "30"
	}
	break 
	{
		"model" "props_debris/wood_chunk03f"
		"health" "10"
		"fadetime" "30"
	}
	break 
	{
		"model" "props_debris/wood_splinters01a"
		"health" "10"
		"fadetime" "2"
	}
	break 
	{
		"model" "props_debris/wood_splinters01b"
		"health" "10"
		"fadetime" "2"
	}
	break 
	{
		"model" "props_debris/wood_splinters01c"
		"health" "10"
		"fadetime" "2"
	}
	break 
	{
		"model" "props_debris/wood_splinters01d"
		"health" "10"
		"fadetime" "2"
	}
	break 
	{
		"model" "props_debris/wood_splinters01e"
		"health" "10"
		"fadetime" "2"
	}
}
