// Created by Crowbar 0.56

$modelname "props_debris/wood_chunk03f.mdl"

$staticprop

$bodygroup "Body"
{
	studio "wood_chunk03f_reference.smd"
}


$surfaceprop "wood"

$contents "solid"

$illumposition 0 0 0

$cdmaterials "models\props_debris\"

$attachment "placementOrigin" "static_prop" 1.84 0 26.41 rotate 0 90 0
$attachment "placementOrigin" "static_prop" 0.02 -2.13 26.23 rotate 0 0 0

$cbox 0 0 0 0 0 0

$bbox -1.002 -2.163 -37.594 1.002 2.163 37.594

$definebone "static_prop" "" 0 0 0 0 0 0 0 0 0 0 0 0

$animation "a_idle" "wood_chunk03f_anims\idle.smd" {
	fps 30
}

$sequence "idle" {
	"a_idle"
	fadein 0.2
	fadeout 0.2
	fps 30
}

