// Created by Crowbar 0.56

$modelname "props_debris/wood_splinters01c.mdl"

$staticprop

$bodygroup "Body"
{
	studio "wood_splinters01c_reference.smd"
}


$surfaceprop "wood"

$contents "solid"

$illumposition 0 0 0

$cdmaterials "models\props_debris\"

$attachment "placementOrigin" "static_prop" -0.05 -0.04 0 rotate 0 90 0
$attachment "placementOrigin" "static_prop" -0.04 0.05 0 rotate 0 0 0

$cbox 0 0 0 0 0 0

$bbox -0.435 -0.688 -7.738 0.435 0.688 7.738

$definebone "static_prop" "" 0 0 0 0 0 0 0 0 0 0 0 0

$animation "a_idle" "wood_splinters01c_anims\idle.smd" {
	fps 30
}

$sequence "idle" {
	"a_idle"
	fadein 0.2
	fadeout 0.2
	fps 30
}


$collisionmodel "wood_splinters01c_physics.smd"
{
	$mass 0.028527
	$inertia 1
	$damping 0
	$rotdamping 0
	$rootbone " "
	$concave

}
