// Created by Crowbar 0.56

$modelname "props_citizen_tech/arm001a_piston01hinge.mdl"

$staticprop

$bodygroup "Body"
{
	studio "arm001a_piston01hinge_reference.smd"
}


$surfaceprop "metal"

$contents "solid"

$illumposition 0 0 0

$cdmaterials "models\props_citizen_tech\"

$cbox 0 0 0 0 0 0

$bbox -2.688 -6.863 -13.881 2.688 6.863 13.881

$definebone "static_prop" "" 0 0 0 0 0 0 0 0 0 0 0 0

$animation "a_idle" "arm001a_piston01hinge_anims\idle.smd" {
	fps 5
	loop
}

$sequence "idle" {
	"a_idle"
	fadein 0.2
	fadeout 0.2
	fps 5
	loop
}


$collisionmodel "arm001a_piston01hinge_physics.smd"
{
	$mass 75
	$inertia 1
	$damping 0
	$rotdamping 0
	$rootbone " "
	$concave

}
