// Created by Crowbar 0.56

$modelname "props_citizen_tech/arm002a_piston02pipe.mdl"

$staticprop

$bodygroup "Body"
{
	studio "arm002a_piston02pipe_reference.smd"
}


$surfaceprop "metal"

$contents "solid"

$illumposition 0 0 0

$cdmaterials "models\props_citizen_tech\"

$cbox 0 0 0 0 0 0

$bbox -17.184 -22.345 -31.454 17.184 22.345 31.454

$definebone "static_prop" "" 0 0 0 0 0 0 0 0 0 0 0 0

$animation "a_idle" "arm002a_piston02pipe_anims\idle.smd" {
	fps 5
	loop
}

$sequence "idle" {
	"a_idle"
	fadein 0.2
	fadeout 0.2
	fps 5
	loop
}


$collisionmodel "arm002a_piston02pipe_physics.smd"
{
	$mass 150
	$inertia 1
	$damping 0
	$rotdamping 0
	$rootbone " "
	$concave

}
