// Created by Crowbar 0.56

$modelname "props_citizen_tech/till001a_safetyarm01.mdl"

$staticprop

$bodygroup "Body"
{
	studio "till001a_safetyarm01_reference.smd"
}


$surfaceprop "metal"

$contents "solid"

$illumposition 0 0 0

$cdmaterials "models\props_citizen_tech\"

$cbox 0 0 0 0 0 0

$bbox -20.084 -98.966 -21.432 20.084 98.966 21.432

$definebone "static_prop" "" 0 0 0 0 0 0 0 0 0 0 0 0

$animation "a_idle" "till001a_safetyarm01_anims\idle.smd" {
	fps 5
	loop
}

$sequence "idle" {
	"a_idle"
	fadein 0.2
	fadeout 0.2
	fps 5
	loop
}


$collisionmodel "till001a_safetyarm01_physics.smd"
{
	$mass 500
	$inertia 1
	$damping 0
	$rotdamping 0
	$rootbone " "
	$concave

}
