// Created by Crowbar 0.56

$modelname "props_citizen_tech/till001a_track01.mdl"

$staticprop

$bodygroup "Body"
{
	studio "till001a_track01_reference.smd"
}


$surfaceprop "metal"

$contents "solid"

$illumposition 0 0 0

$cdmaterials "models\props_citizen_tech\"

$cbox 0 0 0 0 0 0

$bbox -168.453 -126.694 -23.126 168.453 126.694 23.126

$definebone "static_prop" "" 0 0 0 0 0 0 0 0 0 0 0 0

$animation "a_idle" "till001a_track01_anims\idle.smd" {
	fps 5
	loop
}

$sequence "idle" {
	"a_idle"
	fadein 0.2
	fadeout 0.2
	fps 5
	loop
}


$collisionmodel "till001a_track01_physics.smd"
{
	$mass 1200
	$inertia 1
	$damping 0
	$rotdamping 0
	$rootbone " "
	$concave

}
