// Choreo version 1
actor "alyx"
{
  channel "facial1"
  {
    event flexanimation "facial1"
    {
      time 0.006667 8.433334
      ramp 1.00 1.00 1.00
      param ""
      flexanimations
      {
        "lid_raiser"         combo        
        {
          0.3992 0.0900
          0.4697 0.1100
          0.5279 0.7105
          0.6484 0.7511
          0.9934 0.2668
        }
        {
        }
        "lid_tightener"         combo        
        {
          0.0041 0.0658
          0.1656 0.1079
          0.2877 0.6500
          0.4418 0.5721
          0.5254 0.0000
          0.5689 0.0000
        }
        {
          0.1648 0.4900
          0.2844 0.3500
          0.4393 0.3400
          0.5213 0.4900
          0.6082 0.4995
        }
        "inner_raiser"         combo        
        {
          0.3861 0.1163
          0.4787 0.1716
          0.5336 0.7763
          0.6254 0.8084
          0.7697 0.5826
          0.9984 0.3705
        }
        {
          0.3918 0.4700
          0.4697 0.4900
          0.5295 0.6953
          0.6320 0.6995
        }
        "outer_raiser"         combo        
        {
          0.3877 0.1600
          0.4828 0.2405
          0.5311 0.9384
          0.6180 1.0000
          0.7746 0.8274
          0.9918 0.5600
        }
        {
          0.3820 0.5000
          0.4689 0.5626
          0.5361 0.7279
          0.6344 0.7179
        }
        "lowerer"         combo        
        {
          0.0000 0.0721
          0.3689 0.1321
          0.4918 0.0805
          0.5623 0.0000
          0.6590 0.0000
        }
        {
        }
        "cheek_raiser"         combo        
        {
          0.0049 0.1021
          0.1598 0.0821
          0.2852 0.4758
          0.4713 0.5242
          0.5410 0.0300
          0.6180 0.0211
        }
        {
        }
        "upper_raiser"         combo        
        {
          0.3066 0.0274
          0.4656 0.0379
          0.5541 0.0000
          0.6672 0.0000
          0.9877 0.0000
        }
        {
        }
        "corner_puller"         combo        
        {
          0.0000 0.1132
          0.0000 0.1489
          0.0451 0.1726
          0.1713 0.2174
          0.2525 0.6737
          0.3238 0.8221
          0.3967 0.8511
          0.5082 0.7611
          0.5623 0.0805
          0.6508 0.0316
        }
        {
          0.1197 0.4900
          0.2902 0.4474
          0.5451 0.4174
          0.6410 0.5200
          0.7352 0.5200
        }
        "corner_depressor"        
        {
          0.0008 0.1400
          0.1779 0.1795
          0.2770 0.4479
          0.4705 0.4432
          0.5459 0.4658
          0.6320 0.5116
          0.7918 0.5337
          0.9967 0.3421
        }
        "part"         combo        
        {
          0.1139 0.0426
          0.1803 0.0942
          0.4221 0.1037
          0.5090 0.0705
          0.6180 0.0000
        }
        {
        }
        "jaw_drop"        
        {
          0.3607 0.0784
          0.4467 0.1305
          0.5238 0.4005
          0.6057 0.3974
          0.6475 0.0000
          0.6975 0.0000
          0.7770 0.0000
          0.8172 0.0211
        }
        "mouth_drop"         combo        
        {
          0.3590 0.0632
          0.4557 0.0632
          0.5262 0.4063
          0.5918 0.4674
          0.6418 0.0211
          0.7057 0.0316
          0.7697 0.0374
          0.8139 0.0695
        }
        {
        }
      }
    }
  }
  channel "audio"
  {
    event speak "uh_oh"
    {
      time 5.493332 7.466846
      ramp 1.00 1.00 1.00
      param "vo\alyx_strider\alyx_06.wav"
      tags
      {
        "u" 0.004054
        "end" 0.991125
      }
    }
  }
  channel "animation"
  {
    event sequence "talk"
    {
      time 0.020000 -1.000000
      ramp 1.00 1.00 1.00
      param "E3sewertalk"
    }
  }
  channel "look cues"
  {
    event lookat "look at hydra"
    {
      time 3.000001 10.000002
      ramp 0.98 1.00 0.56
      param "target_hydra"
    }
    event lookat "look at player"
    {
      time 0.006667 2.993333
      ramp 0.89 1.00 0.93
      param "Player"
    }
  }
}

mapname "maps\e3_strider.bsp"
