// Created by Crowbar 0.56

$modelname "Junk/W_Garb_BeerBottle3.mdl"

$staticprop

$bodygroup "body"
{
	studio "W_Garb_BeerBottle3.smd"
}


$surfaceprop "glassbottle"

$contents "solid"

$illumposition 0.018 0.028 4.834

$cdmaterials "models\junk\w_garb_beerbottle3\"

$cbox 0 0 0 0 0 0

$bbox -1.297 -1.271 0.01 1.242 1.306 9.658

$definebone "static_prop" "" 0 0 0 0 0 0 0 0 0 0 0 0

$animation "a_IDLE" "W_Garb_BeerBottle3_anims\IDLE.smd" {
	fps 5
	loop
}

$sequence "IDLE" {
	"a_IDLE"
	fadein 0.2
	fadeout 0.2
	fps 5
	loop
}


$collisionmodel "W_Garb_BeerBottle3_physics.smd"
{
	$mass 0.5
	$inertia 1
	$damping 0
	$rotdamping 0
	$rootbone " "

}
