// Created by Crowbar 0.56

$modelname "gibs/wood_gib01a.mdl"

$staticprop

$bodygroup "Body"
{
	studio "wood_gib01a_reference.smd"
}


$surfaceprop "wood"

$contents "solid"

$illumposition 0 0 0

$cdmaterials "models\Gibs\woodgibs\"

$texturegroup "skinfamilies"
{
	{ "wood_gib01a" }
	{ "wood_gib02a" }
}

$attachment "placementOrigin" "static_prop" 0 0 0 rotate 0 90 0
$attachment "placementOrigin" "static_prop" 0 0 0 rotate 0 0 0

$cbox 0 0 0 0 0 0

$bbox -0.658 -0.78 -3.106 0.658 0.78 3.106

$definebone "static_prop" "" 0 0 0 0 0 0 0 0 0 0 0 0

$animation "a_idle" "wood_gib01a_anims\idle.smd" {
	fps 30
}

$sequence "idle" {
	"a_idle"
	fadein 0.2
	fadeout 0.2
	fps 30
}


$collisionmodel "wood_gib01a_physics.smd"
{
	$mass 2
	$inertia 1
	$damping 0
	$rotdamping 0
	$rootbone " "
	$concave

}
