"Resource/HudLayout.res"
{
	HudHealth
	{
		"fieldName"		"HudHealth"
		"xpos"	"16"
		"ypos"	"432"
		"wide"	"102"
		"tall"  "36"
		"visible" "1"
		"enabled" "1"

		"PaintBackgroundType"	"2"
		
		"text_xpos" "8"
		"text_ypos" "20"
		"digit_xpos" "50"
		"digit_ypos" "2"
	}
	
	HudSuit
	{
		"fieldName"		"HudSuit"
		"xpos"	"140"
		"ypos"	"432"
		"wide"	"108"
		"tall"  "36"
		"visible" "1"
		"enabled" "1"

		"PaintBackgroundType"	"2"

		
		"text_xpos" "8"
		"text_ypos" "20"
		"digit_xpos" "50"
		"digit_ypos" "2"
	}

	HudAmmo
	{
		"fieldName" "HudAmmo"
		"xpos"	"r150"
		"ypos"	"432"
		"wide"	"136"
		"tall"  "36"
		"visible" "1"
		"enabled" "1"

		"PaintBackgroundType"	"2"

		"text_xpos" "8"
		"text_ypos" "20"
		"digit_xpos" "44"
		"digit_ypos" "2"
		"digit2_xpos" "98"
		"digit2_ypos" "16"
	}

	HudAmmoSecondary
	{
		"fieldName" "HudAmmoSecondary"
		"xpos"	"r76"
		"ypos"	"432"
		"wide"	"60"
		"tall"  "36"
		"visible" "1"
		"enabled" "1"

		"PaintBackgroundType"	"2"

		"digit_xpos" "10"
		"digit_ypos" "2"
	}
	
	HudSuitPower
	{
		"fieldName" "HudSuitPower"
		"visible" "1"
		"enabled" "1"
		"xpos"	"16"
		"ypos"	"396"
		"wide"	"102"
		"tall"	"26"
		
		"AuxPowerLowColor" "255 0 0 220"
		"AuxPowerHighColor" "255 220 0 220"
		"AuxPowerDisabledAlpha" "70"

		"BarInsetX" "8"
		"BarInsetY" "15"
		"BarWidth" "92"
		"BarHeight" "4"
		"BarChunkWidth" "6"
		"BarChunkGap" "3"

		"text_xpos" "8"
		"text_ypos" "4"
		"text2_xpos" "8"
		"text2_ypos" "22"
		"text2_gap" "10"

		"PaintBackgroundType"	"2"
	}
	
	HudFlashlight
	{
		"fieldName" "HudFlashlight"
		"visible" "0"
		"enabled" "1"
		"xpos"	"16"
		"ypos"	"370"
		"wide"	"102"
		"tall"	"20"
		
		"text_xpos" "8"
		"text_ypos" "6"
		"TextColor"	"255 170 0 220"

		"PaintBackgroundType"	"2"
	}
	
	HudDamageIndicator
	{
		"fieldName" "HudDamageIndicator"
		"visible" "1"
		"enabled" "1"
		"DmgColorLeft" "255 0 0 0"
		"DmgColorRight" "255 0 0 0"
		
		"dmg_xpos" "30"
		"dmg_ypos" "100"
		"dmg_wide" "36"
		"dmg_tall1" "240"
		"dmg_tall2" "200"
	}

	HudZoom
	{
		"fieldName" "HudZoom"
		"visible" "1"
		"enabled" "1"
		"Circle1Radius" "66"
		"Circle2Radius"	"74"
		"DashGap"	"16"
		"DashHeight" "4"
		"BorderThickness" "88"
	}

	HudWeaponSelection
	{
		"fieldName" "HudWeaponSelection"
		"ypos" 	"16"
		"visible" "1"
		"enabled" "1"
		"SmallBoxSize" "32"
		"LargeBoxWide" "112"
		"LargeBoxTall" "80"
		"BoxGap" "8"
		"SelectionNumberXPos" "4"
		"SelectionNumberYPos" "4"
		"SelectionGrowTime"	"0.4"
		"TextYPos" "64"
	}

	HudCrosshair
	{
		"fieldName" "HudCrosshair"
		"visible" "1"
		"enabled" "1"
		"wide"	 "640"
		"tall"	 "480"
	}

	HudDeathNotice
	{
		"fieldName" "HudDeathNotice"
		"visible" "1"
		"enabled" "1"
		"wide"	 "640"
		"tall"	 "480"
	}

	HudVehicle
	{
		"fieldName" "HudVehicle"
		"visible" "1"
		"enabled" "1"
		"wide"	 "640"
		"tall"	 "480"
	}

	CVProfPanel
	{
		"fieldName" 		"CVProfPanel"
		"visible" 			"1"
		"enabled" 			"1"
		"wide"	 			"640"
		"tall"	 			"480"
	}
	
	ScorePanel
	{
		"fieldName" "ScorePanel"
		"visible" "1"
		"enabled" "1"
		"wide"	 "640"
		"tall"	 "480"
	}

	HudTrain
	{
		"fieldName" "HudTrain"
		"visible" "1"
		"enabled" "1"
		"wide"	 "640"
		"tall"	 "480"
	}

	HudMOTD
	{
		"fieldName" "HudMOTD"
		"visible" "1"
		"enabled" "1"
		"wide"	 "640"
		"tall"	 "480"
	}

	HudMessage
	{
		"fieldName" "HudMessage"
		"visible" "1"
		"enabled" "1"
		"wide"	 "640"
		"tall"	 "480"
	}

	HudMenu
	{
		"fieldName" "HudMenu"
		"visible" "1"
		"enabled" "1"
		"wide"	 "640"
		"tall"	 "480"
	}

	HudCloseCaption
	{
		"fieldName" "HudCloseCaption"
		"visible"	"1"
		"enabled"	"1"
		"xpos"		"c-250"
		"ypos"		"276"
		"wide"		"500"
		"tall"		"136"

		"BgAlpha"	"128"

		"GrowTime"		"0.25"
		"ItemHiddenTime"	"0.2"  // Nearly same as grow time so that the item doesn't start to show until growth is finished
		"ItemFadeInTime"	"0.15"	// Once ItemHiddenTime is finished, takes this much longer to fade in
		"ItemFadeOutTime"	"0.3"

	}

	HudChat
	{
		"fieldName" "HudChat"
		"visible" "0"
		"enabled" "1"
		"xpos"	"0"
		"ypos"	"0"
		"wide"	 "4"
		"tall"	 "4"
	}

	HudHistoryResource
	{
		"fieldName" "HudHistoryResource"
		"visible" "1"
		"enabled" "1"
		"xpos"	"r252"
		"ypos"	"40"
		"wide"	 "248"
		"tall"	 "320"

		"history_gap"	"56"
		"icon_inset"	"28"
		"text_inset"	"26"
		"NumberFont"	"HudNumbersSmall"
	}

	HudGeiger
	{
		"fieldName" "HudGeiger"
		"visible" "1"
		"enabled" "1"
		"wide"	 "640"
		"tall"	 "480"
	}

	HUDQuickInfo
	{
		"fieldName" "HUDQuickInfo"
		"visible" "1"
		"enabled" "1"
		"wide"	 "640"
		"tall"	 "480"
	}

	HudWeapon
	{
		"fieldName" "HudWeapon"
		"visible" "1"
		"enabled" "1"
		"wide"	 "640"
		"tall"	 "480"
	}
	HudAnimationInfo
	{
		"fieldName" "HudAnimationInfo"
		"visible" "1"
		"enabled" "1"
		"wide"	 "640"
		"tall"	 "480"
	}

	CBudgetPanel
	{
		"fieldName" 		"CBudgetPanel"
		"visible" 			"1"
		"enabled" 			"1"
		"wide"	 			"640"
		"tall"				"480"
}
	
	HudPredictionDump
	{
		"fieldName" "HudPredictionDump"
		"visible" "1"
		"enabled" "1"
		"wide"	 "640"
		"tall"	 "480"
	}

	HudHintDisplay
	{
		"fieldName"	"HudHintDisplay"
		"visible"	"0"
		"enabled" "1"
		"xpos"	"r120"
		"ypos"	"r340"
		"wide"	"100"
		"tall"	"200"
		"text_xpos"	"8"
		"text_ypos"	"8"
		"text_xgap"	"8"
		"text_ygap"	"8"
		"TextColor"	"255 170 0 220"

		"PaintBackgroundType"	"2"
	}

	HudSquadStatus
	{
		"fieldName"	"HudSquadStatus"
		"visible"	"1"
		"enabled" "1"
		"xpos"	"r120"
		"ypos"	"380"
		"wide"	"104"
		"tall"	"46"
		"text_xpos"	"8"
		"text_ypos"	"34"
		"SquadIconColor"	"255 220 0 160"
		"IconInsetX"	"8"
		"IconInsetY"	"0"
		"IconGap"		"24"

		"PaintBackgroundType"	"2"
	}

	HudPoisonDamageIndicator
	{
		"fieldName"	"HudPoisonDamageIndicator"
		"visible"	"0"
		"enabled" "1"
		"xpos"	"16"
		"ypos"	"346"
		"wide"	"136"
		"tall"	"38"
		"text_xpos"	"8"
		"text_ypos"	"8"
		"text_ygap" "14"
		"TextColor"	"255 170 0 220"
		"PaintBackgroundType"	"2"
	}
	HudCredits
	{
		"fieldName"	"HudCredits"
		"TextFont"	"Default"
		"visible"	"1"
		"xpos"	"0"
		"ypos"	"0"
		"wide"	"640"
		"tall"	"480"
		"TextColor"	"255 255 255 192"

	}
	
	HUDAutoAim
	{
		"fieldName" "HUDAutoAim"
		"visible" "1"
		"enabled" "1"
		"wide"	 "640"
		"tall"	 "480"
	}

	HudCommentary
	{
		"fieldName" "HudCommentary"
		"xpos"	"c-190"
		"ypos"	"350"
		"wide"	"380"
		"tall"  "40"
		"visible" "1"
		"enabled" "1"
		
		"PaintBackgroundType"	"2"
		
		"bar_xpos"		"50"
		"bar_ypos"		"20"
		"bar_height"	"8"
		"bar_width"		"320"
		"speaker_xpos"	"50"
		"speaker_ypos"	"8"
		"count_xpos_from_right"	"10"	// Counts from the right side
		"count_ypos"	"8"
		
		"icon_texture"	"vgui/hud/icon_commentary"
		"icon_xpos"		"0"
		"icon_ypos"		"0"		
		"icon_width"	"40"
		"icon_height"	"40"
	}
	
	HudHDRDemo
	{
		"fieldName" "HudHDRDemo"
		"xpos"	"0"
		"ypos"	"0"
		"wide"	"640"
		"tall"  "480"
		"visible" "1"
		"enabled" "1"
		
		"Alpha"	"255"
		"PaintBackgroundType"	"2"
		
		"BorderColor"	"0 0 0 255"
		"BorderLeft"	"16"
		"BorderRight"	"16"
		"BorderTop"		"16"
		"BorderBottom"	"64"
		"BorderCenter"	"0"
		
		"TextColor"		"255 255 255 255"
		"LeftTitleY"	"422"
		"RightTitleY"	"422"
	}
}