// Created by Crowbar 0.56

$modelname "props_lab/bindergreen.mdl"

$staticprop

$bodygroup "Body"
{
	studio "bindergreen_reference.smd"
}


$surfaceprop "cardboard"

$contents "solid"

$illumposition -0.143 0.021 5.911

$cdmaterials "models\props_lab\"

$cbox 0 0 0 0 0 0

$bbox -5.527 -1.692 0.047 5.485 1.406 11.775

$definebone "static_prop" "" 0 0 0 0 0 0 0 0 0 0 0 0

$animation "a_idle" "bindergreen_anims\idle.smd" {
	fps 30
}

$sequence "idle" {
	"a_idle"
	fadein 0.2
	fadeout 0.2
	fps 30
}


$collisionmodel "bindergreen_physics.smd"
{
	$mass 0.804246
	$inertia 1
	$damping 0
	$rotdamping 0
	$rootbone " "
	$concave

}
