// Created by Crowbar 0.56

$modelname "props_lab/foldingtable.mdl"

$staticprop

$bodygroup "Body"
{
	studio "foldingtable_reference.smd"
}

$surfaceprop "WOOD"

$illumposition 0.79 -0.004 16.426

$cdmaterials "models\props_lab\"

$cbox 0 0 0 0 0 0

$bbox -16.594 -38.05 0.478 16.601 39.63 32.374

$animation "idle" "foldingtable_anims\idle.smd" {
	fps 30
}
