// Created by Crowbar 0.56

$modelname "weapons/v_IRifle.mdl"

$bodygroup "studio"
{
	studio "v_ml_IRifle_reference.smd"
}


$contents "solid"

$illumposition -6.078 -21.026 -7.262

$cdmaterials "models\weapons\v_irifle\"

$attachment "0" "Base" 0 0 24 rotate -90 0 0

$cbox 0 0 0 0 0 0

$bbox 3.68 -12 -14.638 38.372 -0.156 0.115

$definebone "Base" "" -5.846632 -11.638401 61.824333 0 0 89.999983 0 0 0 0 0 0
$definebone "Reload" "Base" 1.526086 -2.764851 14.082601 0 0 0 0 0 0 0 0 0
$definebone "Shell1" "Base" -0.05046 -0.056505 18.287695 0 0 0 0 0 0 0 0 0
$definebone "Bolt1" "Base" -0.112315 0.055738 8.441935 0 0 0 0 0 0 0 0 0
$definebone "Bolt2" "Bolt1" 0.487353 -0.167217 2.950581 0 0 0 0 0 0 0 0 0
$definebone "Shell2" "Base" 1.617459 -1.028969 14.611864 0 0 0 0 0 0 0 0 0

$animation "a_IR_idle" "v_ml_anims\IR_idle.smd" {
	fps 30
	loop
}

$animation "a_IR_fire" "v_ml_anims\IR_fire.smd" {
	fps 30
}

$animation "a_IR_draw" "v_ml_anims\IR_draw.smd" {
	fps 30
}

$animation "a_IR_holster" "v_ml_anims\IR_holster.smd" {
	fps 30
}

$sequence "IR_idle" {
	"a_IR_idle"
	activity "ACT_VM_IDLE" 1
	fadein 0.2
	fadeout 0.2
	fps 30
	loop
}

$sequence "IR_fire" {
	"a_IR_fire"
	activity "ACT_VM_PRIMARYATTACK" 1
	{ event 5001 0 "0" }
	fadein 0.2
	fadeout 0.2
	fps 30
}

$sequence "IR_draw" {
	"a_IR_draw"
	activity "ACT_VM_DRAW" 1
	fadein 0.2
	fadeout 0.2
	snap
	fps 30
}

$sequence "IR_holster" {
	"a_IR_holster"
	activity "ACT_VM_HOLSTER" 1
	fadein 0.2
	fadeout 0.2
	fps 30
}

