// Created by Crowbar 0.56

$modelname "Weapons/W_bb_Bottle.mdl"

$bodygroup "body"
{
	studio "W_bb_Bottle.smd"
}


$surfaceprop "glassbottle"

$contents "solid"

$illumposition 1.373 -0.045 0.055

$cdmaterials "models\weapons\w_bb_bottle\"

$cbox 0 0 0 0 0 0

$bbox -1.251 -3.463 -1.231 1.342 6.209 1.341

$definebone "Bip01" "" 0.445146 5.615 22.208099 28.280395 -93.54453 3.709128 0 0 0 0 0 0
$definebone "Bip01 Pelvis" "Bip01" 0.000001 0 0 -89.980155 -89.999641 0 0 0 0 0 0 0
$definebone "Bip01 Spine" "Bip01 Pelvis" 3.995951 -0.001767 -0.002846 -2.083774 33.443434 52.51141 0 0 0 0 0 0
$definebone "Bip01 Spine1" "Bip01 Spine" 4.518089 -0.002669 -0.00037 -5.366828 41.189535 5.924154 0 0 0 0 0 0
$definebone "Bip01 Spine2" "Bip01 Spine1" 4.516629 -0.003338 -0.000966 -3.20302 14.619419 15.615964 0 0 0 0 0 0
$definebone "Bip01 Spine3" "Bip01 Spine2" 4.51586 -0.003591 0.000141 2.58492 2.389581 -2.246846 0 0 0 0 0 0
$definebone "Bip01 Neck" "Bip01 Spine3" 4.516309 -0.001476 0.000002 -0.000062 22.499996 -0.000013 0 0 0 0 0 0
$definebone "Bip01 R Clavicle" "Bip01 Neck" 0 0.001599 -1.72062 60.108431 165.116696 8.820401 0 0 0 0 0 0
$definebone "Bip01 R UpperArm" "Bip01 R Clavicle" 4.220281 0 0 -12.691013 -36.064721 92.565921 0 0 0 0 0 0
$definebone "Bip01 R Forearm" "Bip01 R UpperArm" 11.759301 0 0.000001 0.000002 -24.248147 0.000005 0 0 0 0 0 0
$definebone "Bip01 R Hand" "Bip01 R Forearm" 11.984002 0.000001 -0.000001 5.187528 -33.675879 37.741191 0 0 0 0 0 0
$definebone "Beer Bottle" "Bip01 R Hand" 3.0732 1.0752 1.40512 7.445646 35.431654 -7.495828 0 0 0 0 0 0

$animation "a_IDLE" "w_bb_Bottle_anims\IDLE.smd" {
	fps 5
	loop
}

$animation "a_throw" "w_bb_Bottle_anims\throw.smd" {
	fps 5
}

$sequence "IDLE" {
	"a_IDLE"
	fadein 0.2
	fadeout 0.2
	fps 5
	loop
}

$sequence "throw" {
	"a_throw"
	activity "ACT_RANGE_ATTACK_THROW" 1
	fadein 0.2
	fadeout 0.2
	fps 5
}


$collisionmodel "w_bb_Bottle_physics.smd"
{
	$mass 0.5
	$inertia 1
	$damping 1
	$rotdamping 6
	$rootbone " "

}
