// Created by Crowbar 0.56

$modelname "weapons/w_IRifle.mdl"

$bodygroup "studio"
{
	studio "W_IRifle_reference.smd"
}


$contents "solid"

$illumposition -0.247 -7.856 1.358

$cdmaterials "models\weapons\w_Irifle\"

$cbox 0 0 0 0 0 0

$bbox -10.009 -5.697 -5.326 25.721 5.203 8.043

$definebone "ValveBiped.Bip01_R_Hand" "" 0.312503 -16.71932 0.282627 12.461603 88.326429 177.528803 0 0 0 0 0 0
$definebone "ValveBiped.Weapon_bone" "ValveBiped.Bip01_R_Hand" 5 -1.5 -5.000001 -0.000001 0 0 0 0 0 0 0 0

$animation "a_idle1" "w_IRifle_anims\idle1.smd" {
	fps 30
	loop
}

$animation "a_fire" "w_IRifle_anims\fire.smd" {
	fps 5
}

$animation "a_draw" "w_IRifle_anims\draw.smd" {
	fps 30
}

$animation "a_holster" "w_IRifle_anims\holster.smd" {
	fps 30
}

$sequence "idle1" {
	"a_idle1"
	activity "ACT_VM_IDLE" 1
	fadein 0.2
	fadeout 0.2
	fps 30
	loop
}

$sequence "fire" {
	"a_fire"
	activity "ACT_RANGE_ATTACK_SHOTGUN" 1
	{ event 5003 1 "1" }
	{ event 6001 1 "3" }
	{ event 3004 1 "" }
	fadein 0.2
	fadeout 0.2
	fps 5
}

$sequence "draw" {
	"a_draw"
	activity "ACT_VM_DRAW" 1
	fadein 0.2
	fadeout 0.2
	fps 30
}

$sequence "holster" {
	"a_holster"
	activity "ACT_VM_HOLSTER" 1
	fadein 0.2
	fadeout 0.2
	fps 30
}


$collisionmodel "w_IRifle_physics.smd"
{
	$mass 10
	$inertia 1
	$damping 0
	$rotdamping 0
	$rootbone " "

}
