// Created by Crowbar 0.56

$modelname "Weapons/wscanner_grenade.mdl"

$bodygroup "Body"
{
	studio "wscanner_grenade_Reference.smd"
}


$contents "solid"

$illumposition 0 -0.017 0

$cdmaterials "models\weapons\wscanner_grenade\"

$cbox 0 0 0 0 0 0

$bbox -2.465 -1.746 -1.791 2.499 1.746 1.791

$definebone "Waste_Ammo" "" 0 0 0 0 0 89.999983 0 0 0 0 0 0

$animation "a_idle" "wscanner_grenade_anims\idle.smd" {
	fps 30
	loop
}

$sequence "idle" {
	"a_idle"
	fadein 0.2
	fadeout 0.2
	fps 30
	loop
}

