// Created by Crowbar 0.56

$modelname "props_interiors/Furniture_Couch02a.mdl"

$staticprop

$bodygroup "Body"
{
	studio "Furniture_Couch02a_reference.smd"
}


$surfaceprop "dirt"

$contents "solid"

$illumposition 0 0 0

$cdmaterials "models\props_interiors\"

$cbox 0 0 0 0 0 0

$bbox -18.503 -22.716 -21.475 18.503 22.716 21.475

$definebone "static_prop" "" 0 0 0 0 0 0 0 0 0 0 0 0

$animation "a_idle" "Furniture_Couch02a_anims\idle.smd" {
	fps 30
}

$sequence "idle" {
	"a_idle"
	fadein 0.2
	fadeout 0.2
	fps 30
}


$collisionmodel "Furniture_Couch02a_physics.smd"
{
	$mass 180
	$inertia 1
	$damping 0
	$rotdamping 0
	$rootbone " "
	$concave

}
