// Created by Crowbar 0.56

$modelname "props_interiors/Furniture_chair01a.mdl"

$staticprop

$bodygroup "Body"
{
	studio "Furniture_chair01a_reference.smd"
}


$surfaceprop "wood"

$contents "solid"

$illumposition 0 0 0

$cdmaterials "models\props_interiors\"

$cbox 0 0 0 0 0 0

$bbox -10.212 -10.249 -21.002 10.212 10.249 21.002

$definebone "static_prop" "" 0 0 0 0 0 0 0 0 0 0 0 0

$animation "a_idle" "Furniture_chair01a_anims\idle.smd" {
	fps 30
}

$sequence "idle" {
	"a_idle"
	fadein 0.2
	fadeout 0.2
	fps 30
}


$collisionmodel "Furniture_chair01a_physics.smd"
{
	$mass 16
	$inertia 1
	$damping 0
	$rotdamping 0
	$rootbone " "
	$concave

}
