// Created by Crowbar 0.56

$modelname "props_interiors/LightBulb01a.mdl"

$staticprop

$bodygroup "Body"
{
	studio "LightBulb01a_reference.smd"
}


$surfaceprop "metal"

$contents "solid"

$illumposition 0 0 42.513

$cdmaterials "models\props_interiors\"

$cbox 0 0 0 0 0 0

$bbox -6.695 -32 35.851 6.695 32 49.175

$definebone "static_prop" "" 0 0 0 0 0 0 0 0 0 0 0 0

$animation "a_idle" "LightBulb01a_anims\idle.smd" {
	fps 30
}

$sequence "idle" {
	"a_idle"
	fadein 0.2
	fadeout 0.2
	fps 30
}


$collisionmodel "LightBulb01a_physics.smd"
{
	$mass 10
	$inertia 1
	$damping 0
	$rotdamping 0
	$rootbone " "
	$concave

}
