// Created by Crowbar 0.56

$modelname "props_pipes/Gutter_448_002a.mdl"

$staticprop

$bodygroup "Body"
{
	studio "Gutter_448_002a_reference.smd"
}

$lod 25
{
	replacemodel "Gutter_448_002a_reference.smd" "Gutter_448_002a_reference_lod1.smd"
}
$lod 35
{
	replacemodel "Gutter_448_002a_reference.smd" "Gutter_448_002a_reference_lod2.smd"
}

$surfaceprop "metal"

$contents "solid"

$illumposition 0.02 0.147 -0.071

$cdmaterials "models\props_pipes\"

$texturegroup "skinfamilies"
{
	{ "PipeMetal004a" }
	{ "PipeMetal004b" }
}

$cbox 0 0 0 0 0 0

$bbox -8.027 -17.257 -224.059 7.732 17.297 223.917

$definebone "static_prop" "" 0 0 0 0 0 0 0 0 0 0 0 0

$animation "a_idle" "Gutter_448_002a_anims\idle.smd" {
	fps 30
}

$sequence "idle" {
	"a_idle"
	fadein 0.2
	fadeout 0.2
	fps 30
}


$collisionmodel "Gutter_448_002a_physics.smd"
{
	$mass 444
	$inertia 1
	$damping 0
	$rotdamping 0
	$rootbone " "
	$concave

}
