// Created by Crowbar 0.56

$modelname "props_pipes/PipeSet32d_256_001a.mdl"

$staticprop

$bodygroup "Body"
{
	studio "PipeSet32d_256_001a_reference.smd"
}


$surfaceprop "metal"

$contents "solid"

$illumposition 0 0 0

$cdmaterials "models\props_pipes\"

$cbox 0 0 0 0 0 0

$bbox -128 -19.004 -25 128 19.004 25

$definebone "static_prop" "" 0 0 0 0 0 0 0 0 0 0 0 0

$animation "a_idle" "PipeSet32d_256_001a_anims\idle.smd" {
	fps 30
}

$sequence "idle" {
	"a_idle"
	fadein 0.2
	fadeout 0.2
	fps 30
}


$collisionmodel "PipeSet32d_256_001a_physics.smd"
{
	$mass 444
	$inertia 1
	$damping 0
	$rotdamping 0
	$rootbone " "
	$concave

}
