// Created by Crowbar 0.56

$modelname "props_pipes/PipeSet08d_64_001a.mdl"

$staticprop

$bodygroup "Body"
{
	studio "PipeSet08d_64_001a_reference.smd"
}


$surfaceprop "metal"

$contents "solid"

$illumposition 0 0 0

$cdmaterials "models\props_pipes\"

$cbox 0 0 0 0 0 0

$bbox -32 -6 -14 32 6 14

$definebone "static_prop" "" 0 0 0 0 0 0 0 0 0 0 0 0

$animation "a_idle" "PipeSet08d_64_001a_anims\idle.smd" {
	fps 30
}

$sequence "idle" {
	"a_idle"
	fadein 0.2
	fadeout 0.2
	fps 30
}


$collisionmodel "PipeSet08d_64_001a_physics.smd"
{
	$mass 444
	$inertia 1
	$damping 0
	$rotdamping 0
	$rootbone " "
	$concave

}
