// Created by Crowbar 0.56

$modelname "props_pipes/PipeHydra_chunk01_002a.mdl"

$staticprop

$bodygroup "Body"
{
	studio "PipeHydra_chunk01_002a_reference.smd"
}


$surfaceprop "metal"

$contents "solid"

$illumposition 12.799 7.023 0.562

$cdmaterials "models\props_pipes\"

$cbox 0 0 0 0 0 0

$bbox -15.255 9.565 0 1.208 16.033 1.123

$definebone "static_prop" "" 0 0 0 0 0 0 0 0 0 0 0 0

$animation "a_idle" "PipeHydra_chunk01_002a_anims\idle.smd" {
	fps 30
}

$sequence "idle" {
	"a_idle"
	fadein 0.2
	fadeout 0.2
	fps 30
}


$collisionmodel "PipeHydra_chunk01_002a_physics.smd"
{
	$mass 10
	$inertia 1
	$damping 0
	$rotdamping 0
	$rootbone " "
	$concave

}
