// Created by Crowbar 0.56

$modelname "props_pipes/PipeCluster08d_001a.mdl"

$staticprop

$bodygroup "Body"
{
	studio "PipeCluster08d_001a_reference.smd"
}


$surfaceprop "metal"

$contents "solid"

$illumposition 0 0 0

$cdmaterials "models\props_pipes\"

$cbox 0 0 0 0 0 0

$bbox -5.886 -16.991 -254.149 5.886 16.991 254.149

$definebone "static_prop" "" 0 0 0 0 0 0 0 0 0 0 0 0

$animation "a_idle" "PipeCluster08d_001a_anims\idle.smd" {
	fps 30
}

$sequence "idle" {
	"a_idle"
	fadein 0.2
	fadeout 0.2
	fps 30
}


$collisionmodel "PipeCluster08d_001a_physics.smd"
{
	$mass 444
	$inertia 1
	$damping 0
	$rotdamping 0
	$rootbone " "
	$concave

}
