// Created by Crowbar 0.56

$modelname "props_wasteland/bridge_support.mdl"

$staticprop

$bodygroup "Body"
{
	studio "bridge_support_reference.smd"
}

$lod 85
{
	replacemodel "bridge_support_reference.smd" "bridge_support_reference_lod1.smd"
}
$lod 150
{
	replacemodel "bridge_support_reference.smd" "bridge_support_reference_lod2.smd"
}
$lod 275
{
	replacemodel "bridge_support_reference.smd" "bridge_support_reference_lod3.smd"
}
$lod 500
{
	replacemodel "bridge_support_reference.smd" "bridge_support_reference_lod4.smd"
}

$surfaceprop "concrete"

$contents "solid"

$illumposition 0 0 0

$cdmaterials "models\props_wasteland\"

$cbox 0 0 0 0 0 0

$bbox -211.091 -100.074 -591.101 211.091 100.074 591.101

$definebone "static_prop" "" 0 0 0 0 0 0 0 0 0 0 0 0

$animation "a_idle" "bridge_support_anims\idle.smd" {
	fps 5
	loop
}

$sequence "idle" {
	"a_idle"
	fadein 0.2
	fadeout 0.2
	fps 5
	loop
}


$collisionmodel "bridge_support_physics.smd"
{
	$mass 571471
	$inertia 1
	$damping 0
	$rotdamping 0
	$rootbone " "
	$concave

}
