// Created by Crowbar 0.56

$modelname "props_wasteland/chimneystone01.mdl"

$staticprop

$bodygroup "Body"
{
	studio "chimneystone01_reference.smd"
}

$lod 40
{
	replacemodel "chimneystone01_reference.smd" "chimneystone01_reference_lod1.smd"
}
$lod 60
{
	replacemodel "chimneystone01_reference.smd" "chimneystone01_reference_lod2.smd"
}
$lod 80
{
	replacemodel "chimneystone01_reference.smd" "chimneystone01_reference_lod3.smd"
}
$lod 100
{
	replacemodel "chimneystone01_reference.smd" "chimneystone01_reference_lod4.smd"
}

$surfaceprop "concrete"

$contents "solid"

$illumposition 0 0 -1.432

$cdmaterials "models\props_wasteland\"

$cbox 0 0 0 0 0 0

$bbox -45.067 -28.531 -109.828 45.067 28.531 106.963

$definebone "static_prop" "" 0 0 0 0 0 0 0 0 0 0 0 0

$animation "a_idle" "chimneystone01_anims\idle.smd" {
	fps 30
}

$sequence "idle" {
	"a_idle"
	fadein 0.2
	fadeout 0.2
	fps 30
}


$collisionmodel "chimneystone01_physics.smd"
{
	$mass 18648.41
	$inertia 1
	$damping 0
	$rotdamping 0
	$rootbone " "
	$concave

}
