// Created by Crowbar 0.56

$modelname "props_wasteland/controlroom_filecabinet001a.mdl"

$staticprop

$bodygroup "Body"
{
	studio "controlroom_filecabinet001a_reference.smd"
}


$surfaceprop "metal"

$contents "solid"

$illumposition 0 0 0

$cdmaterials "models\props_wasteland\"

$cbox 0 0 0 0 0 0

$bbox -12.053 -9.213 -13.578 12.053 9.213 13.578

$definebone "static_prop" "" 0 0 0 0 0 0 0 0 0 0 0 0

$animation "a_idle" "controlroom_filecabinet001a_anims\idle.smd" {
	fps 30
}

$sequence "idle" {
	"a_idle"
	fadein 0.2
	fadeout 0.2
	fps 30
}


$collisionmodel "controlroom_filecabinet001a_physics.smd"
{
	$mass 440
	$inertia 1
	$damping 0
	$rotdamping 0
	$rootbone " "
	$concave

}
