// Created by Crowbar 0.56

$modelname "props_wasteland/controlroom_phone001b.mdl"

$staticprop

$bodygroup "Body"
{
	studio "controlroom_phone001b_reference.smd"
}

$lod 15
{
	replacemodel "controlroom_phone001b_reference.smd" "controlroom_phone001b_reference_lod1.smd"
}
$lod 20
{
	replacemodel "controlroom_phone001b_reference.smd" "controlroom_phone001b_reference_lod2.smd"
}
$lod 25
{
	replacemodel "controlroom_phone001b_reference.smd" "controlroom_phone001b_reference_lod3.smd"
}
$lod 30
{
	replacemodel "controlroom_phone001b_reference.smd" "controlroom_phone001b_reference_lod4.smd"
}

$surfaceprop "metal"

$contents "solid"

$illumposition 0 0 0

$cdmaterials "models\props_wasteland\"

$cbox 0 0 0 0 0 0

$bbox -10.215 -8.177 -4.681 10.215 8.177 4.681

$definebone "static_prop" "" 0 0 0 0 0 0 0 0 0 0 0 0

$animation "a_idle" "controlroom_phone001b_anims\idle.smd" {
	fps 30
}

$sequence "idle" {
	"a_idle"
	fadein 0.2
	fadeout 0.2
	fps 30
}


$collisionmodel "controlroom_phone001b_physics.smd"
{
	$mass 4
	$inertia 1
	$damping 0
	$rotdamping 0
	$rootbone " "
	$concave

}
