// Created by Crowbar 0.56

$modelname "props_wasteland/dockpole02e.mdl"

$staticprop

$bodygroup "Body"
{
	studio "dockpole02e_reference.smd"
}

$lod 40
{
	replacemodel "dockpole02e_reference.smd" "dockpole02e_reference_lod1.smd"
}
$lod 50
{
	replacemodel "dockpole02e_reference.smd" "dockpole02e_reference_lod2.smd"
}
$lod 60
{
	replacemodel "dockpole02e_reference.smd" "dockpole02e_reference_lod3.smd"
}
$lod 75
{
	replacemodel "dockpole02e_reference.smd" "dockpole02e_reference_lod4.smd"
}

$surfaceprop "wood"

$contents "solid"

$illumposition 0 0 0

$cdmaterials "models\props_wasteland\"

$cbox 0 0 0 0 0 0

$bbox -5.972 -5.918 -141.223 5.972 5.918 141.223

$definebone "static_prop" "" 0 0 0 0 0 0 0 0 0 0 0 0

$animation "a_idle" "dockpole02e_anims\idle.smd" {
	fps 30
}

$sequence "idle" {
	"a_idle"
	fadein 0.2
	fadeout 0.2
	fps 30
}


$collisionmodel "dockpole02e_physics.smd"
{
	$mass 155.6239
	$inertia 1
	$damping 0
	$rotdamping 0
	$rootbone " "
	$concave

}
