// Created by Crowbar 0.56

$modelname "props_wasteland/dockpole01f.mdl"

$staticprop

$bodygroup "Body"
{
	studio "dockpole01f_reference.smd"
}

$lod 40
{
	replacemodel "dockpole01f_reference.smd" "dockpole01f_reference_lod1.smd"
}
$lod 50
{
	replacemodel "dockpole01f_reference.smd" "dockpole01f_reference_lod2.smd"
}
$lod 60
{
	replacemodel "dockpole01f_reference.smd" "dockpole01f_reference_lod3.smd"
}
$lod 75
{
	replacemodel "dockpole01f_reference.smd" "dockpole01f_reference_lod4.smd"
}

$surfaceprop "wood"

$contents "solid"

$illumposition 0 0 0

$cdmaterials "models\props_wasteland\"

$cbox 0 0 0 0 0 0

$bbox -10.415 -10.365 -261.952 10.415 10.365 261.952

$definebone "static_prop" "" 0 0 0 0 0 0 0 0 0 0 0 0

$animation "a_idle" "dockpole01f_anims\idle.smd" {
	fps 30
}

$sequence "idle" {
	"a_idle"
	fadein 0.2
	fadeout 0.2
	fps 30
}


$collisionmodel "dockpole01f_physics.smd"
{
	$mass 1144.828
	$inertia 1
	$damping 0
	$rotdamping 0
	$rootbone " "
	$concave

}
