// Created by Crowbar 0.56

$modelname "props_wasteland/dockpole02a.mdl"

$staticprop

$bodygroup "Body"
{
	studio "dockpole02a_reference.smd"
}

$lod 40
{
	replacemodel "dockpole02a_reference.smd" "dockpole02a_reference_lod1.smd"
}
$lod 50
{
	replacemodel "dockpole02a_reference.smd" "dockpole02a_reference_lod2.smd"
}
$lod 60
{
	replacemodel "dockpole02a_reference.smd" "dockpole02a_reference_lod3.smd"
}
$lod 75
{
	replacemodel "dockpole02a_reference.smd" "dockpole02a_reference_lod4.smd"
}

$surfaceprop "wood"

$contents "solid"

$illumposition 0.132 0.594 0

$cdmaterials "models\props_wasteland\"

$cbox 0 0 0 0 0 0

$bbox -12.474 -11.395 -164.315 11.286 11.659 164.315

$definebone "static_prop" "" 0 0 0 0 0 0 0 0 0 0 0 0

$animation "a_idle" "dockpole02a_anims\idle.smd" {
	fps 30
}

$sequence "idle" {
	"a_idle"
	fadein 0.2
	fadeout 0.2
	fps 30
}


$collisionmodel "dockpole02a_physics.smd"
{
	$mass 718.6527
	$inertia 1
	$damping 0
	$rotdamping 0
	$rootbone " "
	$concave

}
