// Created by Crowbar 0.56

$modelname "props_wasteland/dockplank_chunk01e.mdl"

$staticprop

$bodygroup "Body"
{
	studio "dockplank_chunk01e_reference.smd"
}


$surfaceprop "wood"

$contents "solid"

$illumposition 62.128 -2.005 0

$cdmaterials "models\props_wasteland\"

$cbox 0 0 0 0 0 0

$bbox -5.261 21.247 -0.685 9.27 103.009 0.685

$definebone "static_prop" "" 0 0 0 0 0 0 0 0 0 0 0 0

$animation "a_idle" "dockplank_chunk01e_anims\idle.smd" {
	fps 30
}

$sequence "idle" {
	"a_idle"
	fadein 0.2
	fadeout 0.2
	fps 30
}


$collisionmodel "dockplank_chunk01e_physics.smd"
{
	$mass 6.33752
	$inertia 1
	$damping 0
	$rotdamping 0
	$rootbone " "
	$concave

}
