// Created by Crowbar 0.56

$modelname "props_wasteland/exterior_fence003a.mdl"

$staticprop

$bodygroup "Body"
{
	studio "exterior_fence003a_reference.smd"
}

$lod 35
{
	replacemodel "exterior_fence003a_reference.smd" "exterior_fence003a_reference_lod1.smd"
}
$lod 70
{
	replacemodel "exterior_fence003a_reference.smd" "exterior_fence003a_reference_lod2.smd"
}

$surfaceprop "metal"

$contents "solid"

$illumposition 0 0 0

$cdmaterials "models\props_wasteland\"

$cbox 0 0 0 0 0 0

$bbox -13.016 -31.916 -76.123 13.016 31.916 76.123

$definebone "static_prop" "" 0 0 0 0 0 0 0 0 0 0 0 0

$animation "a_idle" "exterior_fence003a_anims\idle.smd" {
	fps 30
}

$sequence "idle" {
	"a_idle"
	fadein 0.2
	fadeout 0.2
	fps 30
}


$collisionmodel "exterior_fence003a_physics.smd"
{
	$mass 5
	$inertia 1
	$damping 0
	$rotdamping 0
	$rootbone " "
	$concave

}
