// Created by Crowbar 0.56

$modelname "props_wasteland/interior_fence001g.mdl"

$staticprop

$bodygroup "Body"
{
	studio "interior_fence001g_reference.smd"
}

$lod 15
{
	replacemodel "interior_fence001g_reference.smd" "interior_fence001g_reference_lod1.smd"
}
$lod 20
{
	replacemodel "interior_fence001g_reference.smd" "interior_fence001g_reference_lod2.smd"
}
$lod 25
{
	replacemodel "interior_fence001g_reference.smd" "interior_fence001g_reference_lod3.smd"
}
$lod 30
{
	replacemodel "interior_fence001g_reference.smd" "interior_fence001g_reference_lod4.smd"
}

$surfaceprop "metal"

$contents "solid"

$illumposition 0.102 0.081 -9.054

$cdmaterials "models\props_wasteland\"

$cbox 0 0 0 0 0 0

$bbox -4.894 -23.08 -61.586 4.731 23.285 43.478

$definebone "static_prop" "" 0 0 0 0 0 0 0 0 0 0 0 0

$animation "a_idle" "interior_fence001g_anims\idle.smd" {
	fps 30
}

$sequence "idle" {
	"a_idle"
	fadein 0.2
	fadeout 0.2
	fps 30
}


$collisionmodel "interior_fence001g_physics.smd"
{
	$mass 5
	$inertia 1
	$damping 0
	$rotdamping 0
	$rootbone " "
	$concave

}
