// Created by Crowbar 0.56

$modelname "props_wasteland/kitchen_stove001a.mdl"

$staticprop

$bodygroup "Body"
{
	studio "kitchen_stove001a_reference.smd"
}


$surfaceprop "metal"

$contents "solid"

$illumposition 1.093 0.449 23.473

$cdmaterials "models\props_wasteland\"

$cbox 0 0 0 0 0 0

$bbox -18.632 -31.306 0 17.734 33.492 46.945

$definebone "static_prop" "" 0 0 0 0 0 0 0 0 0 0 0 0

$animation "a_idle" "kitchen_stove001a_anims\idle.smd" {
	fps 30
}

$sequence "idle" {
	"a_idle"
	fadein 0.2
	fadeout 0.2
	fps 30
}

