// Created by Crowbar 0.56

$modelname "props_wasteland/kitchen_tray001c.mdl"

$staticprop

$bodygroup "Body"
{
	studio "kitchen_tray001c_reference.smd"
}


$surfaceprop "metal"

$contents "solid"

$illumposition 0 0 1.831

$cdmaterials "models\props_wasteland\"

$cbox 0 0 0 0 0 0

$bbox -14.65 -18.49 -0.003 14.65 18.49 3.666

$definebone "static_prop" "" 0 0 0 0 0 0 0 0 0 0 0 0

$animation "a_idle" "kitchen_tray001c_anims\idle.smd" {
	fps 30
}

$sequence "idle" {
	"a_idle"
	fadein 0.2
	fadeout 0.2
	fps 30
}

