// Created by Crowbar 0.56

$modelname "props_wasteland/laundry_washer003.mdl"

$staticprop

$bodygroup "Body"
{
	studio "laundry_washer003_reference.smd"
}

$lod 40
{
	replacemodel "laundry_washer003_reference.smd" "laundry_washer003_reference_lod1.smd"
}
$lod 45
{
	replacemodel "laundry_washer003_reference.smd" "laundry_washer003_reference_lod2.smd"
}
$lod 50
{
	replacemodel "laundry_washer003_reference.smd" "laundry_washer003_reference_lod3.smd"
}
$lod 60
{
	replacemodel "laundry_washer003_reference.smd" "laundry_washer003_reference_lod4.smd"
}

$surfaceprop "metal"

$contents "solid"

$illumposition 0.091 0.02 0.231

$cdmaterials "models\props_wasteland\"

$cbox 0 0 0 0 0 0

$bbox -57.096 -28.082 -26.955 57.056 28.265 27.416

$definebone "static_prop" "" 0 0 0 0 0 0 0 0 0 0 0 0

$animation "a_idle" "laundry_washer003_anims\idle.smd" {
	fps 5
	loop
}

$sequence "idle" {
	"a_idle"
	fadein 0.2
	fadeout 0.2
	fps 5
	loop
}


$collisionmodel "laundry_washer003_physics.smd"
{
	$mass 5500
	$inertia 1
	$damping 0
	$rotdamping 0
	$rootbone " "
	$concave

}
