// Created by Crowbar 0.56

$modelname "props_wasteland/lighthouse_stairs_top.mdl"

$staticprop

$bodygroup "Body"
{
	studio "lighthouse_stairs_top.smd"
}


$surfaceprop "wood"

$contents "solid"

$illumposition -101.496 0.024 208.725

$cdmaterials "models\props_wasteland\lighthouse\spiral_stairs\"

$cbox 0 0 0 0 0 0

$bbox -208.049 -207.962 126.4 208 4.971 291.051

$definebone "static_prop" "" 0 0 0 0 0 0 0 0 0 0 0 0

$animation "a_idle" "lighthouse_stairs_top_anims\idle.smd" {
	fps 30
}

$sequence "idle" {
	"a_idle"
	fadein 0.2
	fadeout 0.2
	fps 30
}

