// Created by Crowbar 0.56

$modelname "props_wasteland/mounted_fencing002a.mdl"

$staticprop

$bodygroup "Body"
{
	studio "mounted_fencing002a_reference.smd"
}

$lod 55
{
	replacemodel "mounted_fencing002a_reference.smd" "mounted_fencing002a_reference_lod1.smd"
}
$lod 70
{
	replacemodel "mounted_fencing002a_reference.smd" "mounted_fencing002a_reference_lod2.smd"
}
$lod 90
{
	replacemodel "mounted_fencing002a_reference.smd" "mounted_fencing002a_reference_lod3.smd"
}
$lod 110
{
	replacemodel "mounted_fencing002a_reference.smd" "mounted_fencing002a_reference_lod4.smd"
}

$surfaceprop "metal"

$contents "solid"

$illumposition 0 0 0

$cdmaterials "models\props_wasteland\"

$cbox 0 0 0 0 0 0

$bbox -18.703 -132.351 -24.62 18.703 132.351 24.62

$definebone "static_prop" "" 0 0 0 0 0 0 0 0 0 0 0 0

$animation "a_idle" "mounted_fencing002a_anims\idle.smd" {
	fps 30
}

$sequence "idle" {
	"a_idle"
	fadein 0.2
	fadeout 0.2
	fps 30
}


$collisionmodel "mounted_fencing002a_physics.smd"
{
	$mass 5
	$inertia 1
	$damping 0
	$rotdamping 0
	$rootbone " "
	$concave

}
