// Created by Crowbar 0.56

$modelname "props_wasteland/pipe02_tjoint01.mdl"

$staticprop

$bodygroup "Body"
{
	studio "pipe02_tjoint01_reference.smd"
}

$lod 30
{
	replacemodel "pipe02_tjoint01_reference.smd" "pipe02_tjoint01_reference_lod1.smd"
}
$lod 40
{
	replacemodel "pipe02_tjoint01_reference.smd" "pipe02_tjoint01_reference_lod2.smd"
}
$lod 50
{
	replacemodel "pipe02_tjoint01_reference.smd" "pipe02_tjoint01_reference_lod3.smd"
}
$lod 90
{
	replacemodel "pipe02_tjoint01_reference.smd" "pipe02_tjoint01_reference_lod4.smd"
}

$surfaceprop "metalpanel"

$contents "solid"

$illumposition -4.101 -0.001 0

$cdmaterials "models\props_wasteland\"

$cbox 0 0 0 0 0 0

$bbox -9.375 -14.036 -5.863 9.378 5.834 5.863

$definebone "static_prop" "" 0 0 0 0 0 0 0 0 0 0 0 0

$animation "a_idle" "pipe02_tjoint01_anims\idle.smd" {
	fps 30
}

$sequence "idle" {
	"a_idle"
	fadein 0.2
	fadeout 0.2
	fps 30
}


$collisionmodel "pipe02_tjoint01_physics.smd"
{
	$mass 50
	$inertia 1
	$damping 0
	$rotdamping 0
	$rootbone " "
	$concave

}
