// Created by Crowbar 0.56

$modelname "props_wasteland/pipe03_lcurve02_long.mdl"

$staticprop

$bodygroup "Body"
{
	studio "pipe03_lcurve02_long_reference.smd"
}

$lod 30
{
	replacemodel "pipe03_lcurve02_long_reference.smd" "pipe03_lcurve02_long_reference_lod1.smd"
}
$lod 40
{
	replacemodel "pipe03_lcurve02_long_reference.smd" "pipe03_lcurve02_long_reference_lod2.smd"
}
$lod 50
{
	replacemodel "pipe03_lcurve02_long_reference.smd" "pipe03_lcurve02_long_reference_lod3.smd"
}
$lod 90
{
	replacemodel "pipe03_lcurve02_long_reference.smd" "pipe03_lcurve02_long_reference_lod4.smd"
}

$surfaceprop "metalpanel"

$contents "solid"

$illumposition 25.007 -0.001 -16.984

$cdmaterials "models\props_wasteland\"

$cbox 0 0 0 0 0 0

$bbox -8.257 -23.028 -49.221 8.259 73.041 15.253

$definebone "static_prop" "" 0 0 0 0 0 0 0 0 0 0 0 0

$animation "a_idle" "pipe03_lcurve02_long_anims\idle.smd" {
	fps 30
}

$sequence "idle" {
	"a_idle"
	fadein 0.2
	fadeout 0.2
	fps 30
}


$collisionmodel "pipe03_lcurve02_long_physics.smd"
{
	$mass 50
	$inertia 1
	$damping 0
	$rotdamping 0
	$rootbone " "
	$concave

}
