// Created by Crowbar 0.56

$modelname "props_wasteland/pipe01_yjoint01.mdl"

$staticprop

$bodygroup "Body"
{
	studio "pipe01_yjoint01_reference.smd"
}

$lod 30
{
	replacemodel "pipe01_yjoint01_reference.smd" "pipe01_yjoint01_reference_lod1.smd"
}
$lod 40
{
	replacemodel "pipe01_yjoint01_reference.smd" "pipe01_yjoint01_reference_lod2.smd"
}
$lod 50
{
	replacemodel "pipe01_yjoint01_reference.smd" "pipe01_yjoint01_reference_lod3.smd"
}
$lod 90
{
	replacemodel "pipe01_yjoint01_reference.smd" "pipe01_yjoint01_reference_lod4.smd"
}

$surfaceprop "metalpanel"

$contents "solid"

$illumposition -2.435 0.001 0

$cdmaterials "models\props_wasteland\"

$cbox 0 0 0 0 0 0

$bbox -4.701 -7.798 -2.939 4.699 2.929 2.939

$definebone "static_prop" "" 0 0 0 0 0 0 0 0 0 0 0 0

$animation "a_idle" "pipe01_yjoint01_anims\idle.smd" {
	fps 30
}

$sequence "idle" {
	"a_idle"
	fadein 0.2
	fadeout 0.2
	fps 30
}


$collisionmodel "pipe01_yjoint01_physics.smd"
{
	$mass 50
	$inertia 1
	$damping 0
	$rotdamping 0
	$rootbone " "
	$concave

}
