// Created by Crowbar 0.56

$modelname "props_wasteland/pipe01_90degree01.mdl"

$staticprop

$bodygroup "Body"
{
	studio "pipe01_90degree01_reference.smd"
}

$lod 30
{
	replacemodel "pipe01_90degree01_reference.smd" "pipe01_90degree01_reference_lod1.smd"
}
$lod 40
{
	replacemodel "pipe01_90degree01_reference.smd" "pipe01_90degree01_reference_lod2.smd"
}
$lod 50
{
	replacemodel "pipe01_90degree01_reference.smd" "pipe01_90degree01_reference_lod3.smd"
}
$lod 90
{
	replacemodel "pipe01_90degree01_reference.smd" "pipe01_90degree01_reference_lod4.smd"
}

$surfaceprop "metalpanel"

$contents "solid"

$illumposition -0.698 -0.376 -0.006

$cdmaterials "models\props_wasteland\"

$cbox 0 0 0 0 0 0

$bbox -3.226 -4.303 -2.927 3.979 2.907 2.915

$definebone "static_prop" "" 0 0 0 0 0 0 0 0 0 0 0 0

$animation "a_idle" "pipe01_90degree01_anims\idle.smd" {
	fps 30
}

$sequence "idle" {
	"a_idle"
	fadein 0.2
	fadeout 0.2
	fps 30
}


$collisionmodel "pipe01_90degree01_physics.smd"
{
	$mass 50
	$inertia 1
	$damping 0
	$rotdamping 0
	$rootbone " "
	$concave

}
