// Created by Crowbar 0.56

$modelname "props_wasteland/pipe02_scurve01_short.mdl"

$staticprop

$bodygroup "Body"
{
	studio "pipe02_scurve01_short_reference.smd"
}

$lod 30
{
	replacemodel "pipe02_scurve01_short_reference.smd" "pipe02_scurve01_short_reference_lod1.smd"
}
$lod 40
{
	replacemodel "pipe02_scurve01_short_reference.smd" "pipe02_scurve01_short_reference_lod2.smd"
}
$lod 50
{
	replacemodel "pipe02_scurve01_short_reference.smd" "pipe02_scurve01_short_reference_lod3.smd"
}
$lod 90
{
	replacemodel "pipe02_scurve01_short_reference.smd" "pipe02_scurve01_short_reference_lod4.smd"
}

$surfaceprop "metalpanel"

$contents "solid"

$illumposition 1.933 7.9 -3.16

$cdmaterials "models\props_wasteland\"

$cbox 0 0 0 0 0 0

$bbox -19.932 -14.066 -14.538 4.132 17.931 8.219

$definebone "static_prop" "" 0 0 0 0 0 0 0 0 0 0 0 0

$animation "a_idle" "pipe02_scurve01_short_anims\idle.smd" {
	fps 30
}

$sequence "idle" {
	"a_idle"
	fadein 0.2
	fadeout 0.2
	fps 30
}


$collisionmodel "pipe02_scurve01_short_physics.smd"
{
	$mass 50
	$inertia 1
	$damping 0
	$rotdamping 0
	$rootbone " "
	$concave

}
