// Created by Crowbar 0.56

$modelname "props_wasteland/pipe03_yjoint02.mdl"

$staticprop

$bodygroup "Body"
{
	studio "pipe03_yjoint02_reference.smd"
}

$lod 35
{
	replacemodel "pipe03_yjoint02_reference.smd" "pipe03_yjoint02_reference_lod1.smd"
}
$lod 80
{
	replacemodel "pipe03_yjoint02_reference.smd" "pipe03_yjoint02_reference_lod2.smd"
}
$lod 180
{
	replacemodel "pipe03_yjoint02_reference.smd" "pipe03_yjoint02_reference_lod3.smd"
}

$surfaceprop "metalpanel"

$contents "solid"

$illumposition 3.384 0.019 0

$cdmaterials "models\props_wasteland\"

$cbox 0 0 0 0 0 0

$bbox -18.787 -13.089 -11.725 18.749 19.858 11.725

$definebone "static_prop" "" 0 0 0 0 0 0 0 0 0 0 0 0

$animation "a_idle" "pipe03_yjoint02_anims\idle.smd" {
	fps 30
}

$sequence "idle" {
	"a_idle"
	fadein 0.2
	fadeout 0.2
	fps 30
}


$collisionmodel "pipe03_yjoint02_physics.smd"
{
	$mass 50
	$inertia 1
	$damping 0
	$rotdamping 0
	$rootbone " "
	$concave

}
