// Created by Crowbar 0.56

$modelname "props_wasteland/prison_sink001a.mdl"

$staticprop

$bodygroup "Body"
{
	studio "prison_sink001a_reference.smd"
}

$lod 15
{
	replacemodel "prison_sink001a_reference.smd" "prison_sink001a_reference_lod1.smd"
}
$lod 20
{
	replacemodel "prison_sink001a_reference.smd" "prison_sink001a_reference_lod2.smd"
}
$lod 25
{
	replacemodel "prison_sink001a_reference.smd" "prison_sink001a_reference_lod3.smd"
}
$lod 35
{
	replacemodel "prison_sink001a_reference.smd" "prison_sink001a_reference_lod4.smd"
}

$surfaceprop "plaster"

$contents "solid"

$illumposition 0 0 0

$cdmaterials "models\props_wasteland\"

$cbox 0 0 0 0 0 0

$bbox -12.379 -14.045 -12.711 12.379 14.045 12.711

$definebone "static_prop" "" 0 0 0 0 0 0 0 0 0 0 0 0

$animation "a_idle" "prison_sink001a_anims\idle.smd" {
	fps 30
}

$sequence "idle" {
	"a_idle"
	fadein 0.2
	fadeout 0.2
	fps 30
}


$collisionmodel "prison_sink001a_physics.smd"
{
	$mass 150
	$inertia 1
	$damping 0
	$rotdamping 0
	$rootbone " "
	$concave

}
