// Created by Crowbar 0.56

$modelname "props_wasteland/prison_lamp001a.mdl"

$staticprop

$bodygroup "Body"
{
	studio "prison_lamp001a_reference.smd"
}


$surfaceprop "metal"

$contents "solid"

$illumposition 0 0 0.959

$cdmaterials "models\props_wasteland\"

$cbox 0 0 0 0 0 0

$bbox -10.687 -10.687 -10.841 10.687 10.687 12.759

$definebone "static_prop" "" 0 0 0 0 0 0 0 0 0 0 0 0

$animation "a_idle" "prison_lamp001a_anims\idle.smd" {
	fps 30
}

$sequence "idle" {
	"a_idle"
	fadein 0.2
	fadeout 0.2
	fps 30
}


$collisionmodel "prison_lamp001a_physics.smd"
{
	$mass 35
	$inertia 1
	$damping 0
	$rotdamping 0
	$rootbone " "
	$concave

}
