// Created by Crowbar 0.56

$modelname "props_wasteland/prison_sinkchunk001a.mdl"

$staticprop

$bodygroup "Body"
{
	studio "prison_sinkchunk001a_reference.smd"
}


$surfaceprop "metal"

$contents "solid"

$illumposition -0.781 3.786 -4.862

$cdmaterials "models\props_wasteland\"

$cbox 0 0 0 0 0 0

$bbox -11.209 -2.994 -12.67 3.638 1.433 2.946

$definebone "static_prop" "" 0 0 0 0 0 0 0 0 0 0 0 0

$animation "a_idle" "prison_sinkchunk001a_anims\idle.smd" {
	fps 30
}

$sequence "idle" {
	"a_idle"
	fadein 0.2
	fadeout 0.2
	fps 30
}


$collisionmodel "prison_sinkchunk001a_physics.smd"
{
	$mass 1.889463
	$inertia 1
	$damping 0
	$rotdamping 0
	$rootbone " "
	$concave

}
