// Created by Crowbar 0.56

$modelname "props_wasteland/prison_securitydoorframe001a.mdl"

$staticprop

$bodygroup "Body"
{
	studio "prison_securitydoorframe001a_reference.smd"
}


$surfaceprop "metal"

$contents "solid"

$illumposition 0 0 0

$cdmaterials "models\props_wasteland\"

$cbox 0 0 0 0 0 0

$bbox -6.554 -28.473 -56.199 6.554 28.473 56.199

$definebone "static_prop" "" 0 0 0 0 0 0 0 0 0 0 0 0

$animation "a_idle" "prison_securitydoorframe001a_anims\idle.smd" {
	fps 30
}

$sequence "idle" {
	"a_idle"
	fadein 0.2
	fadeout 0.2
	fps 30
}


$collisionmodel "prison_securitydoorframe001a_physics.smd"
{
	$mass 235
	$inertia 1
	$damping 0
	$rotdamping 0
	$rootbone " "
	$concave

}
