// Created by Crowbar 0.56

$modelname "props_wasteland/prison_wallpile002a.mdl"

$staticprop

$bodygroup "Body"
{
	studio "prison_wallpile002a_reference.smd"
}

$lod 15
{
	replacemodel "prison_wallpile002a_reference.smd" "prison_wallpile002a_reference_lod1.smd"
}
$lod 25
{
	replacemodel "prison_wallpile002a_reference.smd" "prison_wallpile002a_reference_lod2.smd"
}
$lod 30
{
	replacemodel "prison_wallpile002a_reference.smd" "prison_wallpile002a_reference_lod3.smd"
}
$lod 35
{
	replacemodel "prison_wallpile002a_reference.smd" "prison_wallpile002a_reference_lod4.smd"
}

$surfaceprop "plaster"

$contents "solid"

$illumposition 0.068 0.107 0.106

$cdmaterials "models\props_wasteland\"

$cbox 0 0 0 0 0 0

$bbox -16.19 -33.698 -3.489 15.977 33.833 3.702

$definebone "static_prop" "" 0 0 0 0 0 0 0 0 0 0 0 0

$animation "a_idle" "prison_wallpile002a_anims\idle.smd" {
	fps 30
}

$sequence "idle" {
	"a_idle"
	fadein 0.2
	fadeout 0.2
	fps 30
}


$collisionmodel "prison_wallpile002a_physics.smd"
{
	$mass 150
	$inertia 1
	$damping 0
	$rotdamping 0
	$rootbone " "
	$concave

}
