// Created by Crowbar 0.56

$modelname "props_wasteland/prison_sinkchunk001b.mdl"

$staticprop

$bodygroup "Body"
{
	studio "prison_sinkchunk001b_reference.smd"
}


$surfaceprop "metal"

$contents "solid"

$illumposition -0.336 -1.659 6.03

$cdmaterials "models\props_wasteland\"

$cbox 0 0 0 0 0 0

$bbox -5.167 -7.975 2.364 8.486 7.303 9.697

$definebone "static_prop" "" 0 0 0 0 0 0 0 0 0 0 0 0

$animation "a_idle" "prison_sinkchunk001b_anims\idle.smd" {
	fps 30
}

$sequence "idle" {
	"a_idle"
	fadein 0.2
	fadeout 0.2
	fps 30
}


$collisionmodel "prison_sinkchunk001b_physics.smd"
{
	$mass 2.746703
	$inertia 1
	$damping 0
	$rotdamping 0
	$rootbone " "
	$concave

}
