// Created by Crowbar 0.56

$modelname "props_wasteland/prison_flourescentlight002a.mdl"

$staticprop

$bodygroup "Body"
{
	studio "prison_flourescentlight002a_reference.smd"
}

$lod 30
{
	replacemodel "prison_flourescentlight002a_reference.smd" "prison_flourescentlight002a_reference_lod1.smd"
}
$lod 40
{
	replacemodel "prison_flourescentlight002a_reference.smd" "prison_flourescentlight002a_reference_lod2.smd"
}
$lod 50
{
	replacemodel "prison_flourescentlight002a_reference.smd" "prison_flourescentlight002a_reference_lod3.smd"
}
$lod 60
{
	replacemodel "prison_flourescentlight002a_reference.smd" "prison_flourescentlight002a_reference_lod4.smd"
}

$surfaceprop "metal"

$contents "solid"

$illumposition 0 0 0

$cdmaterials "models\props_wasteland\"

$texturegroup "skinfamilies"
{
	{ "prison_objects004"    }
	{ "prison_objects004_on" }
}

$cbox 0 0 0 0 0 0

$bbox -6.223 -31.138 -32.472 6.223 31.138 32.472

$definebone "static_prop" "" 0 0 0 0 0 0 0 0 0 0 0 0

$animation "a_idle" "prison_flourescentlight002a_anims\idle.smd" {
	fps 30
}

$sequence "idle" {
	"a_idle"
	fadein 0.2
	fadeout 0.2
	fps 30
}


$collisionmodel "prison_flourescentlight002a_physics.smd"
{
	$mass 20
	$inertia 1
	$damping 0
	$rotdamping 0
	$rootbone " "
	$concave

}
