// Created by Crowbar 0.56

$modelname "props_wasteland/prison_sinkchunk001h.mdl"

$staticprop

$bodygroup "Body"
{
	studio "prison_sinkchunk001h_reference.smd"
}


$surfaceprop "metal"

$contents "solid"

$illumposition -6.159 -7.453 6.572

$cdmaterials "models\props_wasteland\"

$cbox 0 0 0 0 0 0

$bbox 3.063 -11.888 3.264 11.843 -0.429 9.879

$definebone "static_prop" "" 0 0 0 0 0 0 0 0 0 0 0 0

$animation "a_idle" "prison_sinkchunk001h_anims\idle.smd" {
	fps 30
}

$sequence "idle" {
	"a_idle"
	fadein 0.2
	fadeout 0.2
	fps 30
}


$collisionmodel "prison_sinkchunk001h_physics.smd"
{
	$mass 0.845148
	$inertia 1
	$damping 0
	$rotdamping 0
	$rootbone " "
	$concave

}
