// Created by Crowbar 0.56

$modelname "props_wasteland/prison_lamp001c.mdl"

$staticprop

$bodygroup "Body"
{
	studio "prison_lamp001c_reference.smd"
}

$lod 20
{
	replacemodel "prison_lamp001c_reference.smd" "prison_lamp001c_reference_lod1.smd"
}
$lod 40
{
	replacemodel "prison_lamp001c_reference.smd" "prison_lamp001c_reference_lod2.smd"
}
$lod 65
{
	replacemodel "prison_lamp001c_reference.smd" "prison_lamp001c_reference_lod3.smd"
}
$lod 80
{
	replacemodel "prison_lamp001c_reference.smd" "prison_lamp001c_reference_lod4.smd"
}

$surfaceprop "metal"

$contents "solid"

$illumposition 0 0 0

$cdmaterials "models\props_wasteland\"

$cbox 0 0 0 0 0 0

$bbox -9.988 -9.988 -5.83 9.988 9.988 5.83

$definebone "static_prop" "" 0 0 0 0 0 0 0 0 0 0 0 0

$animation "a_idle" "prison_lamp001c_anims\idle.smd" {
	fps 30
}

$sequence "idle" {
	"a_idle"
	fadein 0.2
	fadeout 0.2
	fps 30
}


$collisionmodel "prison_lamp001c_physics.smd"
{
	$mass 35
	$inertia 1
	$damping 0
	$rotdamping 0
	$rootbone " "
	$concave

}
