// Created by Crowbar 0.56

$modelname "props_wasteland/prison_gate001a.mdl"

$staticprop

$bodygroup "Body"
{
	studio "prison_gate001a_reference.smd"
}

$lod 50
{
	replacemodel "prison_gate001a_reference.smd" "prison_gate001a_reference_lod1.smd"
}
$lod 70
{
	replacemodel "prison_gate001a_reference.smd" "prison_gate001a_reference_lod2.smd"
}
$lod 90
{
	replacemodel "prison_gate001a_reference.smd" "prison_gate001a_reference_lod3.smd"
}
$lod 120
{
	replacemodel "prison_gate001a_reference.smd" "prison_gate001a_reference_lod4.smd"
}

$surfaceprop "metal"

$contents "solid"

$illumposition 0 0 0

$cdmaterials "models\props_wasteland\"

$cbox 0 0 0 0 0 0

$bbox -7.022 -96.166 -62.042 7.021 96.166 62.042

$definebone "static_prop" "" 0 0 0 0 0 0 0 0 0 0 0 0

$animation "a_idle" "prison_gate001a_anims\idle.smd" {
	fps 30
}

$sequence "idle" {
	"a_idle"
	fadein 0.2
	fadeout 0.2
	fps 30
}


$collisionmodel "prison_gate001a_physics.smd"
{
	$mass 3500
	$inertia 1
	$damping 0
	$rotdamping 0
	$rootbone " "
	$concave

}
