// Created by Crowbar 0.56

$modelname "props_wasteland/prison_heater001a.mdl"

$staticprop

$bodygroup "Body"
{
	studio "prison_heater001a_reference.smd"
}

$lod 20
{
	replacemodel "prison_heater001a_reference.smd" "prison_heater001a_reference_lod1.smd"
}
$lod 25
{
	replacemodel "prison_heater001a_reference.smd" "prison_heater001a_reference_lod2.smd"
}
$lod 30
{
	replacemodel "prison_heater001a_reference.smd" "prison_heater001a_reference_lod3.smd"
}
$lod 35
{
	replacemodel "prison_heater001a_reference.smd" "prison_heater001a_reference_lod4.smd"
}

$surfaceprop "metal"

$contents "solid"

$illumposition 0 0 0

$cdmaterials "models\props_wasteland\"

$cbox 0 0 0 0 0 0

$bbox -8.696 -20.701 -19.069 8.696 20.701 19.069

$definebone "static_prop" "" 0 0 0 0 0 0 0 0 0 0 0 0

$animation "a_idle" "prison_heater001a_anims\idle.smd" {
	fps 30
}

$sequence "idle" {
	"a_idle"
	fadein 0.2
	fadeout 0.2
	fps 30
}


$collisionmodel "prison_heater001a_physics.smd"
{
	$mass 150
	$inertia 1
	$damping 0
	$rotdamping 0
	$rootbone " "
	$concave

}
