// Created by Crowbar 0.56

$modelname "props_wasteland/rockcliff06b.mdl"

$staticprop

$bodygroup "Body"
{
	studio "rockcliff06b_reference.smd"
}

$lod 100
{
	replacemodel "rockcliff06b_reference.smd" "rockcliff06b_reference_lod1.smd"
}
$lod 150
{
	replacemodel "rockcliff06b_reference.smd" "rockcliff06b_reference_lod2.smd"
}
$lod 200
{
	replacemodel "rockcliff06b_reference.smd" "rockcliff06b_reference_lod3.smd"
}
$lod 250
{
	replacemodel "rockcliff06b_reference.smd" "rockcliff06b_reference_lod4.smd"
}

$surfaceprop "boulder"

$contents "solid"

$illumposition 0 0 0

$cdmaterials "models\props_wasteland\"

$texturegroup "skinfamilies"
{
	{ "rockcliff01a" }
	{ "rockcliff03a" }
}

$cbox 0 0 0 0 0 0

$bbox -51.942 -53.422 -150.142 51.942 53.422 150.142

$definebone "static_prop" "" 0 0 0 0 0 0 0 0 0 0 0 0

$animation "a_idle" "rockcliff06b_anims\idle.smd" {
	fps 5
	loop
}

$sequence "idle" {
	"a_idle"
	fadein 0.2
	fadeout 0.2
	fps 5
	loop
}


$collisionmodel "rockcliff06b_physics.smd"
{
	$mass 150
	$inertia 1
	$damping 0
	$rotdamping 0
	$rootbone " "
	$concave

}
