// Created by Crowbar 0.56

$modelname "props_wasteland/rockcliff_cluster01b.mdl"

$staticprop

$bodygroup "Body"
{
	studio "rockcliff_cluster01b_reference.smd"
}

$lod 90
{
	replacemodel "rockcliff_cluster01b_reference.smd" "rockcliff_cluster01b_reference_lod1.smd"
}
$lod 180
{
	replacemodel "rockcliff_cluster01b_reference.smd" "rockcliff_cluster01b_reference_lod2.smd"
}

$surfaceprop "boulder"

$contents "solid"

$illumposition 4.041 -62.877 -3.761

$cdmaterials "models\props_wasteland\"

$texturegroup "skinfamilies"
{
	{ "rockcliff02a" }
	{ "rockcliff02b" }
	{ "rockcliff02c" }
}

$cbox 0 0 0 0 0 0

$bbox -312.281 -218.535 -267.122 438.035 226.616 259.6

$definebone "static_prop" "" 0 0 0 0 0 0 0 0 0 0 0 0

$animation "a_idle" "rockcliff_cluster01b_anims\idle.smd" {
	fps 30
}

$sequence "idle" {
	"a_idle"
	fadein 0.2
	fadeout 0.2
	fps 30
}


$collisionmodel "rockcliff_cluster01b_physics.smd"
{
	$mass 100
	$inertia 1
	$damping 0
	$rotdamping 0
	$rootbone " "
	$concave

}
