// Created by Crowbar 0.56

$modelname "props_wasteland/rockcliff06f.mdl"

$staticprop

$bodygroup "Body"
{
	studio "rockcliff06f_reference.smd"
}

$lod 200
{
	replacemodel "rockcliff06f_reference.smd" "rockcliff06f_reference_lod1.smd"
}
$lod 350
{
	replacemodel "rockcliff06f_reference.smd" "rockcliff06f_reference_lod2.smd"
}
$lod 1000
{
	replacemodel "rockcliff06f_reference.smd" "rockcliff06f_reference_lod3.smd"
}
$lod 1200
{
	replacemodel "rockcliff06f_reference.smd" "rockcliff06f_reference_lod4.smd"
}

$surfaceprop "boulder"

$contents "solid"

$illumposition 0 0 0

$cdmaterials "models\props_wasteland\"

$texturegroup "skinfamilies"
{
	{ "rockcliff01a" }
	{ "rockcliff03a" }
}

$cbox 0 0 0 0 0 0

$bbox -94.156 -96.045 -250.904 94.156 96.045 250.904

$definebone "static_prop" "" 0 0 0 0 0 0 0 0 0 0 0 0

$animation "a_idle" "rockcliff06f_anims\idle.smd" {
	fps 5
	loop
}

$sequence "idle" {
	"a_idle"
	fadein 0.2
	fadeout 0.2
	fps 5
	loop
}


$collisionmodel "rockcliff06f_physics.smd"
{
	$mass 310080.5
	$inertia 1
	$damping 0
	$rotdamping 0
	$rootbone " "

}
