// Created by Crowbar 0.56

$modelname "props_wasteland/rockcliff08a.mdl"

$staticprop

$bodygroup "Body"
{
	studio "rockcliff08a_reference.smd"
}

$lod 200
{
	replacemodel "rockcliff08a_reference.smd" "rockcliff08a_reference_lod1.smd"
}
$lod 250
{
	replacemodel "rockcliff08a_reference.smd" "rockcliff08a_reference_lod2.smd"
}
$lod 300
{
	replacemodel "rockcliff08a_reference.smd" "rockcliff08a_reference_lod3.smd"
}
$lod 450
{
	replacemodel "rockcliff08a_reference.smd" "rockcliff08a_reference_lod4.smd"
}

$surfaceprop "boulder"

$contents "solid"

$illumposition 0 0 0

$cdmaterials "models\props_wasteland\"

$texturegroup "skinfamilies"
{
	{ "rockcliff02a" }
	{ "rockcliff04a" }
}

$cbox 0 0 0 0 0 0

$bbox -511.506 -141.256 -268.1 511.506 141.256 268.1

$definebone "static_prop" "" 0 0 0 0 0 0 0 0 0 0 0 0

$animation "a_idle" "rockcliff08a_anims\idle.smd" {
	fps 5
	loop
}

$sequence "idle" {
	"a_idle"
	fadein 0.2
	fadeout 0.2
	fps 5
	loop
}


$collisionmodel "rockcliff08a_physics.smd"
{
	$mass 150
	$inertia 1
	$damping 0
	$rotdamping 0
	$rootbone " "
	$concave

}
