// Created by Crowbar 0.56

$modelname "props_wasteland/rockgranite01c.mdl"

$staticprop

$bodygroup "Body"
{
	studio "rockgranite01c.smd"
}


$surfaceprop "boulder"

$contents "solid"

$illumposition 4.943 9.343 20.76

$cdmaterials "models\props_wasteland\"

$cbox 0 0 0 0 0 0

$bbox -88.228 -103.872 -18.455 69.542 113.759 59.975

$definebone "static_prop" "" 0 0 0 0 0 0 0 0 0 0 0 0

$animation "a_idle" "rockgranite01c_anims\idle.smd" {
	fps 5
	loop
}

$sequence "idle" {
	"a_idle"
	fadein 0.2
	fadeout 0.2
	fps 5
	loop
}


$collisionmodel "rockgranite01c_physics.smd"
{
	$mass 57623.25
	$inertia 1
	$damping 0
	$rotdamping 0
	$rootbone " "

}
