// Created by Crowbar 0.56

$modelname "props_wasteland/rocksground02c.mdl"

$staticprop

$bodygroup "Body"
{
	studio "rocksground02c.smd"
}


$surfaceprop "boulder"

$contents "solid"

$illumposition 0 0 0

$cdmaterials "models\props_wasteland\"

$cbox 0 0 0 0 0 0

$bbox -1.36 -0.813 -0.434 1.36 0.813 0.434

$definebone "static_prop" "" 0 0 0 0 0 0 0 0 0 0 0 0

$animation "a_idle" "rocksground02c_anims\idle.smd" {
	fps 5
	loop
}

$sequence "idle" {
	"a_idle"
	fadein 0.2
	fadeout 0.2
	fps 5
	loop
}

