// Created by Crowbar 0.56

$modelname "props_wasteland/rockgranite03a.mdl"

$staticprop

$bodygroup "Body"
{
	studio "rockgranite03a.smd"
}


$surfaceprop "boulder"

$contents "solid"

$illumposition -0.421 1.663 -1.034

$cdmaterials "models\props_wasteland\"

$cbox 0 0 0 0 0 0

$bbox -18.743 -17.462 -23.886 15.418 16.62 21.819

$definebone "static_prop" "" 0 0 0 0 0 0 0 0 0 0 0 0

$animation "a_idle" "rockgranite03a_anims\idle.smd" {
	fps 5
	loop
}

$sequence "idle" {
	"a_idle"
	fadein 0.2
	fadeout 0.2
	fps 5
	loop
}


$collisionmodel "rockgranite03a_physics.smd"
{
	$mass 827.5081
	$inertia 1
	$damping 0
	$rotdamping 0
	$rootbone " "

}
