// Created by Crowbar 0.56

$modelname "props_wasteland/rockcliff01a.mdl"

$staticprop

$bodygroup "Body"
{
	studio "rockcliff01a_reference.smd"
}

$lod 100
{
	replacemodel "rockcliff01a_reference.smd" "rockcliff01a_reference_lod1.smd"
}
$lod 150
{
	replacemodel "rockcliff01a_reference.smd" "rockcliff01a_reference_lod2.smd"
}
$lod 200
{
	replacemodel "rockcliff01a_reference.smd" "rockcliff01a_reference_lod3.smd"
}
$lod 250
{
	replacemodel "rockcliff01a_reference.smd" "rockcliff01a_reference_lod4.smd"
}

$surfaceprop "boulder"

$contents "solid"

$illumposition 0 0 0

$cdmaterials "models\props_wasteland\"

$texturegroup "skinfamilies"
{
	{ "rockcliff02a" }
	{ "rockcliff04a" }
}

$cbox 0 0 0 0 0 0

$bbox -28.505 -30.601 -80.744 28.505 30.601 80.744

$definebone "static_prop" "" 0 0 0 0 0 0 0 0 0 0 0 0

$animation "a_idle" "rockcliff01a_anims\idle.smd" {
	fps 5
	loop
}

$sequence "idle" {
	"a_idle"
	fadein 0.2
	fadeout 0.2
	fps 5
	loop
}


$collisionmodel "rockcliff01a_physics.smd"
{
	$mass 150
	$inertia 1
	$damping 0
	$rotdamping 0
	$rootbone " "
	$concave

}
