// Created by Crowbar 0.56

$modelname "props_wasteland/sub_rib1_brace.mdl"

$staticprop

$bodygroup "Body"
{
	studio "sub_rib1_brace_reference.smd"
}


$surfaceprop "metal"

$contents "solid"

$illumposition 0.176 3.692 -47.656

$cdmaterials "models\props_wasteland\"

$cbox 0 0 0 0 0 0

$bbox -225.672 -3.824 -297.656 218.288 4.176 202.344

$definebone "static_prop" "" 0 0 0 0 0 0 0 0 0 0 0 0

$animation "a_idle" "sub_rib1_brace_anims\idle.smd" {
	fps 30
}

$sequence "idle" {
	"a_idle"
	fadein 0.2
	fadeout 0.2
	fps 30
}


$collisionmodel "sub_rib1_brace_physics.smd"
{
	$mass 40
	$inertia 1
	$damping 0
	$rotdamping 0
	$rootbone " "
	$concave

}
