// Created by Crowbar 0.56

$modelname "props_wasteland/sub_rib2_left.mdl"

$staticprop

$bodygroup "Body"
{
	studio "sub_rib2_left_reference.smd"
}


$surfaceprop "metal"

$contents "solid"

$illumposition 0.786 6.107 9.957

$cdmaterials "models\props_wasteland\"

$cbox 0 0 0 0 0 0

$bbox -44.682 -3.332 -166.56 32.468 4.903 186.475

$definebone "static_prop" "" 0 0 0 0 0 0 0 0 0 0 0 0

$animation "a_idle" "sub_rib2_left_anims\idle.smd" {
	fps 30
}

$sequence "idle" {
	"a_idle"
	fadein 0.2
	fadeout 0.2
	fps 30
}


$collisionmodel "sub_rib2_left_physics.smd"
{
	$mass 50
	$inertia 1
	$damping 0
	$rotdamping 0
	$rootbone " "
	$concave

}
