// Created by Crowbar 0.56

$modelname "props_wasteland/watertower01.mdl"

$staticprop

$bodygroup "Body"
{
	studio "watertower01_reference.smd"
}

$lod 200
{
	replacemodel "watertower01_reference.smd" "watertower01_reference_lod1.smd"
}
$lod 300
{
	replacemodel "watertower01_reference.smd" "watertower01_reference_lod2.smd"
}
$lod 400
{
	replacemodel "watertower01_reference.smd" "watertower01_reference_lod3.smd"
}
$lod 500
{
	replacemodel "watertower01_reference.smd" "watertower01_reference_lod4.smd"
}

$surfaceprop "metal"

$contents "solid"

$illumposition 1.783 0.48 0

$cdmaterials "models\props_wasteland\"

$cbox 0 0 0 0 0 0

$bbox -185.445 -182.923 -379.236 184.485 186.49 379.236

$definebone "static_prop" "" 0 0 0 0 0 0 0 0 0 0 0 0

$animation "a_idle" "watertower01_anims\idle.smd" {
	fps 30
}

$sequence "idle" {
	"a_idle"
	fadein 0.2
	fadeout 0.2
	fps 30
}


$collisionmodel "watertower01_physics.smd"
{
	$mass 20
	$inertia 1
	$damping 0
	$rotdamping 0
	$rootbone " "
	$concave

}
