// Choreo version 1
actor "Alyx"
{
  channel "audio"
  {
    event speak "alyx_snapout"
    {
      time 5.783333 9.139275
      param "E3_lab.alyx_snapout"
      param2 "90dB"
      fixedlength
      tags
      {
        "Gor1" 0.038737
        "gordon2" 0.504776
        "snap" 0.615029
        "aa" 0.664493
        "ou" 0.721705
        "t" 0.852816
      }
    }
    event speak "alyx_staringagain"
    {
      time 9.966666 11.545170
      param "E3_lab.alyx_staringagain"
      param2 "90dB"
      fixedlength
      tags
      {
        "you're" 0.115299
        "st" 0.292682
        "me" 0.563825
        "again" 0.741208
      }
    }
    event speak "clank"
    {
      time 12.300000 12.676146
      param "E3_lab.metal6"
      param2 "60dB"
      event_ramp
      {
        0.0263 0.1700
        0.1655 0.1700
        0.3047 0.1700
      }
      fixedlength
    }
    event speak "alyx_areyousure"
    {
      time 15.400000 17.776031
      param "E3_lab.alyx_areyousure"
      param2 "90dB"
      fixedlength
      tags
      {
        "sure" 0.188550
        "swap" 0.583326
        "polarizer" 0.777767
      }
    }
  }
  channel "Lookat"
  {
    event lookat "glance"
    {
      time 3.200000 4.416667
      param "!player"
      event_ramp
      {
        0.7057 0.1100
        0.7178 0.1100
        0.7300 0.1100
      }
    }
    event lookat "K2"
    {
      time 13.383333 25.549999
      param "kleiner"
      event_ramp
      {
        0.0333 0.0185
        0.2167 0.0556
        0.3833 0.1000
        0.8333 0.3222
        1.6233 0.7852
        1.8950 0.8630
        2.1667 0.9000
        4.5925 0.9222
        11.3156 0.9296
        11.3905 0.9222
      }
      pitch "-9"
      yaw "100"
    }
  }
  channel "lookat2"
  {
    event lookat "a_lookit_g1"
    {
      time 3.983333 14.250000
      param "!player"
      event_ramp
      {
        1.0000 0.5700
        2.5167 0.7222
        6.4906 0.7959
        8.0000 0.7732
        8.1689 0.7593
        9.3556 0.2702
        9.5222 0.1809
        9.9255 0.0000
        10.2156 0.0000
      }
    }
    event lookat "self1"
    {
      time 0.000000 4.583333
      param "!self"
      event_ramp
      {
        0.0000 1.0000
        3.0333 0.9963
      }
    }
    event lookat "self2"
    {
      time 24.666666 27.000000
      param "!self"
      event_ramp
      {
        0.3000 1.0000
        2.3333 0.9926
      }
    }
  }
  channel "posture"
  {
    event sequence "posture01"
    {
      time 0.016667 14.450000
      param "posture01"
      event_ramp
      {
        0.0000 1.0000
        6.6150 1.0000
        14.1700 1.0000
      }
    }
    event sequence "trans_pos1_pos3"
    {
      time 14.083333 16.083332
      param "pos01_pos03_tran"
      event_ramp
      {
        0.4200 1.0000
        1.1500 1.0000
        1.8800 1.0000
      }
      fixedlength
    }
    event sequence "posture05"
    {
      time 15.300000 27.000000
      param "posture05"
      event_ramp
      {
        0.7020 1.0000
        6.0255 1.0000
        11.2917 0.9926
        11.7000 0.0000
      }
    }
  }
  channel "pose"
  {
    event sequence "armpose1"
    {
      time 13.133333 22.500000
      param "armpose05"
      event_ramp
      {
        2.2480 0.3400
        5.4795 0.3400
        8.7110 0.3400
      }
    }
  }
  channel "gesture"
  {
    event gesture "hairbrush"
    {
      time 0.000000 8.833333
      param "armpose06"
      event_ramp
      {
        0.0000 1.0000
        3.1833 0.9963
        4.2210 0.9703
        6.2500 0.9071
        6.6500 0.8885
        7.2286 0.7955
        8.5667 0.0558
      }
      absolutetags playback_time
      {
        "touch hair" 0.152510
        "end touch" 0.453855
        "hold" 0.650462
      }
      absolutetags shifted_time
      {
        "touch hair" 0.429448
        "end touch" 0.721909
        "hold" 1.000000
      }
      sequenceduration 5.000000
    }
    event gesture "swap_polarizer"
    {
      time 14.116667 18.566668
      param "gesture01"
      event_ramp
      {
        0.0000 1.0000
        1.8913 1.0000
        3.7825 1.0000
      }
      absolutetags playback_time
      {
        "beginhold" 0.092084
        "apex" 0.382068
        "accent" 0.399838
        "followthru" 0.419225
        "apex2" 0.685784
        "accent2" 0.705170
      }
      absolutetags shifted_time
      {
        "beginhold" 0.025040
        "apex" 0.287790
        "accent" 0.319046
        "followthru" 0.352443
        "apex2" 0.608397
        "accent2" 0.651199
      }
      sequenceduration 4.000000
    }
  }
  channel "head_body"
  {
    event flexanimation "headbody1"
    {
      time 0.000000 14.833333
      param ""
      event_ramp
      {
        0.0000 0.9963
        13.8401 0.9889
        14.3401 0.9815
      }
      flextimingtags
      {
        "1" 0.279145 1
        "2" 0.389673 1
        "lock3" 0.434371 1
        "bang" 0.874324 1
      }
      flexanimations samples_use_time
      {
        "head_rightleft"         range 55.0 -55.0        
        {
          0.9467 0.5000
          0.9649 0.5000
          1.0969 0.5000
          1.1015 0.5000
          1.3520 0.5000
          1.6809 0.5000
          4.5792 0.5000
          4.9374 0.5000
          5.6634 0.5000
          5.9800 0.5000
          6.3634 0.5000
          7.3497 0.5000
          7.5800 0.5200
          7.6800 0.5200
          8.0634 0.5061
          8.2300 0.5567
          8.3967 0.5320
          8.6300 0.5544
          9.6134 0.5568
          9.9300 0.5301
          10.2134 0.5368
          11.1300 0.5700
          12.1167 0.5700
          12.3167 0.5663
          12.9667 0.5600
          13.5667 0.5478
          14.1833 0.5100
        }
        "head_updown"         range 35.0 -30.0        
        {
          0.9467 0.5385
          0.9649 0.5385
          1.0969 0.5385
          1.1015 0.5385
          1.3520 0.5385
          1.6809 0.5385
          4.5800 0.4985
          4.9300 0.4785
          5.5800 0.5085
          5.7467 0.5400
          5.8134 0.5600
          5.9800 0.5200
          6.0967 0.5000
          6.3634 0.5285
          7.3467 0.6059
          7.5800 0.5300
          7.6967 0.5000
          7.8800 0.5600
          8.0833 0.5468
          8.2000 0.4874
          8.3333 0.4618
          8.6333 0.4287
          9.6167 0.4630
          9.9333 0.5471
          10.2667 0.5600
          10.4500 0.4600
          10.5500 0.4400
          10.7667 0.5008
          10.9500 0.5100
          11.1167 0.4800
          11.2667 0.4300
          12.2333 0.4173
          12.4000 0.4000
          12.4667 0.4200
          12.5667 0.3700
          12.6167 0.3900
          12.7000 0.4600
          12.8000 0.5100
          13.6000 0.5034
          13.7333 0.4700
          13.9000 0.5000
          14.1000 0.5800
          14.3833 0.5885
        }
        "head_tilt"         range 18.0 -18.0        
        {
          1.0967 0.7100
          1.3467 0.8400
          1.6800 0.8787
          4.8967 0.8700
          5.1000 0.8600
          5.3333 0.8091
          5.6634 0.6924
          5.8467 0.7200
          5.9800 0.7800
          6.0634 0.8200
          6.1634 0.8200
          6.3634 0.7806
          7.3497 0.6814
          7.5800 0.7500
          7.6967 0.7600
          8.0786 0.7004
          8.1940 0.7974
          8.3775 0.8137
          8.6345 0.8160
          9.6134 0.8061
          9.9300 0.7699
          10.2134 0.6500
          10.4467 0.3500
          10.7634 0.3858
          10.9634 0.3900
          11.1134 0.3700
          11.2634 0.3400
          12.2333 0.3305
          12.3500 0.3000
          12.4000 0.3090
          12.5333 0.4000
          12.7167 0.5100
          13.0167 0.5400
          13.4333 0.5200
          13.6000 0.5200
          13.8333 0.7000
          13.9667 0.7900
          14.1667 0.8400
          14.4167 0.8400
          14.6833 0.7900
          14.7500 0.7206
        }
        "move_rightleft"         range 6.0 -6.0        
        {
          0.9467 0.5000
          0.9649 0.5000
          1.0969 0.5000
          1.1015 0.5000
          1.3520 0.5000
          1.6809 0.5000
          4.5792 0.5000
          4.9374 0.5000
          5.7660 0.5000
          6.0308 0.5000
          6.4425 0.5000
          7.3497 0.5000
          7.6171 0.5000
          8.0786 0.5000
          8.1940 0.5000
          8.3775 0.5000
          8.6345 0.5000
          9.7200 0.5000
          9.9245 0.5000
          10.2549 0.5000
          10.7636 0.5000
          11.1149 0.5000
          12.2000 0.5000
          12.3667 0.5000
          12.5667 0.5000
          12.9661 0.5000
          13.1391 0.5000
          13.4275 0.5000
          13.9257 0.5000
        }
        "move_forwardback"         range 6.0 -10.0        
        {
          0.9467 0.3750
          0.9649 0.3750
          1.0969 0.3750
          1.1015 0.3750
          1.3520 0.3750
          1.6809 0.3750
          4.5792 0.3750
          4.9374 0.3750
          5.7660 0.3750
          6.0308 0.3750
          6.4425 0.3750
          7.3497 0.3750
          7.6171 0.3750
          8.0786 0.3750
          8.1940 0.3750
          8.3775 0.3750
          8.6345 0.3750
          9.7200 0.3750
          9.9245 0.3750
          10.2549 0.3750
          10.7636 0.3750
          11.1149 0.3750
          12.2000 0.3750
          12.3667 0.3750
          12.5667 0.3750
          12.9661 0.3750
          13.1391 0.3750
          13.4275 0.3750
          13.9257 0.3750
        }
        "move_updown"         range 2.0 -10.0        
        {
          0.9467 0.1667
          0.9649 0.1667
          1.0969 0.1667
          1.1015 0.1667
          1.3520 0.1667
          1.6809 0.1667
          4.5792 0.1667
          4.9374 0.1667
          5.7660 0.1667
          6.0308 0.1667
          6.4425 0.1667
          7.3497 0.1666
          7.6171 0.1666
          8.0786 0.1666
          8.1940 0.1666
          8.3775 0.1666
          8.6345 0.1666
          9.7200 0.1666
          9.9245 0.1666
          10.2549 0.1666
          10.7636 0.1666
          11.1149 0.1667
          12.2000 0.1667
          12.3667 0.1667
          12.5667 0.1667
          12.9661 0.1667
          13.1391 0.1667
          13.4275 0.1667
          13.9257 0.1667
        }
        "body_rightleft"         range 50.0 -50.0        
        {
          0.9467 0.5000
          0.9649 0.5000
          1.0969 0.5000
          1.1015 0.5000
          1.3520 0.5000
          1.6809 0.5000
          4.5792 0.5000
          4.9374 0.5000
          5.7660 0.5000
          6.0308 0.5000
          6.4425 0.5000
          7.3497 0.5000
          7.6171 0.5000
          8.0786 0.5000
          8.1940 0.5000
          8.3775 0.5000
          8.6345 0.5000
          9.7200 0.5000
          9.9245 0.5000
          10.2549 0.5000
          10.7636 0.5000
          11.1149 0.5000
          12.2000 0.5000
          12.3667 0.5000
          12.5667 0.5000
          12.9661 0.5000
          13.1391 0.5000
          13.4275 0.5000
          13.9257 0.5000
        }
        "body_updown"         range 40.0 -20.0        
        {
          1.0967 0.6900
          1.0967 0.6900
          1.3520 0.7200
          1.6809 0.7205
          4.3000 0.7200
          4.9374 0.7162
          5.7660 0.6725
          6.0308 0.6700
          6.4425 0.6667
          7.3497 0.6638
          7.6171 0.6638
          8.0786 0.6637
          8.1940 0.6639
          8.3775 0.6640
          8.6345 0.6641
          9.7200 0.6641
          9.9245 0.6641
          10.2549 0.6641
          10.7636 0.6644
          11.1149 0.6654
          12.2000 0.6658
          12.3667 0.6665
          12.5667 0.6665
          12.9661 0.6665
          13.1391 0.6665
          13.4275 0.6665
          13.9257 0.6667
        }
        "body_tilt"         range 15.0 -15.0        
        {
          1.0969 0.5200
          1.1015 0.5200
          1.3520 0.5200
          1.6809 0.5203
          4.3333 0.5200
          4.9374 0.5177
          5.7800 0.4914
          5.9967 0.4900
          6.3134 0.5000
          7.3497 0.5087
          7.6171 0.5087
          8.0786 0.5089
          8.1940 0.5082
          8.3775 0.5080
          8.6345 0.5077
          9.7200 0.5076
          9.9245 0.5077
          10.2549 0.5076
          10.7636 0.5068
          11.1149 0.5037
          12.2000 0.5026
          12.3667 0.5004
          12.5667 0.5004
          12.9661 0.5004
          13.1391 0.5004
          13.4275 0.5004
          13.9257 0.5000
        }
        "chest_rightleft"         range 40.0 -40.0        
        {
          1.6800 0.4873
          4.5800 0.4600
          4.9374 0.4625
          5.6300 0.4879
          5.9967 0.5000
          6.8333 0.5300
          7.3500 0.5100
          7.6171 0.5000
          8.0786 0.5000
          8.1940 0.5000
          8.3775 0.5000
          8.6345 0.5000
          9.7200 0.5000
          9.9245 0.5000
          10.2549 0.5000
          10.7636 0.5000
          11.1149 0.5000
          12.2000 0.5000
          12.3667 0.5000
          12.5667 0.5000
          12.9661 0.5000
          13.1391 0.5000
          13.4275 0.5000
          13.9257 0.5000
        }
        "chest_updown"         range 50.0 -25.0        
        {
          1.6800 0.5781
          4.5800 0.5800
          4.9374 0.5870
          5.5800 0.5900
          5.8500 0.6200
          6.1000 0.6567
          6.2667 0.6700
          7.3497 0.6725
          7.6171 0.6725
          8.0786 0.6726
          8.1940 0.6721
          8.3775 0.6720
          8.6345 0.6718
          9.7200 0.6717
          9.9245 0.6718
          10.2549 0.6717
          10.7636 0.6712
          11.1149 0.6692
          12.1667 0.6700
          12.2333 0.6684
          12.2500 0.6667
          12.3667 0.6667
          12.4167 0.6500
          12.4667 0.6400
          12.6000 0.6870
          12.6500 0.7100
          12.9000 0.7108
          13.9257 0.6667
        }
        "chest_tilt"         range 20.0 -20.0        
        {
          1.6809 0.4557
          4.5800 0.4000
          4.9374 0.4056
          5.5800 0.4254
          6.0000 0.4500
          6.2333 0.4700
          6.8500 0.4600
          7.3500 0.4687
          7.6167 0.4687
          8.0786 0.5089
          8.1940 0.5082
          8.3775 0.5080
          8.6345 0.5077
          9.7200 0.5076
          9.9245 0.5077
          10.2549 0.5076
          10.7636 0.5068
          11.1149 0.5037
          12.2000 0.5026
          12.4333 0.5004
          12.5667 0.4804
          12.8167 0.4804
          13.1391 0.5004
          13.4275 0.5004
          13.9257 0.5000
        }
        "head_forwardback"         range -1.0 1.0        
        {
          1.0969 0.5000
          1.1015 0.5000
          1.3520 0.5000
          1.6809 0.5000
          4.5792 0.5000
          4.9374 0.5000
          5.7660 0.5000
          6.0308 0.5000
          6.4425 0.5000
          7.3497 0.5000
          7.6171 0.5000
          8.0786 0.5000
          8.1940 0.5000
          8.3775 0.5000
          8.6345 0.5000
          9.7200 0.5005
          9.9245 0.4840
          10.2467 0.4800
          10.7634 0.4917
          11.1134 0.5100
          12.2333 0.5124
          12.3500 0.5100
          12.4333 0.4657
          12.4833 0.5600
          12.5500 0.6600
          12.7167 0.5800
          12.8333 0.4723
          13.0667 0.4623
          13.4275 0.5123
          13.9257 0.5000
        }
      }
    }
    event flexanimation "head2"
    {
      time 14.500000 21.799999
      param ""
      flexanimations samples_use_time
      {
        "head_rightleft"         range 55.0 -55.0        
        {
          0.0559 0.5000
          0.7448 0.5000
          0.9775 0.5000
          1.0913 0.5000
          1.1896 0.5000
        }
        "head_updown"         range 35.0 -30.0        
        {
          0.0559 0.5385
          0.9333 0.4700
          1.1667 0.5900
          1.2833 0.5900
          1.3667 0.3900
          1.5667 0.2800
          2.0167 0.2700
          2.2167 0.3000
          2.5333 0.6400
          2.6667 0.6300
          2.7500 0.4500
          2.8167 0.3900
          2.9333 0.3600
          3.2333 0.3500
        }
        "head_tilt"         range 18.0 -18.0        
        {
          0.0167 0.7400
          0.0500 0.7400
          0.0833 0.7300
          0.2333 0.7100
          0.7500 0.5700
          0.9833 0.5700
          1.0833 0.5700
          1.1833 0.5700
        }
        "move_forwardback"         range 6.0 -10.0        
        {
          0.9333 0.3700
          1.3500 0.3900
          1.5000 0.4000
          2.2833 0.4000
          2.4833 0.3800
          2.6833 0.3700
          2.8500 0.3900
          3.6333 0.4200
        }
        "chest_updown"         range 50.0 -25.0        
        {
          0.0559 0.6667
          0.9333 0.6667
          1.1667 0.6967
          1.2667 0.6867
          1.3667 0.6567
          1.4500 0.6400
          1.5333 0.6300
          2.2000 0.6300
          2.5000 0.6700
          2.6500 0.6600
          2.7500 0.6400
          2.8000 0.6200
          2.9000 0.6100
          3.2833 0.6200
        }
      }
    }
  }
  channel "face"
  {
    event flexanimation "face"
    {
      time 0.000000 13.950000
      param ""
      flextimingtags
      {
        "lock5" 0.830098 1
        "lock4" 0.865112 1
      }
      flexanimations samples_use_time
      {
        "lid_raiser"         combo        
        {
          5.5533 0.0300
          5.8123 0.1443
          5.9200 0.1700
          6.2366 0.0300
          7.1700 0.0400
          7.4200 0.5000
          7.6080 0.3500
          7.6700 0.0700
          7.7496 0.0000
          7.8866 0.5200
          7.9866 0.5700
          8.0866 0.4900
          8.2200 0.0400
          8.6365 0.0000
          12.5500 0.0100
          12.6000 1.0000
          12.6500 1.0000
          12.7667 0.0400
          12.8000 0.0500
        }
        {
          5.8123 0.5000
          7.6080 0.5000
          7.7496 0.5000
          8.6365 0.5000
        }
        "lid_tightener"         combo        
        {
          1.3623 0.2000
          1.8238 0.2000
          2.0808 0.2000
          2.2224 0.2000
          2.4479 0.1990
          2.8936 0.2000
          3.8585 0.2000
          3.9477 0.2000
          5.2866 0.1700
          5.5533 0.2600
          5.8123 0.2109
          5.9200 0.2000
          6.2366 0.3100
          7.1780 0.2484
          7.6080 0.1900
          7.9866 0.1300
          8.2167 0.1400
          8.6333 0.1790
          8.6500 0.1800
          9.5833 0.1800
          9.8833 0.0600
          10.1000 0.0200
          10.4366 0.0400
          11.1200 0.0500
          11.5366 0.2100
          12.3667 0.2300
          12.4167 0.2600
          12.4500 0.7100
          12.5167 1.0000
          12.5333 0.9800
          12.6667 0.0400
          12.7000 0.0300
          12.9667 0.0300
          13.0394 0.2900
        }
        {
          1.3623 0.5000
          1.8238 0.5000
          2.0808 0.5000
          2.2224 0.5000
          2.4479 0.5000
          2.8936 0.5000
          3.8585 0.5000
          3.9477 0.5000
          5.5471 0.5000
          5.8123 0.5000
          7.1780 0.5000
          7.6080 0.5000
          7.7496 0.5000
          8.6365 0.5000
        }
        "lid_droop"         combo        
        {
          1.3623 0.2500
          1.8238 0.2500
          2.0808 0.2500
          2.2224 0.2500
          2.4479 0.2488
          2.8936 0.2500
          3.8585 0.2500
          3.9477 0.2500
          4.1366 0.2600
          4.2366 0.4900
          4.4866 0.1000
          5.0033 0.3100
          5.2866 0.2900
          5.5471 0.4000
          5.8123 0.1301
          5.9033 0.0600
          6.2200 0.2000
          7.1700 0.1932
          7.6080 0.0000
          7.7496 0.1800
          7.9866 0.0600
          8.2200 0.1600
          8.6333 0.2355
          8.6500 0.2500
          9.1167 0.4200
          9.5667 0.4900
          9.8833 0.4500
          10.1366 0.1200
          10.4033 0.0600
          12.9000 0.0500
          13.0231 0.4800
        }
        {
          1.3623 0.5000
          1.8238 0.5000
          2.0808 0.5000
          2.2224 0.5000
          2.4479 0.5000
          2.8936 0.5000
          3.8585 0.5000
          3.9477 0.5000
          5.5471 0.5000
          5.8123 0.5000
          7.1780 0.5000
          7.6080 0.5000
          7.7496 0.5000
          8.6365 0.5000
        }
        "blink"        
        {
          4.0700 0.0300
          4.1366 0.9900
          4.2366 0.0400
          5.8123 0.0000
          8.6365 0.0000
          12.4333 0.0400
          12.4833 1.0000
          12.6000 0.0400
          13.3000 0.0100
          13.3500 0.9900
          13.4667 0.0200
        }
        "inner_raiser"         combo        
        {
          1.3623 0.0000
          1.8238 0.0000
          2.0808 0.0000
          2.2224 0.0000
          2.4479 0.0000
          2.8936 0.0000
          4.0033 0.0000
          4.0866 0.0000
          4.3033 0.2100
          4.4366 0.2200
          4.8366 0.1600
          5.2533 0.1500
          5.5533 0.1600
          5.7533 0.1400
          5.8123 0.2518
          5.8866 0.4600
          6.0366 0.6100
          6.2533 0.5633
          6.5667 0.3600
          7.1700 0.2400
          7.2866 0.2800
          7.4200 0.6900
          7.6033 0.6600
          7.7033 0.4500
          7.7533 0.4400
          7.8533 0.4600
          7.9366 0.7400
          8.0200 0.7200
          8.1033 0.1200
          8.2033 0.0700
          8.4200 0.0300
          8.6000 0.8100
          8.7167 0.8800
          9.1144 0.8683
          9.1333 0.8400
          9.6700 0.2300
          9.9533 0.2100
          10.1366 0.5500
          10.4700 1.0000
          10.6500 0.9600
          10.8500 0.3800
          11.0667 0.3600
          11.1833 0.7600
          11.3533 0.8000
          11.5700 0.5800
          12.1909 0.5100
          12.2888 0.5100
          12.4500 0.4900
          12.5000 0.1200
          12.5500 0.1000
          12.6000 0.6700
          12.6667 0.8800
          12.7833 0.9100
          13.0000 0.8400
          13.1341 0.2100
          13.2483 0.1300
        }
        {
          1.3623 0.5000
          1.8238 0.5000
          2.0808 0.5000
          2.2224 0.5000
          2.4479 0.5000
          2.8936 0.5000
          3.8585 0.5000
          3.9477 0.5000
          5.4533 0.5100
          5.5471 0.5000
          5.7700 0.5000
          5.8123 0.4205
          5.9033 0.1500
          6.0700 0.1600
          7.1700 0.1900
          7.6080 0.5000
          7.7496 0.5000
          8.4200 0.4800
          8.6033 0.1600
          8.7866 0.0900
          9.1144 0.0579
          9.7366 0.0900
          10.2000 0.3700
          10.4200 0.5100
          11.1200 0.5000
          11.5700 0.1100
          12.4030 0.0300
          12.6151 0.4900
          13.1536 0.2400
          13.4473 0.2100
        }
        "outer_raiser"         combo        
        {
          1.3623 0.0000
          1.8238 0.0000
          2.0808 0.0000
          2.2224 0.0000
          2.4479 0.0000
          2.8936 0.0000
          4.0033 0.0000
          4.0866 0.0000
          4.3200 0.2800
          4.4700 0.2900
          4.8533 0.1800
          5.2700 0.1800
          5.5533 0.1900
          5.7700 0.1700
          5.8123 0.2561
          5.8866 0.5100
          6.0366 0.7000
          6.2866 0.5800
          6.5333 0.4200
          7.1700 0.3100
          7.3200 0.3300
          7.4366 0.5000
          7.6033 0.4600
          7.7033 0.3500
          7.7533 0.3300
          7.8533 0.3500
          7.9200 0.6700
          8.0200 0.7000
          8.1033 0.1000
          8.2033 0.0300
          8.4366 0.0600
          8.6033 0.8000
          8.7200 0.8800
          9.0500 0.8400
          9.1144 0.8219
          9.6667 0.5100
          9.9667 0.4800
          10.1366 0.6300
          10.4700 1.0000
          10.6333 0.9700
          10.8500 0.5100
          11.0667 0.4000
          11.2000 0.8200
          11.3366 0.8500
          11.5366 0.5800
          12.1419 0.5000
          12.2562 0.5200
          12.4333 0.5000
          12.5000 0.1200
          12.5500 0.1400
          12.6167 0.4500
          12.7000 0.7500
          12.8000 0.7200
          13.0167 0.6500
          13.1210 0.4100
        }
        {
          1.3623 0.5000
          1.8238 0.5000
          2.0808 0.5000
          2.2224 0.5000
          2.4479 0.5000
          2.8936 0.5000
          3.8585 0.5000
          3.9477 0.5000
          5.4700 0.5000
          5.5471 0.5000
          5.7700 0.5000
          5.8123 0.3893
          5.8866 0.0900
          6.0700 0.0900
          7.1700 0.2400
          7.6080 0.5000
          7.7496 0.5000
          8.4366 0.4800
          8.6033 0.1400
          8.7200 0.0700
          9.1033 0.0800
          9.1144 0.0790
          9.8333 0.1700
          10.2000 0.4100
          10.4533 0.5300
          11.1366 0.5200
          11.5700 0.1500
          12.4030 0.0400
          12.6151 0.7500
          13.1700 0.4000
          13.4963 0.3300
        }
        "lowerer"         combo        
        {
          1.3700 0.0900
          1.8200 0.1700
          2.0866 0.1700
          2.2200 0.1700
          2.4533 0.1700
          2.8866 0.1700
          4.0866 0.1700
          4.3200 0.0300
          4.4700 0.0200
          4.8700 0.0300
          5.2866 0.2000
          5.5533 0.1600
          5.7533 0.2000
          5.8123 0.1860
          5.9200 0.1400
          6.1866 0.1300
          6.4667 0.1300
          7.1700 0.2300
          7.3033 0.2400
          7.4366 0.0600
          7.6080 0.0000
          7.7496 0.0000
          8.0366 0.0500
          8.1200 0.4100
          8.2200 0.4600
          8.4167 0.3600
          8.6167 0.5500
          8.7333 0.5800
          9.1333 0.6200
          10.1366 0.3900
          10.2200 0.4200
          10.4366 0.1400
          10.6167 0.1800
          10.7500 0.6300
          10.9167 0.6400
          11.1700 0.1400
          11.5872 0.4900
          12.2562 0.4500
          12.4167 0.4700
          12.4833 0.8200
          12.5500 0.8500
          12.7333 0.1000
          13.0720 0.3500
          13.3332 0.4200
          13.6921 0.1700
        }
        {
          1.3623 0.5000
          1.8238 0.5000
          2.0808 0.5000
          2.2224 0.5000
          2.4479 0.5000
          2.8936 0.5000
          3.8585 0.5000
          3.9477 0.5000
          5.5471 0.5000
          5.7700 0.5300
          5.8123 0.5064
          5.8200 0.5200
          5.9033 0.8900
          6.0700 0.8900
          6.1866 0.8600
          6.3033 0.8400
          7.1700 0.7500
          7.6080 0.5000
          7.7496 0.5000
          8.2200 0.5200
          8.4200 0.9300
          10.1200 0.7600
          10.4700 0.8500
          10.8366 0.8300
          11.5700 0.9200
          12.6315 0.5100
          13.0720 0.7800
          13.4963 0.7800
        }
        "cheek_raiser"         combo        
        {
          1.3623 0.0000
          1.8238 0.0000
          2.0808 0.0000
          2.2224 0.0000
          2.4479 0.0000
          2.8936 0.0000
          3.8585 0.0000
          3.9477 0.0000
          5.5471 0.1800
          5.8123 0.1870
          7.1780 0.1473
          7.4700 0.1400
          7.6080 0.1372
          7.7496 0.1345
          8.6365 0.1148
          10.1333 0.1100
          12.4167 0.0500
          12.4833 0.9800
          12.5667 1.0000
          12.6500 0.4600
          12.7500 0.0200
        }
        {
          1.3623 0.5000
          1.8238 0.5000
          2.0808 0.5000
          2.2224 0.5000
          2.4479 0.5000
          2.8936 0.5000
          3.8585 0.5000
          3.9477 0.5000
          5.5471 0.5000
          5.8123 0.5000
          7.1780 0.5000
          7.6080 0.5000
          7.7496 0.5000
          8.6365 0.5000
        }
        "upper_raiser"         combo        
        {
          1.3623 0.0000
          1.8238 0.0000
          2.0808 0.0000
          2.2224 0.0000
          2.4479 0.0000
          2.8936 0.0000
          3.8585 0.0000
          3.9477 0.0000
          5.5471 0.0000
          5.8123 0.0000
          7.1780 0.0000
          7.6080 0.0000
          7.7496 0.0000
        }
        {
          1.3623 0.5000
          1.8238 0.5000
          2.0808 0.5000
          2.2224 0.5000
          2.4479 0.5000
          2.8936 0.5000
          3.8585 0.5000
          3.9477 0.5000
          5.5471 0.5000
          5.8123 0.5000
          7.1780 0.5000
          7.6080 0.5000
          7.7496 0.5000
        }
        "corner_puller"         combo        
        {
          1.3700 0.0100
          1.8238 0.0000
          2.0808 0.0000
          2.2224 0.0000
          2.4479 0.0000
          2.8936 0.0000
          3.8585 0.0000
          3.9477 0.0000
          4.8700 0.0300
          5.1167 0.0000
          5.2833 0.1600
          5.4667 0.7800
          5.6200 0.9800
          5.8033 0.7200
          5.9200 0.4800
          6.1533 0.4800
          6.2700 0.5700
          6.4700 0.6700
          6.6366 0.6900
          7.1700 0.6400
          7.4700 0.4500
          7.6080 1.0000
          7.7496 0.6400
          8.0033 0.1300
          8.2033 0.0700
          8.5333 0.2000
          8.6333 0.6700
          8.7366 0.7800
          9.1700 0.7900
          9.7700 0.8400
          9.9366 0.8500
          10.0200 0.8200
          10.1200 0.2600
          10.2533 0.0500
          11.3700 0.0600
          11.7834 0.9200
          12.2888 0.7600
          12.3833 0.7200
          12.4333 0.4200
          12.6500 0.0300
        }
        {
          1.3623 0.5000
          1.8238 0.5000
          2.0808 0.5000
          2.2224 0.5000
          2.4479 0.5000
          2.8936 0.5000
          3.8585 0.5000
          3.9477 0.5000
          5.0700 0.5000
          5.2850 0.4141
          5.5471 0.4100
          5.8123 0.4005
          5.9033 0.4000
          7.1780 0.3988
          7.6080 0.4022
          7.7496 0.4038
          11.3533 0.5000
          11.7870 0.2600
        }
        "corner_depressor"        
        {
          1.3623 0.0000
          1.8238 0.0000
          2.0866 0.2600
          2.2200 0.3300
          2.4533 0.3300
          2.8866 0.1900
          3.1533 0.0100
          3.8585 0.1864
          4.5366 0.3600
          4.8700 0.1400
          5.2850 0.0000
          5.8033 0.2900
          5.8866 0.0700
          6.3033 0.0200
          7.0533 0.1300
          7.4033 0.6100
          7.6033 0.5000
          7.7496 0.3600
          8.2033 0.0400
          8.6533 0.0000
          9.1533 0.0500
          9.8033 0.0700
          10.2033 0.0700
          11.4033 0.1000
          11.9105 0.3000
          12.3833 0.3700
          12.4833 0.4300
          12.6167 0.5500
          12.7000 0.5600
          12.9000 0.4000
        }
        "chin_raiser"        
        {
          1.3700 0.2200
          1.8238 0.0000
          2.0808 0.0000
          2.2224 0.0000
          2.4479 0.0000
          2.8936 0.0000
          3.1700 0.1200
          3.4033 0.1400
          4.0033 0.0400
          4.1366 0.0000
          4.2366 0.0000
          4.2866 0.0100
          5.5471 0.0000
          5.6366 0.0000
          5.8123 0.0000
          7.1780 0.0000
          7.6080 0.0000
          7.7496 0.0000
        }
        "part"         combo        
        {
          1.3700 0.0100
          1.8200 0.0200
          2.0808 0.2600
          2.2224 0.2600
          2.4479 0.2587
          2.8936 0.2600
          3.1866 0.0400
          3.4366 0.0400
          3.8585 0.2600
          4.6366 0.6100
          5.0700 0.7000
          5.2866 0.6500
          5.5471 0.0000
          6.2533 0.0200
          7.1780 0.0000
          7.6080 0.0000
          7.7496 0.0000
        }
        {
          1.3623 0.5000
          1.8238 0.5000
          2.0808 0.5000
          2.2224 0.5000
          2.4479 0.5000
          2.8936 0.5000
          3.8585 0.5000
          3.9477 0.5000
          5.2850 0.5006
          5.5471 0.5000
          5.8123 0.4900
          7.1780 0.5000
          7.6080 0.5000
          7.7496 0.5000
        }
        "presser"        
        {
          1.3533 0.2200
          1.7700 0.0300
          3.1700 0.0400
          3.4533 0.1100
          4.1366 0.0065
          4.2366 0.0065
          4.3700 0.0200
          4.7533 0.0200
          5.5471 0.0183
          5.8123 0.0177
          7.1780 0.0147
          7.6080 0.0138
          7.7496 0.0135
          12.8667 0.0100
          12.9333 0.0200
          13.1374 0.1200
        }
        "jaw_clencher"        
        {
          1.3033 0.3500
          1.8033 0.4700
          2.0533 0.0600
          2.2366 0.0700
          2.8866 0.0800
          3.1700 0.2300
          3.4533 0.2700
          4.1366 0.0820
          4.2366 0.0820
          4.4033 0.0500
          4.5033 0.0400
          4.6533 0.0500
          4.9533 0.3600
          5.1866 0.4400
          5.5533 0.0800
          5.8123 0.0406
          5.9033 0.0400
          7.1780 0.0000
          7.6080 0.0000
          7.7496 0.0000
          12.8833 0.0200
          12.9667 0.0300
          13.1536 0.2300
        }
        "jaw_drop"        
        {
          1.3623 0.0000
          1.8238 0.0000
          2.0866 0.1600
          2.2200 0.2700
          2.4533 0.2834
          2.8936 0.0220
          3.8585 0.0220
          3.9477 0.0220
          5.2850 0.1300
          5.5471 0.0192
          5.8123 0.0000
          7.1780 0.0154
          7.6080 0.0144
          7.7496 0.0141
          12.4333 0.0300
          12.5667 0.3700
          13.0000 0.0400
        }
        "mouth_drop"         combo        
        {
          1.3623 0.0000
          1.8238 0.0000
          2.0866 0.0600
          2.2200 0.1900
          2.4533 0.2642
          2.8936 0.0000
          3.8585 0.0000
          3.9477 0.0000
          5.5471 0.0000
          7.1780 0.0000
          7.6080 0.0000
          7.7496 0.0000
          12.4833 0.0400
          12.6167 0.4800
          13.0333 0.0400
        }
        {
          1.3623 0.5000
          1.8238 0.5000
          2.0808 0.5000
          2.2224 0.5000
          2.4479 0.5000
          2.8936 0.5000
          3.8585 0.5000
          3.9477 0.5000
          5.5471 0.5000
          5.8123 0.5000
          7.1780 0.5000
          7.6080 0.5000
          7.7496 0.5000
        }
        "eyes_updown"         range 30.0 -30.0        
        {
          1.0529 0.5000
          1.2533 0.2800
          1.7533 0.2500
          2.0533 0.2400
          2.1533 0.2800
          2.2033 0.2700
          2.3700 0.2600
          2.4533 0.2600
          2.5033 0.2000
          2.5366 0.1900
          2.8033 0.1700
          2.8366 0.1800
          2.8700 0.2400
          2.9033 0.2400
          3.8585 0.2413
          3.9477 0.2413
          4.1200 0.2600
          4.7700 0.5000
          4.9965 0.5000
          5.8123 0.5000
          13.1333 0.5000
          13.1833 0.5000
          13.2667 0.4500
          13.3333 0.5500
          13.4000 0.7200
          13.4833 0.7400
          13.6167 0.6100
          13.7667 0.5100
        }
        "eyes_rightleft"         range 30.0 -30.0        
        {
          1.0529 0.5000
          1.7366 0.5300
          2.0366 0.5400
          2.1366 0.5600
          2.1700 0.5500
          2.4033 0.5400
          2.4533 0.5400
          2.5033 0.5100
          2.5366 0.5000
          2.8200 0.5000
          2.8533 0.5000
          2.8866 0.5700
          2.9200 0.5700
          3.3533 0.5700
          3.8585 0.5746
          3.9477 0.5746
          4.1207 0.5000
          4.7700 0.5000
          4.9965 0.5000
          5.8123 0.5000
          13.1333 0.5000
          13.1833 0.5000
          13.2667 0.5200
          13.3333 0.5700
          13.4000 0.5200
          13.4833 0.3000
          13.6167 0.0900
          13.7667 0.0900
          13.9167 0.1000
          13.9167 0.2200
        }
        "puckerer"         combo        
        {
          5.8123 0.0000
        }
        {
          5.8123 0.4900
        }
        "funneler"         combo        
        {
          5.8123 0.0000
        }
        {
          5.8123 0.5000
        }
        "smile"        
        {
          13.3167 0.0000
        }
      }
    }
    event firetrigger "end scene"
    {
      time 26.383333 -1.000000
      param "4"
    }
  }
  faceposermodel "U:\HL2\hl2\models\alyx.mdl"
  active "0"
}

actor "Kleiner"
{
  channel "audio"
  {
    event speak "kleiner_warming"
    {
      time 13.233334 15.298639
      param "E3_lab.kleiner_warming"
      param2 "90dB"
      fixedlength
    }
    event speak "kleiner_moduli"
    {
      time 18.400000 26.615330
      param "E3_lab.kleiner_moduli"
      param2 "90dB"
      fixedlength
    }
  }
  channel "Lookat"
  {
    event lookat "look_alyx1"
    {
      time 17.066668 20.466667
      param "alyx"
      event_ramp
      {
        0.0500 0.0358
        0.1000 0.1147
        0.3109 0.7814
        0.3833 0.9068
        0.4333 0.9534
        0.5167 0.9964
        1.4133 1.0000
        2.6167 0.9964
        2.8667 0.9247
        3.0957 0.6022
        3.2167 0.2867
        3.3000 0.0896
      }
      pitch "-1"
      yaw "-73"
    }
    event lookat "lookatwork2"
    {
      time 20.000000 24.000000
      param "kleiner_desk_work"
      event_ramp
      {
        0.5264 0.6989
        1.2667 0.7491
        2.1822 0.6989
        2.9445 0.7670
        3.8378 0.6989
      }
      pitch "-75"
    }
    event lookat "k_lookit_g1"
    {
      time 4.350000 7.783333
      param "!player"
      event_ramp
      {
        0.0000 1.0000
        1.2654 1.0000
        2.5308 1.0000
      }
    }
    event lookat "look at work1"
    {
      time 12.683333 17.799999
      param "kleiner_desk_work"
      event_ramp
      {
        0.3447 0.8065
        0.6833 0.8530
        1.5167 0.8244
        3.6160 0.8065
        4.5667 0.8029
        4.7167 0.7778
        4.8000 0.6810
        4.8687 0.5197
        4.9500 0.3190
        5.0333 0.0896
      }
      pitch "-70"
      yaw "3"
    }
    event lookat "lookg1"
    {
      time 23.766666 26.400000
      param "!player"
      event_ramp
      {
        0.2833 1.0000
        2.6333 0.9963
      }
    }
    event lookat "lookwork3"
    {
      time 26.283333 26.983334
      param "kleiner_desk_work"
      event_ramp
      {
        0.1667 0.9963
        0.7000 1.0000
      }
    }
  }
  channel "Goto"
  {
  }
  channel "seq\"
  {
    event sequence "standpose"
    {
      time 0.950000 20.433332
      param "standpose01"
    }
    event sequence "stand_bent"
    {
      time 20.200001 22.566668
      param "standpose01_bent01"
      event_ramp
      {
        0.2167 1.0000
        2.3667 0.9926
      }
      fixedlength
    }
    event sequence "bentover"
    {
      time 22.400000 27.000000
      param "bentpose01"
      event_ramp
      {
        0.0000 0.0000
        0.1533 0.9926
        4.2328 0.9888
      }
    }
  }
  channel "seq2"
  {
    event sequence "idle"
    {
      time 3.866667 13.866667
      param "standidle01"
      event_ramp
      {
        0.0000 1.0000
        5.9450 1.0000
      }
      fixedlength
    }
    event sequence "workidle1"
    {
      time 22.400000 27.000000
      param "worktablegesture01"
      event_ramp
      {
        0.1167 0.1685
        0.3333 0.7419
        0.4833 0.9857
        4.2334 0.9963
        4.6000 0.0000
      }
    }
  }
  channel "armpose"
  {
    event sequence "holdglasses"
    {
      time 16.483334 20.299999
      param "armpose03"
      event_ramp
      {
        0.0333 0.0323
        0.0833 0.0932
        0.1500 0.1828
        0.3500 0.5125
        0.4120 0.6129
        0.5360 0.7814
        0.6333 0.8781
        0.7620 0.9391
        0.8820 0.9642
        1.0820 0.9857
        1.2413 0.9928
        2.8500 1.0000
        3.0667 0.9642
        3.2500 0.8495
        3.3500 0.6703
        3.4400 0.4480
        3.5667 0.2079
        3.6833 0.0717
        3.7500 0.0251
      }
    }
    event sequence "armpose02"
    {
      time 16.266666 18.316668
      param "armpose02"
      event_ramp
      {
        0.0333 0.0179
        0.0833 0.1039
        0.2333 0.5484
        0.2667 0.6452
        0.3280 0.7885
        0.4167 0.9391
        0.5333 0.9857
        0.6833 0.9319
        0.8167 0.8495
        1.7367 0.2401
      }
    }
    event sequence "armpose02b"
    {
      time 19.516666 22.683332
      param "armpose02"
      event_ramp
      {
        0.0833 0.0466
        0.2333 0.2186
        0.5667 0.8961
        0.7333 0.9964
        1.4500 0.9892
        1.6167 0.9570
        1.7333 0.9140
        1.9333 0.8065
        2.3000 0.5376
        2.8833 0.0896
        3.1267 0.0036
      }
    }
  }
  channel "gesture"
  {
    event gesture "warmup"
    {
      time 12.450000 17.333334
      param "gesture_warmup"
      event_ramp
      {
        0.3120 1.0000
        1.6293 1.0000
        3.0167 0.9928
        3.3533 0.9749
        3.6367 0.9498
        3.7667 0.9283
        3.9700 0.8674
        4.1700 0.7670
        4.3534 0.6237
        4.4367 0.5341
        4.6533 0.2437
        4.7033 0.1720
        4.7700 0.0753
        4.8367 0.0179
      }
      absolutetags playback_time
      {
        "appex" 0.334608
        "holdup" 0.406280
        "accent" 0.464027
        "settle" 0.558635
        "followthru" 0.631536
      }
      absolutetags shifted_time
      {
        "appex" 0.513993
        "holdup" 0.567236
        "accent" 0.643413
        "settle" 0.733105
        "followthru" 0.747686
      }
      sequenceduration 3.466667
    }
    event gesture "ges2"
    {
      time 19.616667 21.083334
      param "gesture02"
      sequenceduration 1.466667
    }
  }
  channel "head_body"
  {
    event flexanimation "headbody"
    {
      time 15.933333 27.033333
      param ""
      event_ramp
      {
        0.0167 1.0000
        10.7722 0.9814
      }
      flexanimations samples_use_time
      {
        "head_rightleft"         range 55.0 -55.0        
        {
          0.9814 0.5000
          1.4257 0.5000
          2.3348 0.5000
          3.3266 0.5000
          3.8741 0.5000
          4.2150 0.5000
          7.2833 0.5000
          7.3557 0.5000
        }
        "head_updown"         range 35.0 -30.0        
        {
          0.9814 0.5385
          1.4257 0.5385
          2.3348 0.5385
          2.4000 0.5500
          2.4833 0.5200
          2.6000 0.5600
          2.6667 0.5500
          2.7833 0.5200
          2.9833 0.5600
          3.0667 0.5200
          3.1667 0.5000
          3.3333 0.4785
          3.8741 0.5385
          4.2167 0.6585
          4.3333 0.6800
          4.4167 0.5200
          4.5167 0.4900
          4.6333 0.5000
          7.2833 0.5500
          7.3557 0.5546
          7.9333 0.5946
          8.2000 0.6300
          8.7667 0.6500
          8.9500 0.6000
          9.0667 0.5700
          9.2167 0.5900
          9.5333 0.6000
          9.9333 0.5600
          10.2333 0.4400
        }
        "head_tilt"         range 18.0 -18.0        
        {
          0.9814 0.5000
          1.4333 0.6000
          2.3333 0.6100
          3.3333 0.5500
          3.8741 0.5000
          4.2150 0.5000
          7.2667 0.5000
          7.3557 0.5000
          7.9333 0.5700
          8.2000 0.5900
          9.5333 0.5800
          9.9333 0.5400
          10.2277 0.5100
        }
        "move_rightleft"         range 6.0 -6.0        
        {
          0.9814 0.5000
          1.4257 0.5000
          1.8667 0.5300
          2.3333 0.5500
          3.5500 0.5400
          3.7500 0.5100
          4.0833 0.4800
          4.4333 0.5000
          4.6667 0.5200
          5.1833 0.5300
          7.3557 0.5284
          7.9342 0.5284
        }
        "move_forwardback"         range 6.0 -10.0        
        {
          0.9814 0.3750
          1.4257 0.3750
          2.3348 0.3750
          3.3266 0.3750
          3.8741 0.3750
          4.2150 0.3750
          7.3557 0.3750
          7.9342 0.3750
        }
        "body_rightleft"         range 50.0 -50.0        
        {
          0.9500 0.4900
          1.5000 0.5400
          2.1833 0.5600
          3.7167 0.5800
          4.2333 0.5300
          4.5833 0.5000
          4.7833 0.5000
          7.3557 0.5000
          7.9342 0.5000
        }
        "chest_rightleft"         range 40.0 -40.0        
        {
          0.9814 0.5000
          1.4257 0.6100
          1.6167 0.6900
          1.8000 0.7300
          2.3333 0.7281
          3.5500 0.6981
          4.1000 0.4849
          4.4333 0.4849
          7.3557 0.4912
          7.9342 0.4912
        }
        "chest_updown"         range 50.0 -25.0        
        {
          0.9814 0.6667
          1.2167 0.6800
          1.4257 0.7400
          1.6167 0.7800
          1.8333 0.8000
          2.3348 0.7987
          3.3667 0.8200
          3.5500 0.7987
          4.1000 0.6566
          4.4333 0.6566
          7.3557 0.6608
          7.9342 0.6900
        }
        "chest_tilt"         range 20.0 -20.0        
        {
          0.9814 0.5000
          1.4257 0.5900
          1.8000 0.6600
          2.3348 0.6621
          3.2833 0.6500
          3.5500 0.6321
          3.8000 0.5200
          4.1000 0.4876
          4.4333 0.4876
          7.3557 0.4928
          7.9342 0.4928
        }
        "head_forwardback"         range -1.0 1.0        
        {
          0.9814 0.5000
          1.4257 0.5000
          2.3348 0.5000
          3.3266 0.5000
          3.8741 0.5000
          4.2150 0.5000
          7.2500 0.5100
          7.3557 0.5000
          7.9342 0.3500
          8.0333 0.3400
        }
      }
    }
  }
  faceposermodel "U:\HL2\hl2\models\Kleiner.mdl"
}

mapname "maps\e3_lab.bsp"
fps 60
snap on
