// Created by Crowbar 0.56

$modelname "editor/Ground_node.mdl"

$bodygroup "studio"
{
	studio "Ground_node.smd"
}


$contents "solid"

$illumposition 0 0 0

$cdmaterials "editor\"

$cbox 0 0 0 0 0 0

$bbox -24 -24 -4 24 24 4

$definebone "Box01" "" 0 0 0.000001 0 0 89.999983 0 0 0 0 0 0

$animation "a_Idle" "Ground_node_anims\Idle.smd" {
	fps 30
	loop
}

$sequence "Idle" {
	"a_Idle"
	fadein 0.2
	fadeout 0.2
	fps 30
	loop
}

