// Created by Crowbar 0.56

$modelname "props_combine/combinebracket003a.mdl"

$staticprop

$bodygroup "Body"
{
	studio "combinebracket003a_reference.smd"
}


$surfaceprop "metal"

$contents "solid"

$illumposition 0 0 0

$cdmaterials "models\props_combine\"

$cbox 0 0 0 0 0 0

$bbox -7.649 -4.376 -6.817 7.649 4.376 6.817

$definebone "static_prop" "" 0 0 0 0 0 0 0 0 0 0 0 0

$animation "a_idle" "combinebracket003a_anims\idle.smd" {
	fps 30
}

$sequence "idle" {
	"a_idle"
	fadein 0.2
	fadeout 0.2
	fps 30
}


$collisionmodel "combinebracket003a_physics.smd"
{
	$mass 8
	$inertia 1
	$damping 0
	$rotdamping 0
	$rootbone " "
	$concave

}
