// Created by Crowbar 0.56

$modelname "props_combine/combineouterwall001a.mdl"

$staticprop

$bodygroup "Body"
{
	studio "combineouterwall001a_reference.smd"
}


$surfaceprop "metal"

$contents "solid"

$illumposition 0 0 0

$cdmaterials "models\props_combine\"

$cbox 0 0 0 0 0 0

$bbox -88 -23 -40.251 88 23 40.251

$definebone "static_prop" "" 0 0 0 0 0 0 0 0 0 0 0 0

$animation "a_idle" "combineouterwall001a_anims\idle.smd" {
	fps 30
}

$sequence "idle" {
	"a_idle"
	fadein 0.2
	fadeout 0.2
	fps 30
}


$collisionmodel "combineouterwall001a_physics.smd"
{
	$mass 82.18876
	$inertia 1
	$damping 0
	$rotdamping 0
	$rootbone " "
	$concave

}
