// Created by Crowbar 0.56

$modelname "props_combine/combine_gate_citizen01a.mdl"

$staticprop

$bodygroup "Body"
{
	studio "combine_gate_citizen01a_reference.smd"
}


$surfaceprop "metal"

$contents "solid"

$illumposition -1.882 -2.553 34

$cdmaterials "models\props_combine\"

$cbox 0 0 0 0 0 0

$bbox -51.037 -118.919 -30 56.142 115.155 98

$definebone "static_prop" "" 0 0 0 0 0 0 0 0 0 0 0 0

$animation "a_idle" "combine_gate_citizen01a_anims\idle.smd" {
	fps 30
}

$sequence "idle" {
	"a_idle"
	fadein 0.2
	fadeout 0.2
	fps 30
}


$collisionmodel "combine_gate_citizen01a_physics.smd"
{
	$mass 60
	$inertia 1
	$damping 0
	$rotdamping 0
	$rootbone " "
	$concave

}
