// Created by Crowbar 0.56

$modelname "props_combine/combine_barricade_med03a.mdl"

$staticprop

$bodygroup "Body"
{
	studio "combine_barricade_med03a_reference.smd"
}


$surfaceprop "metal"

$contents "solid"

$illumposition 0 0 23.45

$cdmaterials "models\props_combine\"

$cbox 0 0 0 0 0 0

$bbox -95.623 -64 -30 95.623 64 76.9

$definebone "static_prop" "" 0 0 0 0 0 0 0 0 0 0 0 0

$animation "a_idle" "combine_barricade_med03a_anims\idle.smd" {
	fps 30
}

$sequence "idle" {
	"a_idle"
	fadein 0.2
	fadeout 0.2
	fps 30
}


$collisionmodel "combine_barricade_med03a_physics.smd"
{
	$mass 60
	$inertia 1
	$damping 0
	$rotdamping 0
	$rootbone " "
	$concave

}
