// Created by Crowbar 0.56

$modelname "props_combine/combine_barricade_bracket02b.mdl"

$staticprop

$bodygroup "Body"
{
	studio "combine_barricade_bracket02b_reference.smd"
}


$surfaceprop "metal"

$contents "solid"

$illumposition 0 0 0

$cdmaterials "models\props_combine\"

$cbox 0 0 0 0 0 0

$bbox -34.275 -31.671 -27.542 34.275 31.671 27.542

$definebone "static_prop" "" 0 0 0 0 0 0 0 0 0 0 0 0

$animation "a_idle" "combine_barricade_bracket02b_anims\idle.smd" {
	fps 30
}

$sequence "idle" {
	"a_idle"
	fadein 0.2
	fadeout 0.2
	fps 30
}


$collisionmodel "combine_barricade_bracket02b_physics.smd"
{
	$mass 60
	$inertia 1
	$damping 0
	$rotdamping 0
	$rootbone " "
	$concave

}
