// Created by Crowbar 0.56

$modelname "props_combine/CombineTrain01a.mdl"

$staticprop

$bodygroup "Body"
{
	studio "CombineTrain01a_Reference.smd"
}


$surfaceprop "metal"

$contents "solid"

$illumposition 0 51.425 144.5

$cdmaterials "models\props_combine\"

$cbox 0 0 0 0 0 0

$bbox -371.45 -70.337 0 268.6 70.338 289

$definebone "static_prop" "" 0 0 0 0 0 0 0 0 0 0 0 0

$animation "a_idle" "CombineTrain01a_anims\idle.smd" {
	fps 30
}

$sequence "idle" {
	"a_idle"
	fadein 0.2
	fadeout 0.2
	fps 30
}

