// Created by Crowbar 0.56

$modelname "props_combine/combinecrane001b.mdl"

$staticprop

$bodygroup "Body"
{
	studio "combinecrane001b_reference.smd"
}

$lod 40
{
	replacemodel "combinecrane001b_reference.smd" "combinecrane001b_reference_lod1.smd"
}
$lod 50
{
	replacemodel "combinecrane001b_reference.smd" "combinecrane001b_reference_lod2.smd"
}
$lod 60
{
	replacemodel "combinecrane001b_reference.smd" "combinecrane001b_reference_lod3.smd"
}
$lod 70
{
	replacemodel "combinecrane001b_reference.smd" "combinecrane001b_reference_lod4.smd"
}

$surfaceprop "metal"

$contents "solid"

$illumposition 0 0 0

$cdmaterials "models\props_combine\"

$cbox 0 0 0 0 0 0

$bbox -272.268 -109.339 -138.644 272.268 109.339 138.644

$definebone "static_prop" "" 0 0 0 0 0 0 0 0 0 0 0 0

$animation "a_idle" "combinecrane001b_anims\idle.smd" {
	fps 30
}

$sequence "idle" {
	"a_idle"
	fadein 0.2
	fadeout 0.2
	fps 30
}


$collisionmodel "combinecrane001b_physics.smd"
{
	$mass 190
	$inertia 1
	$damping 0
	$rotdamping 0
	$rootbone " "
	$concave

}
