// Created by Crowbar 0.56

$modelname "props_combine/combinebridge004.mdl"

$staticprop

$bodygroup "Body"
{
	studio "combinebridge004_reference.smd"
}

$lod 70
{
	replacemodel "combinebridge004_reference.smd" "combinebridge004_reference_lod1.smd"
}
$lod 140
{
	replacemodel "combinebridge004_reference.smd" "combinebridge004_reference_lod2.smd"
}
$lod 180
{
	replacemodel "combinebridge004_reference.smd" "combinebridge004_reference_lod3.smd"
}
$lod 220
{
	replacemodel "combinebridge004_reference.smd" "combinebridge004_reference_lod4.smd"
}

$surfaceprop "metal"

$contents "solid"

$illumposition 0 0 0

$cdmaterials "models\props_combine\"

$cbox 0 0 0 0 0 0

$bbox -101.234 -254.851 -56.228 101.234 254.851 56.228

$definebone "static_prop" "" 0 0 0 0 0 0 0 0 0 0 0 0

$animation "a_idle" "combinebridge004_anims\idle.smd" {
	fps 30
}

$sequence "idle" {
	"a_idle"
	fadein 0.2
	fadeout 0.2
	fps 30
}


$collisionmodel "combinebridge004_physics.smd"
{
	$mass 100
	$inertia 1
	$damping 0
	$rotdamping 0
	$rootbone " "
	$concave

}
