// Created by Crowbar 0.56

$modelname "props_combine/combineconnector001a.mdl"

$staticprop

$bodygroup "Body"
{
	studio "combineconnector001a_reference.smd"
}


$surfaceprop "metal"

$contents "solid"

$illumposition 0 0 0

$cdmaterials "models\props_combine\"

$cbox 0 0 0 0 0 0

$bbox -1.535 -11.498 -2.506 1.535 11.498 2.506

$definebone "static_prop" "" 0 0 0 0 0 0 0 0 0 0 0 0

$animation "a_idle" "combineconnector001a_anims\idle.smd" {
	fps 30
}

$sequence "idle" {
	"a_idle"
	fadein 0.2
	fadeout 0.2
	fps 30
}


$collisionmodel "combineconnector001a_physics.smd"
{
	$mass 10
	$inertia 1
	$damping 0
	$rotdamping 0
	$rootbone " "
	$concave

}
