// Created by Crowbar 0.56

$modelname "props_combine/combineinnerwall001d.mdl"

$staticprop

$bodygroup "Body"
{
	studio "combineinnerwall001d_reference.smd"
}


$surfaceprop "metal"

$contents "solid"

$illumposition 0 0 0

$cdmaterials "models\props_combine\"

$cbox 0 0 0 0 0 0

$bbox -38.44 -37 -124.757 38.44 37 124.757

$definebone "static_prop" "" 0 0 0 0 0 0 0 0 0 0 0 0

$animation "a_idle" "combineinnerwall001d_anims\idle.smd" {
	fps 30
}

$sequence "idle" {
	"a_idle"
	fadein 0.2
	fadeout 0.2
	fps 30
}


$collisionmodel "combineinnerwall001d_physics.smd"
{
	$mass 2000
	$inertia 1
	$damping 0
	$rotdamping 0
	$rootbone " "
	$concave

}
