// Created by Crowbar 0.56

$modelname "props_combine/combinetower001.mdl"

$staticprop

$bodygroup "Body"
{
	studio "combinetower001_reference.smd"
}

$lod 35
{
	replacemodel "combinetower001_reference.smd" "combinetower001_reference_lod1.smd"
}
$lod 65
{
	replacemodel "combinetower001_reference.smd" "combinetower001_reference_lod2.smd"
}
$lod 155
{
	replacemodel "combinetower001_reference.smd" "combinetower001_reference_lod3.smd"
}

$contents "solid"

$illumposition 0 0 0

$cdmaterials "models\props_combine\"

$cbox 0 0 0 0 0 0

$bbox -97.181 -140.646 -273.755 97.181 140.646 273.755

$definebone "static_prop" "" 0 0 0 0 0 0 0 0 0 0 0 0

$animation "a_idle" "combinetower001_anims\idle.smd" {
	fps 30
}

$sequence "idle" {
	"a_idle"
	fadein 0.2
	fadeout 0.2
	fps 30
}


$collisionmodel "combinetower001_physics.smd"
{
	$mass 0.000181
	$inertia 1
	$damping 0
	$rotdamping 0
	$rootbone " "
	$concave

}
