// Created by Crowbar 0.56

$modelname "props_combine/combine_booth_short01a.mdl"

$staticprop

$bodygroup "Body"
{
	studio "combine_booth_short01a_reference.smd"
}


$surfaceprop "metal"

$contents "solid"

$illumposition 0 0 66

$cdmaterials "models\props_combine\"

$cbox 0 0 0 0 0 0

$bbox -47.683 -64 -30 47.683 64 162

$definebone "static_prop" "" 0 0 0 0 0 0 0 0 0 0 0 0

$animation "a_idle" "combine_booth_short01a_anims\idle.smd" {
	fps 30
}

$sequence "idle" {
	"a_idle"
	fadein 0.2
	fadeout 0.2
	fps 30
}


$collisionmodel "combine_booth_short01a_physics.smd"
{
	$mass 60
	$inertia 1
	$damping 0
	$rotdamping 0
	$rootbone " "
	$concave

}
