// Created by Crowbar 0.56

$modelname "props_combine/combinepipes004.mdl"

$staticprop

$bodygroup "Body"
{
	studio "combinepipes004_reference.smd"
}

$lod 30
{
	replacemodel "combinepipes004_reference.smd" "combinepipes004_reference_lod1.smd"
}
$lod 40
{
	replacemodel "combinepipes004_reference.smd" "combinepipes004_reference_lod2.smd"
}
$lod 50
{
	replacemodel "combinepipes004_reference.smd" "combinepipes004_reference_lod3.smd"
}
$lod 80
{
	replacemodel "combinepipes004_reference.smd" "combinepipes004_reference_lod4.smd"
}

$surfaceprop "metal"

$contents "solid"

$illumposition 0.185 0 0.059

$cdmaterials "models\props_combine\"

$cbox 0 0 0 0 0 0

$bbox -83.91 -17.835 -36.618 83.91 18.205 36.736

$definebone "static_prop" "" 0 0 0 0 0 0 0 0 0 0 0 0

$animation "a_idle" "combinepipes004_anims\idle.smd" {
	fps 30
}

$sequence "idle" {
	"a_idle"
	fadein 0.2
	fadeout 0.2
	fps 30
}


$collisionmodel "combinepipes004_physics.smd"
{
	$mass 70
	$inertia 1
	$damping 0
	$rotdamping 0
	$rootbone " "
	$concave

}
