// Created by Crowbar 0.56

$modelname "props_combine/tempcombinebridge003.mdl"

$staticprop

$bodygroup "Body"
{
	studio "tempcombinebridge003_reference.smd"
}


$surfaceprop "metal"

$contents "solid"

$illumposition 0 0 0

$cdmaterials "models\props_combine\"

$cbox 0 0 0 0 0 0

$bbox -1111.477 -62.19 -332.715 1111.477 62.19 332.715

$definebone "static_prop" "" 0 0 0 0 0 0 0 0 0 0 0 0

$animation "a_idle" "tempcombinebridge003_anims\idle.smd" {
	fps 30
}

$sequence "idle" {
	"a_idle"
	fadein 0.2
	fadeout 0.2
	fps 30
}


$collisionmodel "tempcombinebridge003_physics.smd"
{
	$mass 10
	$inertia 1
	$damping 0
	$rotdamping 0
	$rootbone " "
	$concave

}
