// Created by Crowbar 0.56

$modelname "props_trainstation/cable_1152Connection001b.mdl"

$staticprop

$bodygroup "Body"
{
	studio "cable_1152Connection001b_reference.smd"
}

$lod 50
{
	replacemodel "cable_1152Connection001b_reference.smd" "cable_1152Connection001b_reference_lod1.smd"
}
$lod 55
{
	replacemodel "cable_1152Connection001b_reference.smd" "cable_1152Connection001b_reference_lod2.smd"
}
$lod 60
{
	replacemodel "cable_1152Connection001b_reference.smd" "cable_1152Connection001b_reference_lod3.smd"
}
$lod 65
{
	replacemodel "cable_1152Connection001b_reference.smd" "cable_1152Connection001b_reference_lod4.smd"
}

$surfaceprop "metal"

$contents "solid"

$illumposition -0.003 0 -0.737

$cdmaterials "models\props_trainstation\"

$cbox 0 0 0 0 0 0

$bbox -576.014 -21.855 -65.476 576.014 21.849 64.002

$definebone "static_prop" "" 0 0 0 0 0 0 0 0 0 0 0 0

$animation "a_idle" "cable_1152Connection001b_anims\idle.smd" {
	fps 30
}

$sequence "idle" {
	"a_idle"
	fadein 0.2
	fadeout 0.2
	fps 30
}


$collisionmodel "cable_1152Connection001b_physics.smd"
{
	$mass 1500
	$inertia 1
	$damping 0
	$rotdamping 0
	$rootbone " "
	$concave

}
