// Created by Crowbar 0.56

$modelname "props_trainstation/Column_Arch001a.mdl"

$staticprop

$bodygroup "Body"
{
	studio "Column_Arch001a_reference.smd"
}


$surfaceprop "metal"

$contents "solid"

$illumposition 0 0 0

$cdmaterials "models\props_trainstation\"

$cbox 0 0 0 0 0 0

$bbox -6.502 -128 -53 6.502 128 53

$definebone "static_prop" "" 0 0 0 0 0 0 0 0 0 0 0 0

$animation "a_idle" "Column_Arch001a_anims\idle.smd" {
	fps 30
}

$sequence "idle" {
	"a_idle"
	fadein 0.2
	fadeout 0.2
	fps 30
}


$collisionmodel "Column_Arch001a_physics.smd"
{
	$mass 10
	$inertia 1
	$damping 0
	$rotdamping 0
	$rootbone " "
	$concave

}
