// Created by Crowbar 0.56

$modelname "props_trainstation/mount_connection001a.mdl"

$staticprop

$bodygroup "Body"
{
	studio "mount_connection001a_reference.smd"
}


$surfaceprop "metal"

$contents "solid"

$illumposition 0 0 0

$cdmaterials "models\props_trainstation\"

$cbox 0 0 0 0 0 0

$bbox -28.809 -18.824 -21.77 28.809 18.824 21.77

$definebone "static_prop" "" 0 0 0 0 0 0 0 0 0 0 0 0

$animation "a_idle" "mount_connection001a_anims\idle.smd" {
	fps 30
}

$sequence "idle" {
	"a_idle"
	fadein 0.2
	fadeout 0.2
	fps 30
}


$collisionmodel "mount_connection001a_physics.smd"
{
	$mass 2500
	$inertia 1
	$damping 0
	$rotdamping 0
	$rootbone " "
	$concave

}
