// Created by Crowbar 0.56

$modelname "props_trainstation/pole_448Connection002b.mdl"

$staticprop

$bodygroup "Body"
{
	studio "pole_448Connection002b_reference.smd"
}

$lod 60
{
	replacemodel "pole_448Connection002b_reference.smd" "pole_448Connection002b_reference_lod1.smd"
}
$lod 65
{
	replacemodel "pole_448Connection002b_reference.smd" "pole_448Connection002b_reference_lod2.smd"
}

$surfaceprop "metal"

$contents "solid"

$illumposition 0.015 0 0

$cdmaterials "models\props_trainstation\"

$cbox 0 0 0 0 0 0

$bbox -8 -21.438 -224 8 21.469 224

$definebone "static_prop" "" 0 0 0 0 0 0 0 0 0 0 0 0

$animation "a_idle" "pole_448Connection002b_anims\idle.smd" {
	fps 30
}

$sequence "idle" {
	"a_idle"
	fadein 0.2
	fadeout 0.2
	fps 30
}


$collisionmodel "pole_448Connection002b_physics.smd"
{
	$mass 2500
	$inertia 1
	$damping 0
	$rotdamping 0
	$rootbone " "
	$concave

}
