// Created by Crowbar 0.56

$modelname "props_trainstation/TrackSign07.mdl"

$staticprop

$bodygroup "Body"
{
	studio "TrackSign07_reference.smd"
}


$surfaceprop "metal"

$contents "solid"

$illumposition 0 0 0

$cdmaterials "models\props_trainstation\"

$cbox 0 0 0 0 0 0

$bbox -1.741 -23.199 -52.62 1.741 23.199 52.62

$definebone "static_prop" "" 0 0 0 0 0 0 0 0 0 0 0 0

$animation "a_idle" "TrackSign07_anims\idle.smd" {
	fps 30
}

$sequence "idle" {
	"a_idle"
	fadein 0.2
	fadeout 0.2
	fps 30
}


$collisionmodel "TrackSign07_physics.smd"
{
	$mass 30
	$inertia 1
	$damping 0
	$rotdamping 0
	$rootbone " "
	$concave

}
