// Created by Crowbar 0.56

$modelname "props_trainstation/Traintrack005b.mdl"

$staticprop

$bodygroup "Body"
{
	studio "Traintrack005b_reference.smd"
}


$surfaceprop "metal"

$illumposition -0.166 -0.028 0

$cdmaterials "models\props_trainstation\"

$cbox 0 0 0 0 0 0

$bbox -930.405 -1056.184 -12 930.461 1055.852 12

$definebone "static_prop" "" 0 0 0 0 0 0 0 0 0 0 0 0

$animation "a_idle" "Traintrack005b_anims\idle.smd" {
	fps 30
}

$sequence "idle" {
	"Traintrack005b_anims\idle.smd"
	fadein 0
	fadeout 0
	fps 30
}


$collisionmodel "Traintrack005b_physics.smd"
{
	$mass 10
	$inertia 1
	$damping 0
	$rotdamping 0
	$rootbone " "
	$concave

}
