// Created by Crowbar 0.56

$modelname "props_trainstation/Traintrack002a.mdl"

$staticprop

$bodygroup "Body"
{
	studio "Traintrack002a_reference.smd"
}


$surfaceprop "metal"

$contents "solid"

$illumposition 0 0 0

$cdmaterials "models\props_trainstation\"

$cbox 0 0 0 0 0 0

$bbox -256 -144 -8 256 144 8

$definebone "static_prop" "" 0 0 0 0 0 0 0 0 0 0 0 0

$animation "a_idle" "Traintrack002a_anims\idle.smd" {
	fps 30
}

$sequence "idle" {
	"a_idle"
	fadein 0.2
	fadeout 0.2
	fps 30
}


$collisionmodel "Traintrack002a_physics.smd"
{
	$mass 10
	$inertia 1
	$damping 0
	$rotdamping 0
	$rootbone " "
	$concave

}
