// Created by Crowbar 0.56

$modelname "props_trainstation/trashcan_indoor001a.mdl"

$staticprop

$bodygroup "Body"
{
	studio "trashcan_indoor001a_reference.smd"
}

$lod 20
{
	replacemodel "trashcan_indoor001a_reference.smd" "trashcan_indoor001a_reference_lod1.smd"
}
$lod 25
{
	replacemodel "trashcan_indoor001a_reference.smd" "trashcan_indoor001a_reference_lod2.smd"
}

$surfaceprop "metal"

$contents "solid"

$illumposition 0 0.033 1.086

$cdmaterials "models\props_trainstation\"

$cbox 0 0 0 0 0 0

$bbox -16.01 -15.894 -20.01 15.944 15.894 22.182

$definebone "static_prop" "" 0 0 0 0 0 0 0 0 0 0 0 0

$animation "a_idle" "trashcan_indoor001a_anims\idle.smd" {
	fps 30
}

$sequence "idle" {
	"a_idle"
	fadein 0.2
	fadeout 0.2
	fps 30
}


$collisionmodel "trashcan_indoor001a_physics.smd"
{
	$mass 500
	$inertia 1
	$damping 0
	$rotdamping 0
	$rootbone " "
	$concave

}
