// Created by Crowbar 0.56

$modelname "props_c17/baricade01.mdl"

$staticprop

$bodygroup "Body"
{
	studio "baricade01_reference.smd"
}

$lod 40
{
	replacemodel "baricade01_reference.smd" "baricade01_reference_lod1.smd"
}
$lod 55
{
	replacemodel "baricade01_reference.smd" "baricade01_reference_lod2.smd"
}
$lod 75
{
	replacemodel "baricade01_reference.smd" "baricade01_reference_lod3.smd"
}
$lod 125
{
	replacemodel "baricade01_reference.smd" "baricade01_reference_lod4.smd"
}

$surfaceprop "metal"

$contents "solid"

$illumposition 0 0 0

$cdmaterials "models\props_c17\"

$cbox 0 0 0 0 0 0

$bbox -10.223 -45.386 -21.695 10.223 45.386 21.695

$definebone "static_prop" "" 0 0 0 0 0 0 0 0 0 0 0 0

$animation "a_idle" "baricade01_anims\idle.smd" {
	fps 30
}

$sequence "idle" {
	"a_idle"
	fadein 0.2
	fadeout 0.2
	fps 30
}


$collisionmodel "baricade01_physics.smd"
{
	$mass 75
	$inertia 1
	$damping 0
	$rotdamping 0
	$rootbone " "
	$concave

}
