// Created by Crowbar 0.56

$modelname "props_c17/building003a_skybox.mdl"

$staticprop

$bodygroup "Body"
{
	studio "building003a_skybox_reference.smd"
}


$surfaceprop "concrete"

$contents "solid"

$illumposition 0 0 0

$cdmaterials "models\props_c17\"

$cbox 0 0 0 0 0 0

$bbox -13.926 -12.715 -71.966 13.926 12.715 71.966

$definebone "static_prop" "" 0 0 0 0 0 0 0 0 0 0 0 0

$animation "a_idle" "building003a_skybox_anims\idle.smd" {
	fps 5
	loop
}

$sequence "idle" {
	"a_idle"
	fadein 0.2
	fadeout 0.2
	fps 5
	loop
}

