// Created by Crowbar 0.56

$modelname "props_c17/canisterchunk01k.mdl"

$staticprop

$bodygroup "Body"
{
	studio "canisterchunk01k_reference.smd"
}


$surfaceprop "metalpanel"

$contents "solid"

$illumposition 3.755 -0.546 -11.874

$cdmaterials "models\props_c17\"

$cbox 0 0 0 0 0 0

$bbox -1.034 2.353 -13.474 2.126 5.157 -10.275

$definebone "static_prop" "" 0 0 0 0 0 0 0 0 0 0 0 0

$animation "a_idle" "canisterchunk01k_anims\idle.smd" {
	fps 30
}

$sequence "idle" {
	"a_idle"
	fadein 0.2
	fadeout 0.2
	fps 30
}


$collisionmodel "canisterchunk01k_physics.smd"
{
	$mass 0.14756
	$inertia 1
	$damping 0
	$rotdamping 0
	$rootbone " "
	$concave

}
