// Created by Crowbar 0.56

$modelname "props_c17/canister_propanechunk02i.mdl"

$staticprop

$bodygroup "Body"
{
	studio "canister_propanechunk02i_reference.smd"
}


$surfaceprop "metalpanel"

$contents "solid"

$illumposition -7.422 2.595 13.859

$cdmaterials "models\props_c17\"

$cbox 0 0 0 0 0 0

$bbox -4.35 -9.747 4.576 -0.839 -5.097 23.141

$definebone "static_prop" "" 0 0 0 0 0 0 0 0 0 0 0 0

$animation "a_idle" "canister_propanechunk02i_anims\idle.smd" {
	fps 30
}

$sequence "idle" {
	"a_idle"
	fadein 0.2
	fadeout 0.2
	fps 30
}


$collisionmodel "canister_propanechunk02i_physics.smd"
{
	$mass 1.086889
	$inertia 1
	$damping 0
	$rotdamping 0
	$rootbone " "
	$concave

}
