// Created by Crowbar 0.56

$modelname "props_c17/canisterchunk01e.mdl"

$staticprop

$bodygroup "Body"
{
	studio "canisterchunk01e_reference.smd"
}


$surfaceprop "metalpanel"

$contents "solid"

$illumposition 3.629 3.3 13.049

$cdmaterials "models\props_c17\"

$cbox 0 0 0 0 0 0

$bbox -4.145 1.498 10.322 -2.454 5.76 15.776

$definebone "static_prop" "" 0 0 0 0 0 0 0 0 0 0 0 0

$animation "a_idle" "canisterchunk01e_anims\idle.smd" {
	fps 30
}

$sequence "idle" {
	"a_idle"
	fadein 0.2
	fadeout 0.2
	fps 30
}


$collisionmodel "canisterchunk01e_physics.smd"
{
	$mass 0.164313
	$inertia 1
	$damping 0
	$rotdamping 0
	$rootbone " "
	$concave

}
