// Created by Crowbar 0.56

$modelname "props_c17/canisterchunk02m.mdl"

$staticprop

$bodygroup "Body"
{
	studio "canisterchunk02m_reference.smd"
}


$surfaceprop "metalpanel"

$contents "solid"

$illumposition -1.08 -0.055 -23.912

$cdmaterials "models\props_c17\"

$cbox 0 0 0 0 0 0

$bbox -3.77 -3.865 -26.049 3.881 1.704 -21.775

$definebone "static_prop" "" 0 0 0 0 0 0 0 0 0 0 0 0

$animation "a_idle" "canisterchunk02m_anims\idle.smd" {
	fps 30
}

$sequence "idle" {
	"a_idle"
	fadein 0.2
	fadeout 0.2
	fps 30
}


$collisionmodel "canisterchunk02m_physics.smd"
{
	$mass 0.585745
	$inertia 1
	$damping 0
	$rotdamping 0
	$rootbone " "
	$concave

}
