// Created by Crowbar 0.56

$modelname "props_c17/car03a.mdl"

$staticprop

$bodygroup "Body"
{
	studio "car03a_reference.smd"
}


$surfaceprop "metalpanel"

$contents "solid"

$illumposition 1.918 0 -1.041

$cdmaterials "models\props_c17\"

$cbox 0 0 0 0 0 0

$bbox -86.133 -37.136 -30.467 86.133 40.972 28.385

$definebone "static_prop" "" 0 0 0 0 0 0 0 0 0 0 0 0

$animation "a_idle" "car03a_anims\idle.smd" {
	fps 30
}

$sequence "idle" {
	"a_idle"
	fadein 0.2
	fadeout 0.2
	fps 30
}


$collisionmodel "car03a_physics.smd"
{
	$mass 500
	$inertia 1
	$damping 0
	$rotdamping 0
	$rootbone " "
	$concave

}
