// Created by Crowbar 0.56

$modelname "props_c17/car_mini01.mdl"

$staticprop

$bodygroup "Body"
{
	studio "car_mini01_reference.smd"
}

$lod 35
{
	replacemodel "car_mini01_reference.smd" "car_mini01_reference_lod1.smd"
}
$lod 70
{
	replacemodel "car_mini01_reference.smd" "car_mini01_reference_lod2.smd"
}
$lod 100
{
	replacemodel "car_mini01_reference.smd" "car_mini01_reference_lod3.smd"
}
$lod 200
{
	replacemodel "car_mini01_reference.smd" "car_mini01_reference_lod4.smd"
}

$surfaceprop "metal"

$contents "solid"

$illumposition 0 -13.85 30

$cdmaterials "models\props_c17\"

$cbox 0 0 0 0 0 0

$bbox -65.3 -37.745 0.009 93 37.745 59.991

$definebone "static_prop" "" 0 0 0 0 0 0 0 0 0 0 0 0

$animation "a_idle" "car_mini01_anims\idle.smd" {
	fps 30
}

$sequence "idle" {
	"a_idle"
	fadein 0.2
	fadeout 0.2
	fps 30
}


$collisionmodel "car_mini01_physics.smd"
{
	$mass 1500
	$inertia 1
	$damping 0
	$rotdamping 0
	$rootbone " "
	$concave

}
