// Created by Crowbar 0.56

$modelname "props_c17/chair01a.mdl"

$staticprop

$bodygroup "Body"
{
	studio "chair01a_reference.smd"
}

$lod 30
{
	replacemodel "chair01a_reference.smd" "chair01a_reference_lod1.smd"
}
$lod 40
{
	replacemodel "chair01a_reference.smd" "chair01a_reference_lod2.smd"
}
$lod 50
{
	replacemodel "chair01a_reference.smd" "chair01a_reference_lod3.smd"
}
$lod 90
{
	replacemodel "chair01a_reference.smd" "chair01a_reference_lod4.smd"
}

$surfaceprop "woodpanel"

$contents "solid"

$illumposition 0 0 0

$cdmaterials "models\props_c17\"

$cbox 0 0 0 0 0 0

$bbox -11.331 -12.565 -19.451 11.331 12.566 19.451

$definebone "static_prop" "" 0 0 0 0 0 0 0 0 0 0 0 0

$animation "a_idle" "chair01a_anims\idle.smd" {
	fps 30
}

$sequence "idle" {
	"a_idle"
	fadein 0.2
	fadeout 0.2
	fps 30
}


$collisionmodel "chair01a_physics.smd"
{
	$mass 20
	$inertia 1
	$damping 0
	$rotdamping 0
	$rootbone " "
	$concave

}
