// Created by Crowbar 0.56

$modelname "props_c17/church_bell001.mdl"

$staticprop

$bodygroup "Body"
{
	studio "church_bell001_reference.smd"
}

$lod 30
{
	replacemodel "church_bell001_reference.smd" "church_bell001_reference_lod1.smd"
}
$lod 40
{
	replacemodel "church_bell001_reference.smd" "church_bell001_reference_lod2.smd"
}
$lod 50
{
	replacemodel "church_bell001_reference.smd" "church_bell001_reference_lod3.smd"
}
$lod 90
{
	replacemodel "church_bell001_reference.smd" "church_bell001_reference_lod4.smd"
}

$contents "solid"

$illumposition 0 0 16.955

$cdmaterials "models\props_c17\"

$cbox 0 0 0 0 0 0

$bbox -16.871 -16.871 0.008 16.871 16.871 33.903

$definebone "static_prop" "" 0 0 0 0 0 0 0 0 0 0 0 0

$animation "a_idle" "church_bell001_anims\idle.smd" {
	fps 30
}

$sequence "idle" {
	"a_idle"
	fadein 0.2
	fadeout 0.2
	fps 30
}


$collisionmodel "church_bell001_physics.smd"
{
	$mass 20
	$inertia 1
	$damping 0
	$rotdamping 0
	$rootbone " "
	$concave

}
