// Created by Crowbar 0.56

$modelname "props_c17/ColumnTop002a.mdl"

$staticprop

$bodygroup "Body"
{
	studio "ColumnTop002a_reference.smd"
}


$surfaceprop "concrete"

$contents "solid"

$illumposition 0 0 0

$cdmaterials "models\props_c17\"

$cbox 0 0 0 0 0 0

$bbox -23 -23 -64 23 23 64

$definebone "static_prop" "" 0 0 0 0 0 0 0 0 0 0 0 0

$animation "a_idle" "ColumnTop002a_anims\idle.smd" {
	fps 30
}

$sequence "idle" {
	"a_idle"
	fadein 0.2
	fadeout 0.2
	fps 30
}


$collisionmodel "ColumnTop002a_physics.smd"
{
	$mass 600
	$inertia 1
	$damping 0
	$rotdamping 0
	$rootbone " "
	$concave

}
