// Created by Crowbar 0.56

$modelname "props_c17/ColumnMiddle002c.mdl"

$staticprop

$bodygroup "Body"
{
	studio "ColumnMiddle002c_reference.smd"
}


$surfaceprop "concrete"

$contents "solid"

$illumposition 0 0 0

$cdmaterials "models\props_c17\"

$cbox 0 0 0 0 0 0

$bbox -19 -19 -64 19 19 64

$definebone "static_prop" "" 0 0 0 0 0 0 0 0 0 0 0 0

$animation "a_idle" "ColumnMiddle002c_anims\idle.smd" {
	fps 30
}

$sequence "idle" {
	"a_idle"
	fadein 0.2
	fadeout 0.2
	fps 30
}


$collisionmodel "ColumnMiddle002c_physics.smd"
{
	$mass 600
	$inertia 1
	$damping 0
	$rotdamping 0
	$rootbone " "
	$concave

}
