// Created by Crowbar 0.56

$modelname "props_c17/ColumnMiddle001c.mdl"

$staticprop

$bodygroup "Body"
{
	studio "ColumnMiddle001c_reference.smd"
}


$surfaceprop "concrete"

$contents "solid"

$illumposition 0 0 0

$cdmaterials "models\props_c17\"

$cbox 0 0 0 0 0 0

$bbox -19.833 -19.833 -64 19.833 19.833 64

$definebone "static_prop" "" 0 0 0 0 0 0 0 0 0 0 0 0

$animation "a_idle" "ColumnMiddle001c_anims\idle.smd" {
	fps 30
}

$sequence "idle" {
	"a_idle"
	fadein 0.2
	fadeout 0.2
	fps 30
}

