// Created by Crowbar 0.56

$modelname "props_c17/consolebox04a.mdl"

$staticprop

$bodygroup "Body"
{
	studio "consolebox04a_reference.smd"
}

$lod 120
{
	replacemodel "consolebox04a_reference.smd" "consolebox04a_reference_lod1.smd"
}

$surfaceprop "metalpanel"

$contents "solid"

$illumposition 0.178 0.028 3.683

$cdmaterials "models\props_c17\"

$cbox 0 0 0 0 0 0

$bbox -14.35 -10.307 0.122 14.294 10.664 7.245

$definebone "static_prop" "" 0 0 0 0 0 0 0 0 0 0 0 0

$animation "a_idle" "consolebox04a_anims\idle.smd" {
	fps 30
}

$sequence "idle" {
	"a_idle"
	fadein 0.2
	fadeout 0.2
	fps 30
}


$collisionmodel "consolebox04a_physics.smd"
{
	$mass 50
	$inertia 1
	$damping 0
	$rotdamping 0
	$rootbone " "
	$concave

}
