// Created by Crowbar 0.56

$modelname "props_c17/doorhandle01.mdl"

$staticprop

$bodygroup "Body"
{
	studio "doorhandle01_reference.smd"
}

$lod 30
{
	replacemodel "doorhandle01_reference.smd" "doorhandle01_reference_lod1.smd"
}
$lod 40
{
	replacemodel "doorhandle01_reference.smd" "doorhandle01_reference_lod2.smd"
}
$lod 50
{
	replacemodel "doorhandle01_reference.smd" "doorhandle01_reference_lod3.smd"
}
$lod 90
{
	replacemodel "doorhandle01_reference.smd" "doorhandle01_reference_lod4.smd"
}

$surfaceprop "metalpanel"

$contents "solid"

$illumposition 0 0 0

$cdmaterials "models\props_c17\"

$cbox 0 0 0 0 0 0

$bbox -1.075 -0.361 -3.845 1.075 0.361 3.845

$definebone "static_prop" "" 0 0 0 0 0 0 0 0 0 0 0 0

$animation "a_idle" "doorhandle01_anims\idle.smd" {
	fps 30
}

$sequence "idle" {
	"a_idle"
	fadein 0.2
	fadeout 0.2
	fps 30
}


$collisionmodel "doorhandle01_physics.smd"
{
	$mass 50
	$inertia 1
	$damping 0
	$rotdamping 0
	$rootbone " "
	$concave

}
