// Created by Crowbar 0.56

$modelname "props_c17/furnitureStove001a.mdl"

$staticprop

$bodygroup "Body"
{
	studio "furnitureStove001a_reference.smd"
}

$lod 10
{
	replacemodel "furnitureStove001a_reference.smd" "furnitureStove001a_reference_lod1.smd"
}
$lod 40
{
	replacemodel "furnitureStove001a_reference.smd" "furnitureStove001a_reference_lod2.smd"
}
$lod 60
{
	replacemodel "furnitureStove001a_reference.smd" "furnitureStove001a_reference_lod3.smd"
}

$surfaceprop "metal"

$contents "solid"

$illumposition 0 0 0

$cdmaterials "models\props_c17\"

$cbox 0 0 0 0 0 0

$bbox -17.534 -26.113 -20.052 17.534 26.113 20.052

$definebone "static_prop" "" 0 0 0 0 0 0 0 0 0 0 0 0

$animation "a_idle" "furnitureStove001a_anims\idle.smd" {
	fps 30
}

$sequence "idle" {
	"a_idle"
	fadein 0.2
	fadeout 0.2
	fps 30
}


$collisionmodel "furnitureStove001a_physics.smd"
{
	$mass 3000
	$inertia 1
	$damping 0
	$rotdamping 0
	$rootbone " "
	$concave

}
