// Created by Crowbar 0.56

$modelname "props_c17/FurnitureDrawer001a_Chunk02.mdl"

$staticprop

$bodygroup "Body"
{
	studio "FurnitureDrawer001a_Chunk02_reference.smd"
}


$surfaceprop "wood"

$contents "solid"

$illumposition -10.927 0.562 -5.272

$cdmaterials "models\props_c17\"

$cbox 0 0 0 0 0 0

$bbox -13.081 -20.86 -8.684 11.958 -0.994 -1.861

$definebone "static_prop" "" 0 0 0 0 0 0 0 0 0 0 0 0

$animation "a_idle" "FurnitureDrawer001a_Chunk02_anims\idle.smd" {
	fps 30
}

$sequence "idle" {
	"a_idle"
	fadein 0.2
	fadeout 0.2
	fps 30
}


$collisionmodel "FurnitureDrawer001a_Chunk02_physics.smd"
{
	$mass 30
	$inertia 1
	$damping 0
	$rotdamping 0
	$rootbone " "
	$concave

}
