// Created by Crowbar 0.56

$modelname "props_c17/FurnitureDrawer001a.mdl"

$staticprop

$bodygroup "Body"
{
	studio "FurnitureDrawer001a_reference.smd"
}

$lod 10
{
	replacemodel "FurnitureDrawer001a_reference.smd" "FurnitureDrawer001a_reference_lod1.smd"
}
$lod 25
{
	replacemodel "FurnitureDrawer001a_reference.smd" "FurnitureDrawer001a_reference_lod2.smd"
}
$lod 35
{
	replacemodel "FurnitureDrawer001a_reference.smd" "FurnitureDrawer001a_reference_lod3.smd"
}

$surfaceprop "wood"

$contents "solid"

$illumposition -0.311 -0.078 0

$cdmaterials "models\props_c17\"

$cbox 0 0 0 0 0 0

$bbox -13.806 -23.525 -19.801 13.962 22.903 19.801

$definebone "static_prop" "" 0 0 0 0 0 0 0 0 0 0 0 0

$animation "a_idle" "FurnitureDrawer001a_anims\idle.smd" {
	fps 30
}

$sequence "idle" {
	"a_idle"
	fadein 0.2
	fadeout 0.2
	fps 30
}


$collisionmodel "FurnitureDrawer001a_physics.smd"
{
	$mass 50
	$inertia 1
	$damping 0
	$rotdamping 0
	$rootbone " "
	$concave

}

$collisiontext
{
	break 
	{
		"model" "props_c17/FurnitureDrawer001a_Chunk01"
		"health" "100"
		"fadetime" "30"
		"offset" "15 0 -10"
	}
	break 
	{
		"model" "props_c17/FurnitureDrawer001a_Chunk02"
		"health" "100"
		"fadetime" "30"
		"offset" "25 25 0"
	}
	break 
	{
		"model" "props_c17/FurnitureDrawer001a_Chunk03"
		"health" "100"
		"fadetime" "30"
		"offset" "0 0 8"
	}
	break 
	{
		"model" "props_c17/FurnitureDrawer001a_Chunk01"
		"health" "100"
		"fadetime" "30"
		"offset" "12 0 0"
	}
	break 
	{
		"model" "props_c17/FurnitureDrawer001a_Chunk02"
		"health" "100"
		"fadetime" "30"
		"offset" "19 0 0"
	}
	break 
	{
		"model" "props_c17/FurnitureDrawer001a_Chunk04"
		"health" "100"
		"fadetime" "30"
		"offset" "0 -5 0"
	}
	break 
	{
		"model" "props_c17/FurnitureDrawer001a_Chunk04"
		"health" "100"
		"fadetime" "30"
		"offset" "0 45 0"
	}
	break 
	{
		"model" "props_c17/FurnitureDrawer001a_Chunk05"
		"health" "100"
		"fadetime" "30"
	}
	break 
	{
		"model" "props_c17/FurnitureDrawer001a_Chunk06"
		"health" "100"
		"fadetime" "30"
	}
	break 
	{
		"model" "props_debris/wood_splinters01a"
		"health" "10"
		"fadetime" "2"
	}
	break 
	{
		"model" "props_debris/wood_splinters01b"
		"health" "10"
		"fadetime" "2"
	}
	break 
	{
		"model" "props_debris/wood_splinters01c"
		"health" "10"
		"fadetime" "2"
	}
	break 
	{
		"model" "props_debris/wood_splinters01d"
		"health" "10"
		"fadetime" "2"
	}
	break 
	{
		"model" "props_debris/wood_splinters01e"
		"health" "10"
		"fadetime" "2"
	}
	break 
	{
		"model" "props_debris/wood_splinters01a"
		"health" "10"
		"fadetime" "2"
		"offset" "30 0 0"
	}
	break 
	{
		"model" "props_debris/wood_splinters01b"
		"health" "10"
		"fadetime" "2"
		"offset" "30 0 0"
	}
	break 
	{
		"model" "props_debris/wood_splinters01c"
		"health" "10"
		"fadetime" "2"
		"offset" "30 0 0"
	}
	break 
	{
		"model" "props_debris/wood_splinters01d"
		"health" "10"
		"fadetime" "2"
		"offset" "30 0 0"
	}
	break 
	{
		"model" "props_debris/wood_splinters01e"
		"health" "10"
		"fadetime" "2"
		"offset" "30 0 0"
		 "break" 
		{
			"model" "props_debris/wood_splinters01a"
			"health" "10"
			"fadetime" "2"
			"offset" "30 10 0"
		}
		"break" 
		{
			"model" "props_debris/wood_splinters01b"
			"health" "10"
			"fadetime" "2"
			"offset" "30 10 0"
		}
		"break" 
		{
			"model" "props_debris/wood_splinters01c"
			"health" "10"
			"fadetime" "2"
			"offset" "30 10 0"
		}
		"break" 
		{
			"model" "props_debris/wood_splinters01d"
			"health" "10"
			"fadetime" "2"
			"offset" "30 10 0"
		}
		"break" 
		{
			"model" "props_debris/wood_splinters01e"
			"health" "10"
			"fadetime" "2"
			"offset" "-30 10 0"
		}
	}
}
