// Created by Crowbar 0.56

$modelname "props_c17/FurnitureChair001a_Chunk03.mdl"

$staticprop

$bodygroup "Body"
{
	studio "FurnitureChair001a_Chunk03_reference.smd"
}


$surfaceprop "wood"

$contents "solid"

$illumposition 6.873 -2.909 -9.409

$cdmaterials "models\props_c17\"

$cbox 0 0 0 0 0 0

$bbox -4.286 4.114 -19.904 10.104 9.633 1.086

$definebone "static_prop" "" 0 0 0 0 0 0 0 0 0 0 0 0

$animation "a_idle" "FurnitureChair001a_Chunk03_anims\idle.smd" {
	fps 30
}

$sequence "idle" {
	"a_idle"
	fadein 0.2
	fadeout 0.2
	fps 30
}


$collisionmodel "FurnitureChair001a_Chunk03_physics.smd"
{
	$mass 20
	$inertia 1
	$damping 0
	$rotdamping 0
	$rootbone " "
	$concave

}
