// Created by Crowbar 0.56

$modelname "props_c17/FurnitureCouch003a.mdl"

$staticprop

$bodygroup "Body"
{
	studio "FurnitureCouch003a_reference.smd"
}

$lod 30
{
	replacemodel "FurnitureCouch003a_reference.smd" "FurnitureCouch003a_reference_lod1.smd"
}
$lod 60
{
	replacemodel "FurnitureCouch003a_reference.smd" "FurnitureCouch003a_reference_lod2.smd"
}
$lod 80
{
	replacemodel "FurnitureCouch003a_reference.smd" "FurnitureCouch003a_reference_lod3.smd"
}

$surfaceprop "dirt"

$contents "solid"

$illumposition 0 0 0

$cdmaterials "models\props_c17\"

$texturegroup "skinfamilies"
{
	{ "FurnitureFabric001a" }
	{ "FurnitureFabric002a" }
	{ "FurnitureFabric003a" }
}

$cbox 0 0 0 0 0 0

$bbox -16.159 -42.131 -19.547 16.159 42.131 19.547

$definebone "static_prop" "" 0 0 0 0 0 0 0 0 0 0 0 0

$animation "a_idle" "FurnitureCouch003a_anims\idle.smd" {
	fps 30
}

$sequence "idle" {
	"a_idle"
	fadein 0.2
	fadeout 0.2
	fps 30
}


$collisionmodel "FurnitureCouch003a_physics.smd"
{
	$mass 700
	$inertia 1
	$damping 0
	$rotdamping 0
	$rootbone " "
	$concave

}
