// Created by Crowbar 0.56

$modelname "props_c17/FurnitureChair001a_Chunk01.mdl"

$staticprop

$bodygroup "Body"
{
	studio "FurnitureChair001a_Chunk01_reference.smd"
}


$surfaceprop "wood"

$contents "solid"

$illumposition 0.037 2.198 -0.003

$cdmaterials "models\props_c17\"

$cbox 0 0 0 0 0 0

$bbox -10.217 -9.77 -19.904 5.821 9.843 19.897

$definebone "static_prop" "" 0 0 0 0 0 0 0 0 0 0 0 0

$animation "a_idle" "FurnitureChair001a_Chunk01_anims\idle.smd" {
	fps 30
}

$sequence "idle" {
	"a_idle"
	fadein 0.2
	fadeout 0.2
	fps 30
}


$collisionmodel "FurnitureChair001a_Chunk01_physics.smd"
{
	$mass 20
	$inertia 1
	$damping 0
	$rotdamping 0
	$rootbone " "
	$concave

}
