// Created by Crowbar 0.56

$modelname "props_c17/Handrail04_DoubleRise.mdl"

$staticprop

$bodygroup "Body"
{
	studio "Handrail04_DoubleRise_reference.smd"
}

$lod 30
{
	replacemodel "Handrail04_DoubleRise_reference.smd" "Handrail04_DoubleRise_reference_lod1.smd"
}
$lod 60
{
	replacemodel "Handrail04_DoubleRise_reference.smd" "Handrail04_DoubleRise_reference_lod2.smd"
}

$surfaceprop "metal"

$contents "solid"

$illumposition -0.041 0 0.003

$cdmaterials "models\props_c17\"

$cbox 0 0 0 0 0 0

$bbox -1.002 -100.732 -84.486 1.001 100.651 84.491

$definebone "static_prop" "" 0 0 0 0 0 0 0 0 0 0 0 0

$animation "a_idle" "Handrail04_DoubleRise_anims\idle.smd" {
	fps 30
}

$sequence "idle" {
	"a_idle"
	fadein 0.2
	fadeout 0.2
	fps 30
}


$collisionmodel "Handrail04_DoubleRise_physics.smd"
{
	$mass 222
	$inertia 1
	$damping 0
	$rotdamping 0
	$rootbone " "
	$concave

}
