// Created by Crowbar 0.56

$modelname "props_c17/Handrail02_DoubleRise.mdl"

$staticprop

$bodygroup "Body"
{
	studio "Handrail02_DoubleRise_reference.smd"
}

$lod 10
{
	replacemodel "Handrail02_DoubleRise_reference.smd" "Handrail02_DoubleRise_reference_lod1.smd"
}
$lod 30
{
	replacemodel "Handrail02_DoubleRise_reference.smd" "Handrail02_DoubleRise_reference_lod2.smd"
}

$surfaceprop "metal"

$contents "solid"

$illumposition 0 -0.001 0

$cdmaterials "models\props_c17\"

$cbox 0 0 0 0 0 0

$bbox -1.1 -105.398 -84.491 1.101 105.398 84.491

$definebone "static_prop" "" 0 0 0 0 0 0 0 0 0 0 0 0

$animation "a_idle" "Handrail02_DoubleRise_anims\idle.smd" {
	fps 30
}

$sequence "idle" {
	"a_idle"
	fadein 0.2
	fadeout 0.2
	fps 30
}


$collisionmodel "Handrail02_DoubleRise_physics.smd"
{
	$mass 30
	$inertia 1
	$damping 0
	$rotdamping 0
	$rootbone " "
	$concave

}
