// Created by Crowbar 0.56

$modelname "props_c17/Handrail04_brokenLong.mdl"

$staticprop

$bodygroup "Body"
{
	studio "Handrail04_brokenLong_reference.smd"
}

$lod 30
{
	replacemodel "Handrail04_brokenLong_reference.smd" "Handrail04_brokenLong_reference_lod1.smd"
}
$lod 90
{
	replacemodel "Handrail04_brokenLong_reference.smd" "Handrail04_brokenLong_reference_lod2.smd"
}

$surfaceprop "metalpanel"

$contents "solid"

$illumposition -1.735 -7.416 -1.953

$cdmaterials "models\props_c17\"

$cbox 0 0 0 0 0 0

$bbox -4.983 -64.845 -23.951 19.816 61.374 20.045

$definebone "static_prop" "" 0 0 0 0 0 0 0 0 0 0 0 0

$animation "a_idle" "Handrail04_brokenLong_anims\idle.smd" {
	fps 30
}

$sequence "idle" {
	"a_idle"
	fadein 0.2
	fadeout 0.2
	fps 30
}


$collisionmodel "Handrail04_brokenLong_physics.smd"
{
	$mass 50
	$inertia 1
	$damping 0
	$rotdamping 0
	$rootbone " "
	$concave

}
