// Created by Crowbar 0.56

$modelname "props_c17/lamppost01b.mdl"

$staticprop

$bodygroup "Body"
{
	studio "lamppost01b_reference.smd"
}

$lod 30
{
	replacemodel "lamppost01b_reference.smd" "lamppost01b_reference_lod1.smd"
}
$lod 40
{
	replacemodel "lamppost01b_reference.smd" "lamppost01b_reference_lod2.smd"
}
$lod 50
{
	replacemodel "lamppost01b_reference.smd" "lamppost01b_reference_lod3.smd"
}
$lod 90
{
	replacemodel "lamppost01b_reference.smd" "lamppost01b_reference_lod4.smd"
}

$surfaceprop "metalpanel"

$contents "solid"

$illumposition 0 0 108.292

$cdmaterials "models\props_c17\"

$cbox 0 0 0 0 0 0

$bbox -5.425 -5.425 -0.001 5.425 5.425 216.584

$definebone "static_prop" "" 0 0 0 0 0 0 0 0 0 0 0 0

$animation "a_idle" "lamppost01b_anims\idle.smd" {
	fps 30
}

$sequence "idle" {
	"a_idle"
	fadein 0.2
	fadeout 0.2
	fps 30
}


$collisionmodel "lamppost01b_physics.smd"
{
	$mass 50
	$inertia 1
	$damping 0
	$rotdamping 0
	$rootbone " "
	$concave

}
