// Created by Crowbar 0.56

$modelname "props_c17/lamp_bracket01.mdl"

$staticprop

$bodygroup "Body"
{
	studio "lamp_bracket01_reference.smd"
}

$lod 30
{
	replacemodel "lamp_bracket01_reference.smd" "lamp_bracket01_reference_lod1.smd"
}
$lod 40
{
	replacemodel "lamp_bracket01_reference.smd" "lamp_bracket01_reference_lod2.smd"
}
$lod 50
{
	replacemodel "lamp_bracket01_reference.smd" "lamp_bracket01_reference_lod3.smd"
}
$lod 90
{
	replacemodel "lamp_bracket01_reference.smd" "lamp_bracket01_reference_lod4.smd"
}

$contents "solid"

$illumposition 0 16.5 -16

$cdmaterials "models\props_c17\"

$cbox 0 0 0 0 0 0

$bbox -42 -2.5 -48 9 2.5 16

$definebone "static_prop" "" 0 0 0 0 0 0 0 0 0 0 0 0

$animation "a_idle" "lamp_bracket01_anims\idle.smd" {
	fps 30
}

$sequence "idle" {
	"a_idle"
	fadein 0.2
	fadeout 0.2
	fps 30
}


$collisionmodel "lamp_bracket01_physics.smd"
{
	$mass 50
	$inertia 1
	$damping 0
	$rotdamping 0
	$rootbone " "
	$concave

}
