// Created by Crowbar 0.56

$modelname "props_c17/lamppost01a_bent.mdl"

$staticprop

$bodygroup "Body"
{
	studio "lamppost01a_bent_reference.smd"
}

$lod 30
{
	replacemodel "lamppost01a_bent_reference.smd" "lamppost01a_bent_reference_lod1.smd"
}
$lod 60
{
	replacemodel "lamppost01a_bent_reference.smd" "lamppost01a_bent_reference_lod2.smd"
}
$lod 80
{
	replacemodel "lamppost01a_bent_reference.smd" "lamppost01a_bent_reference_lod3.smd"
}
$lod 100
{
	replacemodel "lamppost01a_bent_reference.smd" "lamppost01a_bent_reference_lod4.smd"
}

$surfaceprop "metalpanel"

$contents "solid"

$illumposition 54.256 8.191 165.467

$cdmaterials "models\props_c17\"

$cbox 0 0 0 0 0 0

$bbox -23.382 -7 0 7 115.512 330.934

$definebone "static_prop" "" 0 0 0 0 0 0 0 0 0 0 0 0

$animation "a_idle" "lamppost01a_bent_anims\idle.smd" {
	fps 30
}

$sequence "idle" {
	"a_idle"
	fadein 0.2
	fadeout 0.2
	fps 30
}


$collisionmodel "lamppost01a_bent_physics.smd"
{
	$mass 50
	$inertia 1
	$damping 0
	$rotdamping 0
	$rootbone " "
	$concave

}
