// Created by Crowbar 0.56

$modelname "props_c17/light_cagelight02_off.mdl"

$staticprop

$bodygroup "Body"
{
	studio "light_cagelight02_off_reference.smd"
}

$lod 30
{
	replacemodel "light_cagelight02_off_reference.smd" "light_cagelight02_off_reference_lod1.smd"
}
$lod 90
{
	replacemodel "light_cagelight02_off_reference.smd" "light_cagelight02_off_reference_lod2.smd"
}

$surfaceprop "metalpanel"

$contents "solid"

$illumposition 0 -3.587 -4.676

$cdmaterials "models\props_c17\"

$cbox 0 0 0 0 0 0

$bbox -0.027 -2.898 -10.503 7.202 2.898 1.152

$definebone "static_prop" "" 0 0 0 0 0 0 0 0 0 0 0 0

$animation "a_idle" "light_cagelight02_off_anims\idle.smd" {
	fps 30
}

$sequence "idle" {
	"a_idle"
	fadein 0.2
	fadeout 0.2
	fps 30
}


$collisionmodel "light_cagelight02_off_physics.smd"
{
	$mass 500
	$inertia 1
	$damping 0
	$rotdamping 0
	$rootbone " "
	$concave

}
