// Created by Crowbar 0.56

$modelname "props_c17/light_globelight01_off.mdl"

$staticprop

$bodygroup "Body"
{
	studio "light_globelight01_off_reference.smd"
}

$lod 160
{
	replacemodel "light_globelight01_off_reference.smd" "light_globelight01_off_reference_lod1.smd"
}

$surfaceprop "metalpanel"

$contents "solid"

$illumposition 0 1.278 0

$cdmaterials "models\props_c17\"

$cbox 0 0 0 0 0 0

$bbox -6.806 -6.469 -6.635 4.251 6.469 6.635

$definebone "static_prop" "" 0 0 0 0 0 0 0 0 0 0 0 0

$animation "a_idle" "light_globelight01_off_anims\idle.smd" {
	fps 30
}

$sequence "idle" {
	"a_idle"
	fadein 0.2
	fadeout 0.2
	fps 30
}


$collisionmodel "light_globelight01_off_physics.smd"
{
	$mass 20
	$inertia 1
	$damping 0
	$rotdamping 0
	$rootbone " "
	$concave

}
