// Created by Crowbar 0.56

$modelname "props_c17/light_lightbare01_off.mdl"

$staticprop

$bodygroup "Body"
{
	studio "light_lightbare01_off_reference.smd"
}


$surfaceprop "metalpanel"

$contents "solid"

$illumposition -0.007 -0.042 29.509

$cdmaterials "models\props_c17\"

$cbox 0 0 0 0 0 0

$bbox -1.25 -1.257 -0.49 1.335 1.243 59.508

$definebone "static_prop" "" 0 0 0 0 0 0 0 0 0 0 0 0

$animation "a_idle" "light_lightbare01_off_anims\idle.smd" {
	fps 30
}

$sequence "idle" {
	"a_idle"
	fadein 0.2
	fadeout 0.2
	fps 30
}


$collisionmodel "light_lightbare01_off_physics.smd"
{
	$mass 20
	$inertia 1
	$damping 0
	$rotdamping 0
	$rootbone " "
	$concave

}
