// Created by Crowbar 0.56

$modelname "props_c17/metalPot002a.mdl"

$staticprop

$bodygroup "Body"
{
	studio "metalPot002a_reference.smd"
}

$lod 10
{
	replacemodel "metalPot002a_reference.smd" "metalPot002a_reference_lod1.smd"
}
$lod 30
{
	replacemodel "metalPot002a_reference.smd" "metalPot002a_reference_lod2.smd"
}

$surfaceprop "metal"

$contents "solid"

$illumposition 0.03 -0.045 0.055

$cdmaterials "models\props_c17\"

$cbox 0 0 0 0 0 0

$bbox -13.224 -6.996 -1.413 13.315 7.056 1.523

$definebone "static_prop" "" 0 0 0 0 0 0 0 0 0 0 0 0

$animation "a_idle" "metalPot002a_anims\idle.smd" {
	fps 30
}

$sequence "idle" {
	"a_idle"
	fadein 0.2
	fadeout 0.2
	fps 30
}


$collisionmodel "metalPot002a_physics.smd"
{
	$mass 3
	$inertia 1
	$damping 0
	$rotdamping 0
	$rootbone " "
	$concave

}
