// Created by Crowbar 0.56

$modelname "props_c17/metalsign001a_chunk05.mdl"

$staticprop

$bodygroup "Body"
{
	studio "metalsign001a_chunk05_reference.smd"
}


$surfaceprop "metal"

$contents "solid"

$illumposition 0 0 0

$cdmaterials "models\props_c17\"

$attachment "placementOrigin" "static_prop" 17.47 -15.89 37 rotate 0 90 0
$attachment "placementOrigin" "static_prop" -15.86 -17.44 37.02 rotate 0 0 0

$cbox 0 0 0 0 0 0

$bbox -3.973 -6.727 -4.858 3.973 6.728 4.858

$definebone "static_prop" "" 0 0 0 0 0 0 0 0 0 0 0 0

$animation "a_idle" "metalsign001a_chunk05_anims\idle.smd" {
	fps 30
}

$sequence "idle" {
	"a_idle"
	fadein 0.2
	fadeout 0.2
	fps 30
}


$collisionmodel "metalsign001a_chunk05_physics.smd"
{
	$mass 5
	$inertia 1
	$damping 0
	$rotdamping 0
	$rootbone " "
	$concave

}
