// Created by Crowbar 0.56

$modelname "props_c17/parkingmeter01.mdl"

$staticprop

$bodygroup "Body"
{
	studio "parkingmeter01_reference.smd"
}


$surfaceprop "metalpanel"

$contents "solid"

$illumposition -0.009 -0.997 0.071

$cdmaterials "models\props_c17\"

$cbox 0 0 0 0 0 0

$bbox -1.405 -3.718 -6.695 3.399 3.701 6.837

$definebone "static_prop" "" 0 0 0 0 0 0 0 0 0 0 0 0

$animation "a_idle" "parkingmeter01_anims\idle.smd" {
	fps 30
}

$sequence "idle" {
	"a_idle"
	fadein 0.2
	fadeout 0.2
	fps 30
}


$collisionmodel "parkingmeter01_physics.smd"
{
	$mass 500
	$inertia 1
	$damping 0
	$rotdamping 0
	$rootbone " "
	$concave

}
