// Created by Crowbar 0.56

$modelname "props_c17/pipe_cap004.mdl"

$staticprop

$bodygroup "Body"
{
	studio "pipe_cap004_reference.smd"
}

$lod 30
{
	replacemodel "pipe_cap004_reference.smd" "pipe_cap004_reference_lod1.smd"
}
$lod 40
{
	replacemodel "pipe_cap004_reference.smd" "pipe_cap004_reference_lod2.smd"
}
$lod 50
{
	replacemodel "pipe_cap004_reference.smd" "pipe_cap004_reference_lod3.smd"
}
$lod 90
{
	replacemodel "pipe_cap004_reference.smd" "pipe_cap004_reference_lod4.smd"
}

$surfaceprop "metalpanel"

$contents "solid"

$illumposition 0 -3 0

$cdmaterials "models\props_c17\"

$cbox 0 0 0 0 0 0

$bbox 0 -7 -7 6 7 7

$definebone "static_prop" "" 0 0 0 0 0 0 0 0 0 0 0 0

$animation "a_idle" "pipe_cap004_anims\idle.smd" {
	fps 30
}

$sequence "idle" {
	"a_idle"
	fadein 0.2
	fadeout 0.2
	fps 30
}


$collisionmodel "pipe_cap004_physics.smd"
{
	$mass 50
	$inertia 1
	$damping 0
	$rotdamping 0
	$rootbone " "
	$concave

}
