// Created by Crowbar 0.56

$modelname "props_c17/pipe02_yjoint02.mdl"

$staticprop

$bodygroup "Body"
{
	studio "pipe02_yjoint02_reference.smd"
}


$surfaceprop "metalpanel"

$contents "solid"

$illumposition 1.692 0.01 0

$cdmaterials "models\props_c17\"

$cbox 0 0 0 0 0 0

$bbox -9.394 -6.544 -5.863 9.374 9.929 5.863

$definebone "static_prop" "" 0 0 0 0 0 0 0 0 0 0 0 0

$animation "a_idle" "pipe02_yjoint02_anims\idle.smd" {
	fps 30
}

$sequence "idle" {
	"a_idle"
	fadein 0.2
	fadeout 0.2
	fps 30
}


$collisionmodel "pipe02_yjoint02_physics.smd"
{
	$mass 50
	$inertia 1
	$damping 0
	$rotdamping 0
	$rootbone " "
	$concave

}
