// Created by Crowbar 0.56

$modelname "props_c17/pipe02_yjoint01.mdl"

$staticprop

$bodygroup "Body"
{
	studio "pipe02_yjoint01_reference.smd"
}


$surfaceprop "metalpanel"

$contents "solid"

$illumposition -4.857 0.002 0

$cdmaterials "models\props_c17\"

$cbox 0 0 0 0 0 0

$bbox -9.379 -15.557 -5.863 9.374 5.843 5.863

$definebone "static_prop" "" 0 0 0 0 0 0 0 0 0 0 0 0

$animation "a_idle" "pipe02_yjoint01_anims\idle.smd" {
	fps 30
}

$sequence "idle" {
	"a_idle"
	fadein 0.2
	fadeout 0.2
	fps 30
}


$collisionmodel "pipe02_yjoint01_physics.smd"
{
	$mass 50
	$inertia 1
	$damping 0
	$rotdamping 0
	$rootbone " "
	$concave

}
