// Created by Crowbar 0.56

$modelname "props_c17/pipe_cap001.mdl"

$staticprop

$bodygroup "Body"
{
	studio "pipe_cap001_reference.smd"
}

$lod 30
{
	replacemodel "pipe_cap001_reference.smd" "pipe_cap001_reference_lod1.smd"
}
$lod 40
{
	replacemodel "pipe_cap001_reference.smd" "pipe_cap001_reference_lod2.smd"
}
$lod 50
{
	replacemodel "pipe_cap001_reference.smd" "pipe_cap001_reference_lod3.smd"
}
$lod 90
{
	replacemodel "pipe_cap001_reference.smd" "pipe_cap001_reference_lod4.smd"
}

$surfaceprop "metalpanel"

$contents "solid"

$illumposition 0 -1.247 0

$cdmaterials "models\props_c17\"

$cbox 0 0 0 0 0 0

$bbox 0 -4 -4 2.494 4 4

$definebone "static_prop" "" 0 0 0 0 0 0 0 0 0 0 0 0

$animation "a_idle" "pipe_cap001_anims\idle.smd" {
	fps 30
}

$sequence "idle" {
	"a_idle"
	fadein 0.2
	fadeout 0.2
	fps 30
}


$collisionmodel "pipe_cap001_physics.smd"
{
	$mass 50
	$inertia 1
	$damping 0
	$rotdamping 0
	$rootbone " "
	$concave

}
