// Created by Crowbar 0.56

$modelname "props_c17/pottery09a.mdl"

$staticprop

$bodygroup "Body"
{
	studio "pottery09a_reference.smd"
}


$surfaceprop "metal"

$contents "solid"

$illumposition -0.239 0.006 10.343

$cdmaterials "models\props_c17\"

$cbox 0 0 0 0 0 0

$bbox -10.24 -12.5 0.213 10.228 12.022 20.473

$definebone "static_prop" "" 0 0 0 0 0 0 0 0 0 0 0 0

$animation "a_idle" "pottery09a_anims\idle.smd" {
	fps 30
}

$sequence "idle" {
	"a_idle"
	fadein 0.2
	fadeout 0.2
	fps 30
}


$collisionmodel "pottery09a_physics.smd"
{
	$mass 50
	$inertia 1
	$damping 0
	$rotdamping 0
	$rootbone " "
	$concave

}
