// Created by Crowbar 0.56

$modelname "props_c17/pulleybase01.mdl"

$staticprop

$bodygroup "Body"
{
	studio "pulleybase01_reference.smd"
}

$lod 30
{
	replacemodel "pulleybase01_reference.smd" "pulleybase01_reference_lod1.smd"
}
$lod 40
{
	replacemodel "pulleybase01_reference.smd" "pulleybase01_reference_lod2.smd"
}
$lod 50
{
	replacemodel "pulleybase01_reference.smd" "pulleybase01_reference_lod3.smd"
}
$lod 90
{
	replacemodel "pulleybase01_reference.smd" "pulleybase01_reference_lod4.smd"
}

$surfaceprop "metal"

$contents "solid"

$illumposition -2.632 -0.571 54.761

$cdmaterials "models\props_c17\"

$cbox 0 0 0 0 0 0

$bbox -8.398 -84.579 -4.444 9.54 79.316 113.967

$definebone "static_prop" "" 0 0 0 0 0 0 0 0 0 0 0 0

$animation "a_idle" "pulleybase01_anims\idle.smd" {
	fps 30
}

$sequence "idle" {
	"a_idle"
	fadein 0.2
	fadeout 0.2
	fps 30
}


$collisionmodel "pulleybase01_physics.smd"
{
	$mass 20
	$inertia 1
	$damping 0
	$rotdamping 0
	$rootbone " "
	$concave

}
