// Created by Crowbar 0.56

$modelname "props_c17/roof04.mdl"

$staticprop

$bodygroup "Body"
{
	studio "roof04_reference.smd"
}


$surfaceprop "wood"

$contents "solid"

$illumposition 0.535 10.611 63.733

$cdmaterials "models\props_c17\"

$cbox 0 0 0 0 0 0

$bbox -330.612 -191.465 -0.267 309.389 192.535 127.733

$definebone "static_prop" "" 0 0 0 0 0 0 0 0 0 0 0 0

$animation "a_idle" "roof04_anims\idle.smd" {
	fps 30
}

$sequence "idle" {
	"a_idle"
	fadein 0.2
	fadeout 0.2
	fps 30
}


$collisionmodel "roof04_physics.smd"
{
	$mass 50
	$inertia 1
	$damping 0
	$rotdamping 0
	$rootbone " "
	$concave

}
