// Created by Crowbar 0.56

$modelname "props_c17/streetsign002d.mdl"

$staticprop

$bodygroup "Body"
{
	studio "streetsign002d_reference.smd"
}


$surfaceprop "metal"

$contents "solid"

$illumposition 0 0 0

$cdmaterials "models\props_c17\"

$cbox 0 0 0 0 0 0

$bbox -11.855 -0.115 -11.855 11.855 0.115 11.855

$definebone "static_prop" "" 0 0 0 0 0 0 0 0 0 0 0 0

$animation "a_idle" "streetsign002d_anims\idle.smd" {
	fps 30
}

$sequence "idle" {
	"a_idle"
	fadein 0.2
	fadeout 0.2
	fps 30
}


$collisionmodel "streetsign002d_physics.smd"
{
	$mass 25
	$inertia 1
	$damping 0
	$rotdamping 0
	$rootbone " "
	$concave

}
