// Created by Crowbar 0.56

$modelname "props_c17/substation_busbar512_01a.mdl"

$staticprop

$bodygroup "Body"
{
	studio "substation_busbar512_01a_reference.smd"
}


$surfaceprop "metal"

$contents "solid"

$illumposition 0 0 5.073

$cdmaterials "models\props_c17\"

$cbox 0 0 0 0 0 0

$bbox -1.101 -255.684 -24.087 1.101 255.684 34.233

$definebone "static_prop" "" 0 0 0 0 0 0 0 0 0 0 0 0

$animation "a_idle" "substation_busbar512_01a_anims\idle.smd" {
	fps 30
}

$sequence "idle" {
	"a_idle"
	fadein 0.2
	fadeout 0.2
	fps 30
}


$collisionmodel "substation_busbar512_01a_physics.smd"
{
	$mass 17.78476
	$inertia 1
	$damping 0
	$rotdamping 0
	$rootbone " "
	$concave

}
