// Created by Crowbar 0.56

$modelname "props_c17/support01.mdl"

$staticprop

$bodygroup "Body"
{
	studio "support01_reference.smd"
}


$surfaceprop "metal"

$contents "solid"

$illumposition 0.749 -0.255 151.841

$cdmaterials "models\props_c17\"

$cbox 0 0 0 0 0 0

$bbox -15.745 -63.25 -0.159 16.255 64.749 303.841

$definebone "static_prop" "" 0 0 0 0 0 0 0 0 0 0 0 0

$animation "a_idle" "support01_anims\idle.smd" {
	fps 30
}

$sequence "idle" {
	"a_idle"
	fadein 0.2
	fadeout 0.2
	fps 30
}


$collisionmodel "support01_physics.smd"
{
	$mass 50
	$inertia 1
	$damping 0
	$rotdamping 0
	$rootbone " "
	$concave

}
