// Created by Crowbar 0.56

$modelname "props_c17/storescale01a.mdl"

$staticprop

$bodygroup "Body"
{
	studio "tools_vise01a_storescale01a_reference.smd"
}

$lod 30
{
	replacemodel "tools_vise01a_storescale01a_reference.smd" "tools_vise01a_storescale01a_reference_lod1.smd"
}
$lod 40
{
	replacemodel "tools_vise01a_storescale01a_reference.smd" "tools_vise01a_storescale01a_reference_lod2.smd"
}
$lod 50
{
	replacemodel "tools_vise01a_storescale01a_reference.smd" "tools_vise01a_storescale01a_reference_lod3.smd"
}
$lod 90
{
	replacemodel "tools_vise01a_storescale01a_reference.smd" "tools_vise01a_storescale01a_reference_lod4.smd"
}

$surfaceprop "metal"

$contents "solid"

$illumposition 0 0.022 12.383

$cdmaterials "models\props_c17\"

$cbox 0 0 0 0 0 0

$bbox -7.531 -9.381 0 7.486 9.381 24.767

$definebone "static_prop" "" 0 0 0 0 0 0 0 0 0 0 0 0

$animation "a_idle" "tools_vise01a_anims\idle.smd" {
	fps 30
}

$sequence "idle" {
	"a_idle"
	fadein 0.2
	fadeout 0.2
	fps 30
}


$collisionmodel "tools_vise01a_physics.smd"
{
	$mass 20
	$inertia 1
	$damping 0
	$rotdamping 0
	$rootbone " "
	$concave

}
