// Created by Crowbar 0.56

$modelname "props_c17/Tram_Windows.mdl"

$staticprop

$bodygroup "Body"
{
	studio "Tram_Windows_reference.smd"
}

$lod 30
{
	replacemodel "Tram_Windows_reference.smd" "Tram_Windows_reference_lod1.smd"
}
$lod 60
{
	replacemodel "Tram_Windows_reference.smd" "Tram_Windows_reference_lod2.smd"
}
$lod 80
{
	replacemodel "Tram_Windows_reference.smd" "Tram_Windows_reference_lod3.smd"
}
$lod 100
{
	replacemodel "Tram_Windows_reference.smd" "Tram_Windows_reference_lod4.smd"
}

$surfaceprop "metal"

$contents "solid"

$illumposition 0 0 98.75

$cdmaterials "models\props_c17\"

$cbox 0 0 0 0 0 0

$bbox -270 -48 79 270 48 118.5

$definebone "static_prop" "" 0 0 0 0 0 0 0 0 0 0 0 0

$animation "a_idle" "Tram_Windows_anims\idle.smd" {
	fps 30
}

$sequence "idle" {
	"a_idle"
	fadein 0.2
	fadeout 0.2
	fps 30
}


$collisionmodel "Tram_Windows_physics.smd"
{
	$mass 100
	$inertia 1
	$damping 0
	$rotdamping 0
	$rootbone " "
	$concave

}
