// Created by Crowbar 0.56

$modelname "props_c17/TrapCatapult_Base.mdl"

$staticprop

$bodygroup "Body"
{
	studio "TrapCatapult_Base_reference.smd"
}

$lod 7
{
	replacemodel "TrapCatapult_Base_reference.smd" "TrapCatapult_Base_reference_lod1.smd"
}
$lod 13
{
	replacemodel "TrapCatapult_Base_reference.smd" "TrapCatapult_Base_reference_lod2.smd"
}
$lod 23
{
	replacemodel "TrapCatapult_Base_reference.smd" "TrapCatapult_Base_reference_lod3.smd"
}
$lod 35
{
	replacemodel "TrapCatapult_Base_reference.smd" "TrapCatapult_Base_reference_lod4.smd"
}

$surfaceprop "metal"

$contents "solid"

$illumposition 0 -39.226 -2.471

$cdmaterials "models\props_c17\"

$cbox 0 0 0 0 0 0

$bbox 3.079 -40.593 -14.178 75.373 40.593 9.236

$definebone "static_prop" "" 0 0 0 0 0 0 0 0 0 0 0 0

$animation "a_idle" "TrapCatapult_Base_anims\idle.smd" {
	fps 30
}

$sequence "idle" {
	"a_idle"
	fadein 0.2
	fadeout 0.2
	fps 30
}


$collisionmodel "TrapCatapult_Base_physics.smd"
{
	$mass 100
	$inertia 1
	$damping 0
	$rotdamping 0
	$rootbone " "
	$concave

}
