// Created by Crowbar 0.56

$modelname "props_c17/truck01.mdl"

$staticprop

$bodygroup "Body"
{
	studio "truck01_reference.smd"
}

$lod 30
{
	replacemodel "truck01_reference.smd" "truck01_reference_lod1.smd"
}
$lod 40
{
	replacemodel "truck01_reference.smd" "truck01_reference_lod2.smd"
}
$lod 50
{
	replacemodel "truck01_reference.smd" "truck01_reference_lod3.smd"
}
$lod 90
{
	replacemodel "truck01_reference.smd" "truck01_reference_lod4.smd"
}

$surfaceprop "metalpanel"

$contents "solid"

$illumposition 0 0 0

$cdmaterials "models\props_c17\"

$cbox 0 0 0 0 0 0

$bbox -113.532 -46.522 -52.528 113.532 46.522 52.528

$definebone "static_prop" "" 0 0 0 0 0 0 0 0 0 0 0 0

$animation "a_idle" "truck01_anims\idle.smd" {
	fps 30
}

$sequence "idle" {
	"a_idle"
	fadein 0.2
	fadeout 0.2
	fps 30
}


$collisionmodel "truck01_physics.smd"
{
	$mass 755.6569
	$inertia 1
	$damping 0
	$rotdamping 0
	$rootbone " "
	$concave

}
