// Created by Crowbar 0.56

$modelname "props_c17/truss03a.mdl"

$staticprop

$bodygroup "Body"
{
	studio "truss03a_reference.smd"
}


$surfaceprop "metal"

$contents "solid"

$illumposition 0 0 0

$cdmaterials "models\props_c17\"

$cbox 0 0 0 0 0 0

$bbox -15.911 -95.565 -128.077 15.911 95.565 128.077

$definebone "static_prop" "" 0 0 0 0 0 0 0 0 0 0 0 0

$animation "a_idle" "truss03a_anims\idle.smd" {
	fps 30
}

$sequence "idle" {
	"a_idle"
	fadein 0.2
	fadeout 0.2
	fps 30
}


$collisionmodel "truss03a_physics.smd"
{
	$mass 57.88891
	$inertia 1
	$damping 0
	$rotdamping 0
	$rootbone " "
	$concave

}
