// Created by Crowbar 0.56

$modelname "props_c17/truss02i.mdl"

$staticprop

$bodygroup "Body"
{
	studio "truss02i_reference.smd"
}


$surfaceprop "metal"

$contents "solid"

$illumposition 0 0 0

$cdmaterials "models\props_c17\"

$cbox 0 0 0 0 0 0

$bbox -15.911 -16.022 -15.884 15.911 16.022 15.884

$definebone "static_prop" "" 0 0 0 0 0 0 0 0 0 0 0 0

$animation "a_idle" "truss02i_anims\idle.smd" {
	fps 30
}

$sequence "idle" {
	"a_idle"
	fadein 0.2
	fadeout 0.2
	fps 30
}


$collisionmodel "truss02i_physics.smd"
{
	$mass 31.32568
	$inertia 1
	$damping 0
	$rotdamping 0
	$rootbone " "
	$concave

}
