// Created by Crowbar 0.56

$modelname "props_c17/utilityconnecter001.mdl"

$staticprop

$bodygroup "Body"
{
	studio "utilityconnecter001_reference.smd"
}

$lod 15
{
	replacemodel "utilityconnecter001_reference.smd" "utilityconnecter001_reference_lod1.smd"
}
$lod 20
{
	replacemodel "utilityconnecter001_reference.smd" "utilityconnecter001_reference_lod2.smd"
}
$lod 25
{
	replacemodel "utilityconnecter001_reference.smd" "utilityconnecter001_reference_lod3.smd"
}
$lod 30
{
	replacemodel "utilityconnecter001_reference.smd" "utilityconnecter001_reference_lod4.smd"
}

$surfaceprop "metal"

$contents "solid"

$illumposition 0 0 0

$cdmaterials "models\props_c17\"

$cbox 0 0 0 0 0 0

$bbox -28.817 -28.817 -5.81 28.817 28.817 5.81

$definebone "static_prop" "" 0 0 0 0 0 0 0 0 0 0 0 0

$animation "a_idle" "utilityconnecter001_anims\idle.smd" {
	fps 30
}

$sequence "idle" {
	"a_idle"
	fadein 0.2
	fadeout 0.2
	fps 30
}


$collisionmodel "utilityconnecter001_physics.smd"
{
	$mass 20
	$inertia 1
	$damping 0
	$rotdamping 0
	$rootbone " "
	$concave

}
