// Created by Crowbar 0.56

$modelname "props_c17/utilityconnecter006c.mdl"

$staticprop

$bodygroup "Body"
{
	studio "utilityconnecter006c_reference.smd"
}


$surfaceprop "metal"

$contents "solid"

$illumposition 0 0 1.48

$cdmaterials "models\props_c17\"

$cbox 0 0 0 0 0 0

$bbox -8.127 -8.189 -22.341 8.127 8.189 25.302

$definebone "static_prop" "" 0 0 0 0 0 0 0 0 0 0 0 0

$animation "a_idle" "utilityconnecter006c_anims\idle.smd" {
	fps 30
}

$sequence "idle" {
	"a_idle"
	fadein 0.2
	fadeout 0.2
	fps 30
}


$collisionmodel "utilityconnecter006c_physics.smd"
{
	$mass 17.78476
	$inertia 1
	$damping 0
	$rotdamping 0
	$rootbone " "
	$concave

}
