// Created by Crowbar 0.56

$modelname "props_c17/utilitypole01d.mdl"

$staticprop

$bodygroup "Body"
{
	studio "utilitypole01d_reference.smd"
}

$lod 50
{
	replacemodel "utilitypole01d_reference.smd" "utilitypole01d_reference_lod1.smd"
}
$lod 75
{
	replacemodel "utilitypole01d_reference.smd" "utilitypole01d_reference_lod2.smd"
}
$lod 100
{
	replacemodel "utilitypole01d_reference.smd" "utilitypole01d_reference_lod3.smd"
}
$lod 120
{
	replacemodel "utilitypole01d_reference.smd" "utilitypole01d_reference_lod4.smd"
}

$surfaceprop "wood"

$contents "solid"

$illumposition -0.013 0.017 244.056

$cdmaterials "models\props_c17\"

$cbox 0 0 0 0 0 0

$bbox -20.205 -46.861 1.505 20.172 46.835 486.606

$definebone "static_prop" "" 0 0 0 0 0 0 0 0 0 0 0 0

$animation "a_idle" "utilitypole01d_anims\idle.smd" {
	fps 30
}

$sequence "idle" {
	"a_idle"
	fadein 0.2
	fadeout 0.2
	fps 30
}


$collisionmodel "utilitypole01d_physics.smd"
{
	$mass 350
	$inertia 1
	$damping 0
	$rotdamping 0
	$rootbone " "
	$concave

}
