// Created by Crowbar 0.56

$modelname "props_c17/utilityconducter001.mdl"

$staticprop

$bodygroup "Body"
{
	studio "utilityconducter001_reference.smd"
}

$lod 25
{
	replacemodel "utilityconducter001_reference.smd" "utilityconducter001_reference_lod1.smd"
}
$lod 30
{
	replacemodel "utilityconducter001_reference.smd" "utilityconducter001_reference_lod2.smd"
}
$lod 40
{
	replacemodel "utilityconducter001_reference.smd" "utilityconducter001_reference_lod3.smd"
}
$lod 50
{
	replacemodel "utilityconducter001_reference.smd" "utilityconducter001_reference_lod4.smd"
}

$surfaceprop "metal"

$contents "solid"

$illumposition 0 0 0

$cdmaterials "models\props_c17\"

$cbox 0 0 0 0 0 0

$bbox -10.092 -11.482 -14.406 10.092 11.482 14.406

$definebone "static_prop" "" 0 0 0 0 0 0 0 0 0 0 0 0

$animation "a_idle" "utilityconducter001_anims\idle.smd" {
	fps 30
}

$sequence "idle" {
	"a_idle"
	fadein 0.2
	fadeout 0.2
	fps 30
}


$collisionmodel "utilityconducter001_physics.smd"
{
	$mass 80
	$inertia 1
	$damping 0
	$rotdamping 0
	$rootbone " "
	$concave

}
