// Created by Crowbar 0.56

$modelname "props_c17/windowsill03.mdl"

$staticprop

$bodygroup "Body"
{
	studio "windowsill03_reference.smd"
}


$surfaceprop "metal"

$contents "solid"

$illumposition 0 -1.916 -0.154

$cdmaterials "models\props_c17\"

$cbox 0 0 0 0 0 0

$bbox 0 -18.272 -2.29 3.832 18.272 1.981

$definebone "static_prop" "" 0 0 0 0 0 0 0 0 0 0 0 0

$animation "a_idle" "windowsill03_anims\idle.smd" {
	fps 30
}

$sequence "idle" {
	"a_idle"
	fadein 0.2
	fadeout 0.2
	fps 30
}


$collisionmodel "windowsill03_physics.smd"
{
	$mass 50
	$inertia 1
	$damping 0
	$rotdamping 0
	$rootbone " "
	$concave

}
