// Created by Crowbar 0.56

$modelname "props_c17/Wooddoor_50b.mdl"

$staticprop

$bodygroup "Body"
{
	studio "Wooddoor_50b_reference.smd"
}


$surfaceprop "metal"

$contents "solid"

$illumposition 0.122 -1.02 56.004

$cdmaterials "models\props_c17\"

$cbox 0 0 0 0 0 0

$bbox -0.642 -34.233 0.009 2.682 34.477 112

$animation "a_idle" "Wooddoor_50b_anims\idle.smd" {
	fps 30
}

$sequence "idle" {
	"Wooddoor_50b_anims\idle.smd"
	fadein 0
	fadeout 0
	fps 30
}


$collisionmodel "Wooddoor_50b_physics.smd"
{
	$mass 750
	$inertia 1
	$damping 0
	$rotdamping 0
	$rootbone " "
	$concave

}
