// Created by Crowbar 0.56

$modelname "props_c17/woodbarrel002.mdl"

$staticprop

$bodygroup "Body"
{
	studio "woodbarrel002_reference.smd"
}

$lod 30
{
	replacemodel "woodbarrel002_reference.smd" "woodbarrel002_reference_lod1.smd"
}
$lod 40
{
	replacemodel "woodbarrel002_reference.smd" "woodbarrel002_reference_lod2.smd"
}
$lod 50
{
	replacemodel "woodbarrel002_reference.smd" "woodbarrel002_reference_lod3.smd"
}
$lod 90
{
	replacemodel "woodbarrel002_reference.smd" "woodbarrel002_reference_lod4.smd"
}

$contents "solid"

$illumposition 0 0 20

$cdmaterials "models\props_c17\"

$cbox 0 0 0 0 0 0

$bbox -13.944 -13.944 0 13.944 13.944 40

$definebone "static_prop" "" 0 0 0 0 0 0 0 0 0 0 0 0

$animation "a_idle" "woodbarrel002_anims\idle.smd" {
	fps 30
}

$sequence "idle" {
	"a_idle"
	fadein 0.2
	fadeout 0.2
	fps 30
}


$collisionmodel "woodbarrel002_physics.smd"
{
	$mass 50
	$inertia 1
	$damping 0
	$rotdamping 0
	$rootbone " "
	$concave

}
