// Created by Crowbar 0.56

$modelname "Conscriptdemo.mdl"

$model "conscript" "predator_conscript_reference.smd" {

	eyeball "eye_right" "Bip01 Head" -1.280842 -5.228160 67.374801 "[unknown_texture]" 1 4 "iris_unused" 0.68
	eyeball "eye_left" "Bip01 Head" 1.442168 -5.228171 67.344743 "[unknown_texture]" 1 -4 "iris_unused" 0.68

	eyelid upper_right "predator_01.vta" lowerer 1 -0.12 neutral 0 0.16 raiser 2 0.21 split 1 eyeball "eye_right"
	eyelid lower_right "predator_01.vta" lowerer 3 -0.26 neutral 0 -0.23 raiser 4 -0.04 split 1 eyeball "eye_right"
	eyelid upper_left "predator_01.vta" lowerer 5 -0.12 neutral 0 0.16 raiser 6 0.21 split -1 eyeball "eye_left"
	eyelid lower_left "predator_01.vta" lowerer 7 -0.26 neutral 0 -0.23 raiser 8 -0.04 split -1 eyeball "eye_left"

	mouth 0 "mouth" "Bip01 Head" 0 -1 0

	flexfile "predator_01.vta" 
	{
		defaultflex frame 0
		// Already in eyelid lines: flex "upper_right" frame 1
		// Already in eyelid lines: flex "upper_right" frame 2
		// Already in eyelid lines: flex "lower_right" frame 3
		// Already in eyelid lines: flex "lower_right" frame 4
		// Already in eyelid lines: flex "upper_left" frame 5
		// Already in eyelid lines: flex "upper_left" frame 6
		// Already in eyelid lines: flex "lower_left" frame 7
		// Already in eyelid lines: flex "lower_left" frame 8
		flex "AU1R" frame 9
		flex "AU1L" frame 10
		flex "AU2R" frame 11
		flex "AU2L" frame 12
		flex "AU4R" frame 13
		flex "AU4L" frame 14
		flex "AU6R" frame 15
		flex "AU6L" frame 16
		flex "AU9R" frame 17
		flex "AU9L" frame 18
		flex "AU38" frame 19
		flex "AU10R" frame 20
		flex "AU10L" frame 21
		flex "AU12R" frame 22
		flex "AU12R" frame 23
		flex "AU12L" frame 24
		flex "AU12L" frame 25
		flex "AU15" frame 26
		flex "AU17R" frame 27
		flex "AU17L" frame 28
		flex "AU25R" frame 29
		flex "AU25L" frame 30
		flex "AU18R" frame 31
		flex "AU18L" frame 32
		flex "AU22R" frame 33
		flex "AU22L" frame 34
		flex "AU20R" frame 35
		flex "AU20L" frame 36
		flex "AU32" frame 37
		flex "AU24" frame 38
		flex "AU31" frame 39
		flex "AU26R" frame 40
		flex "AU26L" frame 41
		flex "AU27R" frame 42
		flex "AU27L" frame 43
	}

	flexcontroller eyelid range 0 1 "right_lid_raiser"
	flexcontroller eyelid range 0 1 "left_lid_raiser"
	flexcontroller eyelid range 0 1 "right_lid_tightener"
	flexcontroller eyelid range 0 1 "left_lid_tightener"
	flexcontroller eyelid range 0 1 "right_lid_droop"
	flexcontroller eyelid range 0 1 "left_lid_droop"
	flexcontroller eyelid range 0 1 "blink"
	flexcontroller brow range 0 1 "right_inner_raiser"
	flexcontroller brow range 0 1 "left_inner_raiser"
	flexcontroller brow range 0 1 "right_outer_raiser"
	flexcontroller brow range 0 1 "left_outer_raiser"
	flexcontroller brow range 0 1 "right_lowerer"
	flexcontroller brow range 0 1 "left_lowerer"
	flexcontroller nose range 0 1 "right_cheek_raiser"
	flexcontroller nose range 0 1 "left_cheek_raiser"
	flexcontroller nose range 0 1 "wrinkler"
	flexcontroller nose range 0 1 "dilator"
	flexcontroller mouth range 0 1 "right_upper_raiser"
	flexcontroller mouth range 0 1 "left_upper_raiser"
	flexcontroller mouth range 0 1 "right_corner_puller"
	flexcontroller mouth range 0 1 "left_corner_puller"
	flexcontroller mouth range 0 1 "corner_depressor"
	flexcontroller mouth range 0 1 "chin_raiser"
	flexcontroller phoneme range 0 1 "right_part"
	flexcontroller phoneme range 0 1 "left_part"
	flexcontroller phoneme range 0 1 "right_puckerer"
	flexcontroller phoneme range 0 1 "left_puckerer"
	flexcontroller phoneme range 0 1 "right_funneler"
	flexcontroller phoneme range 0 1 "left_funneler"
	flexcontroller phoneme range 0 1 "right_stretcher"
	flexcontroller phoneme range 0 1 "left_stretcher"
	flexcontroller phoneme range 0 1 "bite"
	flexcontroller phoneme range 0 1 "presser"
	flexcontroller phoneme range 0 1 "tightener"
	flexcontroller phoneme range 0 1 "jaw_clencher"
	flexcontroller phoneme range 0 1 "jaw_drop"
	flexcontroller phoneme range 0 1 "right_mouth_drop"
	flexcontroller phoneme range 0 1 "left_mouth_drop"
	flexcontroller head range -30 30 "head_rightleft"
	flexcontroller head range -45 20 "head_updown"
	flexcontroller head range -30 30 "head_tilt"
	flexcontroller eyes range -30 30 "eyes_updown"
	flexcontroller eyes range -30 30 "eyes_rightleft"
	flexcontroller arms range 0 1 "arms_updown"
	flexcontroller arms range 0 1 "arms_inout"

	localvar right_lip_suppressor
	localvar left_lip_suppressor
	%upper_right_raiser = right_lid_raiser * (1 - right_lid_droop * 0.8) * (1 - blink)
	%upper_right_neutral = (1 - right_lid_droop * 0.8) * (1 - right_lid_raiser) * (1 - blink)
	%upper_right_lowerer = blink
	%upper_left_raiser = left_lid_raiser * (1 - left_lid_droop * 0.8) * (1 - blink)
	%upper_left_neutral = (1 - left_lid_droop * 0.8) * (1 - left_lid_raiser) * (1 - blink)
	%upper_left_lowerer = blink
	%lower_right_raiser = blink
	%lower_right_neutral = (1 - blink) * (1 - right_lid_tightener * 0.5) * (1 - right_cheek_raiser * 0.25)
	%lower_right_lowerer = 0
	%lower_left_raiser = blink
	%lower_left_neutral = (1 - blink) * (1 - left_lid_tightener * 0.5) * (1 - left_cheek_raiser * 0.25)
	%lower_left_lowerer = 0
	%AU1R = right_inner_raiser * (1 - right_lowerer)
	%AU1L = left_inner_raiser * (1 - left_lowerer)
	%AU2R = right_outer_raiser * (1 - right_lowerer)
	%AU2L = left_outer_raiser * (1 - left_lowerer)
	%AU4R = right_lowerer
	%AU4L = left_lowerer
	%AU6R = right_cheek_raiser
	%AU6L = left_cheek_raiser
	%AU9R = wrinkler
	%AU9L = wrinkler
	%AU38 = dilator
	%AU10R = right_upper_raiser
	%AU10L = left_upper_raiser
	%AU12R = right_corner_puller
	%AU12L = left_corner_puller
	%AU15 = corner_depressor
	%right_lip_suppressor = 1 / (right_part + right_puckerer + right_funneler) * (1 - presser) * (1 - bite)
	%left_lip_suppressor = 1 / (left_part + left_puckerer + left_funneler) * (1 - presser) * (1 - bite)
	%AU25R = right_part * right_part * %right_lip_suppressor
	%AU25L = left_part * left_part * %left_lip_suppressor
	%AU18R = right_puckerer * right_puckerer * %right_lip_suppressor
	%AU18L = left_puckerer * left_puckerer * %left_lip_suppressor
	%AU22R = right_funneler * right_funneler * %right_lip_suppressor
	%AU22L = left_funneler * left_funneler * %left_lip_suppressor
	%AU17R = chin_raiser * (1 - jaw_drop * 0.5) * (1 - bite) * (1 - 0.6 * (%AU25R + %AU18R + %AU22R))
	%AU17L = chin_raiser * (1 - jaw_drop * 0.5) * (1 - bite) * (1 - 0.6 * (%AU25L + %AU18L + %AU22L))
	%AU20R = right_stretcher * (1 - jaw_drop * 0.5)
	%AU20L = left_stretcher * (1 - jaw_drop * 0.5)
	%AU32 = bite
	%AU24 = presser + (1 - presser) * tightener
	%AU31 = jaw_clencher * jaw_clencher / (jaw_clencher + jaw_drop)
	%AU26R = jaw_drop * (1 - right_mouth_drop * (1 - bite)) * jaw_drop / (jaw_clencher + jaw_drop)
	%AU26L = jaw_drop * (1 - left_mouth_drop * (1 - bite)) * jaw_drop / (jaw_clencher + jaw_drop)
	%AU27R = jaw_drop * right_mouth_drop * (1 - bite) * jaw_drop / (jaw_clencher + jaw_drop)
	%AU27L = jaw_drop * left_mouth_drop * (1 - bite) * jaw_drop / (jaw_clencher + jaw_drop)
	%mouth = %AU27R * 0.5 + %AU27L * 0.5 + %AU22R * 0.35 + %AU22L * 0.35 + %AU18R * 0.25 + %AU18L * 0.25 + %AU25R * 0.35 + %AU25L * 0.35 + %AU32 * 0.5
}

$bodygroup "studio"
{
	studio "predator_AR2_reference.smd"
}


$contents "solid"

$illumposition 2.862 -7.801 34.873

$eyeposition 0 0 67

$cdmaterials "models\conscript\"
$cdmaterials "models\weapons\W_AR2\"

$cbox 0 0 0 0 0 0

$bbox -7.318 -15.633 0.002 22.92 21.356 69.743

$controller 0 "Bip01 Head" XR -60 60

$definebone "Bip01" "" -0.014178 0.309128 38.871536 0 -89.999928 0 0 0 0 0 0 0
$definebone "Bip01 Pelvis" "Bip01" 1.989717 0 0 -89.980216 -89.999928 0 0 0 0 0 0 0
$definebone "Bip01 Spine" "Bip01 Pelvis" 2.919839 -0.002997 0.000004 -0.000057 0.045607 -0.000229 0 0 0 0 0 0
$definebone "Bip01 Spine1" "Bip01 Spine" 3.766109 -0.002452 0 0 -0.999983 0 0 0 0 0 0 0
$definebone "Bip01 Spine2" "Bip01 Spine1" 3.080003 -0.003973 0 0 2.000024 0 0 0 0 0 0 0
$definebone "Bip01 Spine3" "Bip01 Spine2" 4.991577 -0.00497 0 0 -6.000014 0 0 0 0 0 0 0
$definebone "Bip01 Neck" "Bip01 Spine3" 6.277244 -0.002705 0 -0.000057 14.99998 0 0 0 0 0 0 0
$definebone "Bip01 Head" "Bip01 Neck" 3.51691 0 0 0 -4.045712 0 0 0 0 0 0 0
$definebone "Bip01 L Clavicle" "Bip01 Neck" 0.000001 0.002796 1.989891 -74.04395 179.111481 -14.700265 0 0 0 0 0 0
$definebone "Bip01 L UpperArm" "Bip01 L Clavicle" 5.983815 0 -0.000004 -13.213208 -0.389209 2.599511 0 0 0 0 0 0
$definebone "Bip01 L Forearm" "Bip01 L UpperArm" 9.993211 0 0.000001 0.000003 -9.459076 0.000001 0 0 0 0 0 0
$definebone "Bip01 L Hand" "Bip01 L Forearm" 11.116126 0 -0.000001 -4.148842 -7.064687 -88.21757 0 0 0 0 0 0
$definebone "Bip01 L Finger0" "Bip01 L Hand" 1.285841 -0.377133 -0.119223 48.491772 54.399592 73.483615 0 0 0 0 0 0
$definebone "Bip01 L Finger01" "Bip01 L Finger0" 1.132566 0.000002 0 0.000002 3.000008 0 0 0 0 0 0 0
$definebone "Bip01 L Finger02" "Bip01 L Finger01" 1.908818 0.000003 -0.000001 0.000002 -13.000008 0 0 0 0 0 0 0
$definebone "Bip01 L Finger1" "Bip01 L Hand" 4.075336 -0.097302 -0.883967 21.505228 12.89442 4.753888 0 0 0 0 0 0
$definebone "Bip01 L Finger11" "Bip01 L Finger1" 1.117884 0 0.000001 0 24.000004 0.000001 0 0 0 0 0 0
$definebone "Bip01 L Finger12" "Bip01 L Finger11" 1.016257 -0.000003 0 0.000001 10.000006 0.000002 0 0 0 0 0 0
$definebone "Bip01 L Finger2" "Bip01 L Hand" 4.259248 0.003371 -0.025598 7.620283 18.159559 2.443035 0 0 0 0 0 0
$definebone "Bip01 L Finger21" "Bip01 L Finger2" 1.304198 0.000001 0 0.000003 24.000004 0.000003 0 0 0 0 0 0
$definebone "Bip01 L Finger22" "Bip01 L Finger21" 1.185635 0.000003 0 0.000002 13.999997 0.000004 0 0 0 0 0 0
$definebone "Bip01 L Finger3" "Bip01 L Hand" 4.189393 -0.033134 0.783651 -8.281188 18.196169 -5.831507 0 0 0 0 0 0
$definebone "Bip01 L Finger31" "Bip01 L Finger3" 1.252034 0.000001 0 0.000001 24.000004 0.000001 0 0 0 0 0 0
$definebone "Bip01 L Finger32" "Bip01 L Finger31" 1.117884 0.000007 0 0.000001 10.000008 0 0 0 0 0 0 0
$definebone "Bip01 L Finger4" "Bip01 L Hand" 4.105464 0.164729 1.538865 -23.023335 16.333195 -7.279831 0 0 0 0 0 0
$definebone "Bip01 L Finger41" "Bip01 L Finger4" 0.931573 -0.000002 0 0 24.000008 -0.000002 0 0 0 0 0 0
$definebone "Bip01 L Finger42" "Bip01 L Finger41" 0.846878 -0.000002 0 0 10.000009 -0.000002 0 0 0 0 0 0
$definebone "Bip01 R Clavicle" "Bip01 Neck" 0.000002 0.002806 -1.989891 72.167308 -165.551397 30.718219 0 0 0 0 0 0
$definebone "Bip01 R UpperArm" "Bip01 R Clavicle" 5.983815 0 -0.000002 12.806064 -8.58583 -4.661528 0 0 0 0 0 0
$definebone "Bip01 R Forearm" "Bip01 R UpperArm" 8.327677 0 0.000004 0 -5.340082 -0.000001 0 0 0 0 0 0
$definebone "Bip01 R Hand" "Bip01 R Forearm" 11.991853 0 -0.000001 7.133783 -7.366747 84.18784 0 0 0 0 0 0
$definebone "Bip01 R Finger0" "Bip01 R Hand" 1.381536 -0.315501 0.115448 -48.491772 54.399592 -73.483615 0 0 0 0 0 0
$definebone "Bip01 R Finger01" "Bip01 R Finger0" 1.132564 -0.000002 0 -0.000005 3.000008 0.000002 0 0 0 0 0 0
$definebone "Bip01 R Finger02" "Bip01 R Finger01" 1.908819 0.000003 0.000001 -0.000004 -13.000013 0.000003 0 0 0 0 0 0
$definebone "Bip01 R Finger1" "Bip01 R Hand" 4.425903 -0.13505 0.983363 -21.505226 12.894417 -4.753887 0 0 0 0 0 0
$definebone "Bip01 R Finger11" "Bip01 R Finger1" 1.117884 0.000004 0.000002 -0.000002 24.000001 0 0 0 0 0 0 0
$definebone "Bip01 R Finger12" "Bip01 R Finger11" 1.016259 0.000002 0 -0.000002 10.000003 -0.000001 0 0 0 0 0 0
$definebone "Bip01 R Finger2" "Bip01 R Hand" 4.62913 0.010513 0.143671 -7.620282 18.159556 -2.443034 0 0 0 0 0 0
$definebone "Bip01 R Finger21" "Bip01 R Finger2" 1.304198 -0.000003 0.000001 -0.000002 24.000003 -0.000001 0 0 0 0 0 0
$definebone "Bip01 R Finger22" "Bip01 R Finger21" 1.185638 0.000005 0 -0.000002 13.999994 -0.000002 0 0 0 0 0 0
$definebone "Bip01 R Finger3" "Bip01 R Hand" 4.548625 -0.043327 -0.686112 8.281189 18.196165 5.831508 0 0 0 0 0 0
$definebone "Bip01 R Finger31" "Bip01 R Finger3" 1.252033 0.000002 0 -0.000001 24.000004 0 0 0 0 0 0 0
$definebone "Bip01 R Finger32" "Bip01 R Finger31" 1.117883 -0.000001 0 -0.000001 10.000005 0 0 0 0 0 0 0
$definebone "Bip01 R Finger4" "Bip01 R Hand" 4.467423 0.243167 -1.402988 23.023335 16.33319 7.279832 0 0 0 0 0 0
$definebone "Bip01 R Finger41" "Bip01 R Finger4" 0.93157 -0.000004 0 0 24.000004 0.000001 0 0 0 0 0 0
$definebone "Bip01 R Finger42" "Bip01 R Finger41" 0.846881 0.000003 0 -0.000001 10.000007 0 0 0 0 0 0 0
$definebone "Bip01 L Thigh" "Bip01 Spine" -2.919837 0.005314 3.775213 0.962205 176.186343 179.766592 0 0 0 0 0 0
$definebone "Bip01 L Calf" "Bip01 L Thigh" 18.169476 0 0 0 -14.459108 0 0 0 0 0 0 0
$definebone "Bip01 L Foot" "Bip01 L Calf" 15.617543 0 0 -0.015642 7.691499 0.17057 0 0 0 0 0 0
$definebone "Bip01 L Toe0" "Bip01 L Foot" 5.33391 2.948816 0 0 92.000006 0 0 0 0 0 0 0
$definebone "Bip01 L Toe01" "Bip01 L Toe0" 1.53021 0 0 0 2.000024 0 0 0 0 0 0 0
$definebone "Bip01 L Toe02" "Bip01 L Toe01" 1.530212 0 0 0 0 0 0 0 0 0 0 0
$definebone "Bip01 R Thigh" "Bip01 Spine" -2.919837 0.005334 -3.775213 -0.962205 176.186398 -179.76692 0 0 0 0 0 0
$definebone "Bip01 R Calf" "Bip01 R Thigh" 18.169476 0 0 0 -14.458992 0 0 0 0 0 0 0
$definebone "Bip01 R Foot" "Bip01 R Calf" 15.61754 0 0 0.015642 7.691442 -0.17057 0 0 0 0 0 0
$definebone "Bip01 R Toe0" "Bip01 R Foot" 5.333909 2.948817 0 0 92.000006 0 0 0 0 0 0 0
$definebone "Bip01 R Toe01" "Bip01 R Toe0" 1.53021 0 0 0 2.000024 0 0 0 0 0 0 0
$definebone "Bip01 R Toe02" "Bip01 R Toe01" 1.530211 0 0 0 0 0 0 0 0 0 0 0
$definebone "AR2" "Bip01 R Hand" 6.794941 1.832454 3.511249 9.276647 -175.530085 87.117725 0 0 0 0 0 0

$animation "a_idle1" "predator_anims\idle1.smd" {
	fps 30
	loop
	walkframe 135 LX
}

$animation "a_idle2" "predator_anims\idle2.smd" {
	fps 30
	loop
	walkframe 200 LX
}

$animation "a_Run" "predator_anims\Run.smd" {
	fps 30
	loop
	walkframe 21 LX
}

$animation "a_wall1" "predator_anims\wall1.smd" {
	fps 30
	loop
}

$animation "a_wall2" "predator_anims\wall2.smd" {
	fps 30
	loop
}

$animation "a_wall3" "predator_anims\wall3.smd" {
	fps 30
	loop
}

$animation "a_anidle" "predator_anims\anidle.smd" {
	fps 30
	loop
}

$animation "a_anshout" "predator_anims\anshout.smd" {
	fps 30
}

$animation "a_anshoot" "predator_anims\anshoot.smd" {
	fps 30
}

$animation "a_injured" "predator_anims\injured.smd" {
	fps 30
	loop
}

$animation "a_ragdoll" "predator_anims\ragdoll.smd" {
	fps 30
}

$sequence "idle1" {
	"a_idle1"
	activity "ACT_IDLE" 1
	fadein 0.2
	fadeout 0.2
	fps 30
	loop
}

$sequence "idle2" {
	"a_idle2"
	activity "ACT_IDLE" 2
	fadein 0.2
	fadeout 0.2
	fps 30
	loop
}

$sequence "Run" {
	"a_Run"
	activity "ACT_RUN" 1
	fadein 0.2
	fadeout 0.2
	fps 30
	loop
}

$sequence "wall1" {
	"a_wall1"
	fadein 0.2
	fadeout 0.2
	fps 30
	loop
}

$sequence "wall2" {
	"a_wall2"
	fadein 0.2
	fadeout 0.2
	fps 30
	loop
}

$sequence "wall3" {
	"a_wall3"
	fadein 0.2
	fadeout 0.2
	fps 30
	loop
}

$sequence "anidle" {
	"a_anidle"
	fadein 0.2
	fadeout 0.2
	fps 30
	loop
}

$sequence "anshout" {
	"a_anshout"
	fadein 0.2
	fadeout 0.2
	fps 30
}

$sequence "anshoot" {
	"a_anshoot"
	fadein 0.2
	fadeout 0.2
	fps 30
}

$sequence "injured" {
	"a_injured"
	fadein 0.2
	fadeout 0.2
	fps 30
	loop
}

$sequence "ragdoll" {
	"a_ragdoll"
	activity "ACT_DIERAGDOLL" 1
	fadein 0.2
	fadeout 0.2
	fps 30
}


$collisionjoints "predator_physics.smd"
{
	$mass 105
	$inertia 5
	$damping 0.01
	$rotdamping 1.5
	$rootbone "Bip01 Spine"


	$jointconstrain "Bip01 Spine2" x limit -60 60 1
	$jointconstrain "Bip01 Spine2" y limit -25 25 1
	$jointconstrain "Bip01 Spine2" z limit -25 15 1

	$jointmassbias "Bip01 R UpperArm" 2
	$jointconstrain "Bip01 R UpperArm" x limit 0 0 0
	$jointconstrain "Bip01 R UpperArm" y limit -45 76 1
	$jointconstrain "Bip01 R UpperArm" z limit -73 40 1

	$jointmassbias "Bip01 R Thigh" 2
	$jointconstrain "Bip01 R Thigh" x limit -25 20 1
	$jointconstrain "Bip01 R Thigh" y limit -40 20 1
	$jointconstrain "Bip01 R Thigh" z limit -37 63 1

	$jointconstrain "Bip01 R Calf" x limit 0 0 0
	$jointconstrain "Bip01 R Calf" y limit 0 0 0
	$jointconstrain "Bip01 R Calf" z limit -95 4 1

	$jointmassbias "Bip01 R Forearm" 3
	$jointconstrain "Bip01 R Forearm" x limit 0 0 0
	$jointconstrain "Bip01 R Forearm" y limit 0 0 0
	$jointconstrain "Bip01 R Forearm" z limit -120 4 1

	$jointmassbias "Bip01 L Thigh" 2
	$jointconstrain "Bip01 L Thigh" x limit -25 20 1
	$jointconstrain "Bip01 L Thigh" y limit -20 40 1
	$jointconstrain "Bip01 L Thigh" z limit -37 63 1

	$jointconstrain "Bip01 L Calf" x limit 0 0 0
	$jointconstrain "Bip01 L Calf" y limit 0 0 0
	$jointconstrain "Bip01 L Calf" z limit -95 4 1

	$jointconstrain "Bip01 L Foot" x limit 0 0 0
	$jointconstrain "Bip01 L Foot" y limit 0 0 0
	$jointconstrain "Bip01 L Foot" z limit -15 35 1

	$jointmassbias "Bip01 L UpperArm" 2
	$jointconstrain "Bip01 L UpperArm" x limit 0 0 0
	$jointconstrain "Bip01 L UpperArm" y limit -76 30 1
	$jointconstrain "Bip01 L UpperArm" z limit -73 40 1

	$jointmassbias "Bip01 L Forearm" 3
	$jointconstrain "Bip01 L Forearm" x limit 0 0 0
	$jointconstrain "Bip01 L Forearm" y limit 0 0 0
	$jointconstrain "Bip01 L Forearm" z limit -120 4 1

	$jointmassbias "Bip01 L Hand" 2
	$jointconstrain "Bip01 L Hand" x limit 0 0 0
	$jointconstrain "Bip01 L Hand" y limit 0 0 0
	$jointconstrain "Bip01 L Hand" z limit -35 60 1

	$jointrotdamping "Bip01 Head" 5
	$jointconstrain "Bip01 Head" x limit -20 20 1
	$jointconstrain "Bip01 Head" y limit -25 25 1
	$jointconstrain "Bip01 Head" z limit -13 30 1

	$jointmassbias "Bip01 R Hand" 2
	$jointconstrain "Bip01 R Hand" x limit 0 0 0
	$jointconstrain "Bip01 R Hand" y limit 0 0 0
	$jointconstrain "Bip01 R Hand" z limit -35 60 1

	$jointconstrain "Bip01 R Foot" x limit 0 0 0
	$jointconstrain "Bip01 R Foot" y limit 0 0 0
	$jointconstrain "Bip01 R Foot" z limit -15 35 1
}
