// Created by Crowbar 0.56

$modelname "zombie_assassin.mdl"

$bodygroup "Body"
{
	studio "shaderslab3_zombie_assassin_reference.smd"
}


$surfaceprop "metalpanel"

$contents "solid"

$illumposition 0.094 -0.68 41.397

$cdmaterials "models\zombie_assassin\"

$cbox 0 0 0 0 0 0

$bbox -15.396 -25.405 0.052 16.755 25.593 82.742

$definebone "HCAssassin" "" 0.094018 -0.679665 41.397091 0 -89.999983 89.999983 0 0 0 0 0 0

$animation "a_idle" "shaderslab3_anims\idle.smd" {
	fps 30
}

$sequence "idle" {
	"a_idle"
	fadein 0.2
	fadeout 0.2
	fps 30
}

