// Created by Crowbar 0.56

$modelname "ShaderTest/VertexLitMaskedEnvmap.mdl"

$staticprop

$bodygroup "Body"
{
	studio "VertexLitMaskedEnvmap.smd"
}


$surfaceprop "metalpanel"

$illumposition 0.037 -0.016 24.008

$cdmaterials "models\shadertest\"

$cbox 0 0 0 0 0 0

$bbox -15.979 -15.921 0 16.01 15.995 48.017

$definebone "static_prop" "" 0 0 0 0 0 0 0 0 0 0 0 0

$animation "a_idle1" "VertexLitMaskedEnvmap_anims\idle1.smd" {
	fps 30
}

$sequence "idle1" {
	"VertexLitMaskedEnvmap_anims\idle1.smd"
	fadein 0
	fadeout 0
	fps 30
}


$collisionmodel "VertexLitMaskedEnvmap_physics.smd"
{
	$mass 24
	$inertia 1
	$damping 0
	$rotdamping 0
	$rootbone " "

}
