// Created by Crowbar 0.56

$modelname "shadertest/VertexLitTexturePlusEnvmappedBumpmap.mdl"

$bodygroup "Alyx"
{
	studio "VertexLitTexturePlusEnvmappedBumpmap.smd"
}


$illumposition -0.202 0.742 34.408

$cdmaterials "models\shadertest\"

$cbox 0 0 0 0 0 0

$bbox -11.61 -20.368 -0.989 10.126 19.965 69.805

$controller 0 "Bip01 Head" 8 -60 60
$controller 1 "Bip01 Head" 32 -30 30

$definebone "Bip01" "" -0.003701 0.063501 38.715622 10.999986 -89.999921 0 0 0 0 0 0 0
$definebone "Bip01 Pelvis" "Bip01" -0.542978 0 -0.105543 -89.980216 -89.999921 0 0 0 0 0 0 0
$definebone "Bip01 Spine" "Bip01 Pelvis" 4.502981 -0.021668 0.000006 -0.000115 -6.204388 -0.000229 0 0 0 0 0 0
$definebone "Bip01 Spine1" "Bip01 Spine" 2.809409 -0.002427 0 0 -7.999981 0 0 0 0 0 0 0
$definebone "Bip01 Spine2" "Bip01 Spine1" 3.07682 -0.006556 0 0 -9.375023 0 0 0 0 0 0 0
$definebone "Bip01 Spine3" "Bip01 Spine2" 8.345988 -0.001884 0 0 3.000007 0 0 0 0 0 0 0
$definebone "Bip01 Neck" "Bip01 Spine3" 2.368582 -0.001965 0 0 0.875021 0 0 0 0 0 0 0
$definebone "Bip01 Head" "Bip01 Neck" 2.467874 0 0 -0.000057 19.704305 0 0 0 0 0 0 0
$definebone "Bip01 L Clavicle" "Bip01 Neck" -1.580643 -0.227032 1.102966 -82.540808 179.080595 -0.001203 0 0 0 0 0 0
$definebone "Bip01 L UpperArm" "Bip01 L Clavicle" 4.104195 0 -0.000002 46.707989 14.206203 15.021119 0 0 0 0 0 0
$definebone "Bip01 L Forearm" "Bip01 L UpperArm" 12.057885 0 0.000002 0.000002 -3.774704 0.000001 0 0 0 0 0 0
$definebone "Bip01 L Hand" "Bip01 L Forearm" 10.193419 0 -0.000001 -6.981317 4.532954 -90.414739 0 0 0 0 0 0
$definebone "Bip01 L Finger0" "Bip01 L Hand" 1.788187 0.382542 -1.370239 51.120725 52.408103 -38.442829 0 0 0 0 0 0
$definebone "Bip01 L Finger01" "Bip01 L Finger0" 1.022892 0.000002 0.000001 0.000001 -0.000005 0.000001 0 0 0 0 0 0
$definebone "Bip01 L Finger02" "Bip01 L Finger01" 0.93765 0.000002 -0.000001 0.000001 7.500015 0.000001 0 0 0 0 0 0
$definebone "Bip01 L Finger1" "Bip01 L Hand" 3.470906 -0.141737 -1.271381 17.946869 2.953196 -0.122443 0 0 0 0 0 0
$definebone "Bip01 L Finger11" "Bip01 L Finger1" 1.546059 0.000002 0 -0.000001 27.999983 -0.000002 0 0 0 0 0 0
$definebone "Bip01 L Finger12" "Bip01 L Finger11" 0.921524 0 -0.000001 -0.000001 11.500002 -0.000002 0 0 0 0 0 0
$definebone "Bip01 L Finger2" "Bip01 L Hand" 3.437376 -0.142373 -0.42286 5.478967 6.504101 -0.123875 0 0 0 0 0 0
$definebone "Bip01 L Finger21" "Bip01 L Finger2" 2.008012 -0.000002 0 0.000001 27.500022 -0.000001 0 0 0 0 0 0
$definebone "Bip01 L Finger22" "Bip01 L Finger21" 1.075115 0.000002 0 0.000001 11.99997 -0.000001 0 0 0 0 0 0
$definebone "Bip01 L Finger3" "Bip01 L Hand" 3.404063 -0.143632 0.483983 -4.986678 4.016149 -0.630427 0 0 0 0 0 0
$definebone "Bip01 L Finger31" "Bip01 L Finger3" 1.777832 0.000001 0.000001 0.000003 28.999959 0 0 0 0 0 0 0
$definebone "Bip01 L Finger32" "Bip01 L Finger31" 0.921523 0 0 0.000003 13.999982 0.000001 0 0 0 0 0 0
$definebone "Bip01 L Finger4" "Bip01 L Hand" 3.359592 -0.188536 1.285898 -8.943638 5.707918 -1.014137 0 0 0 0 0 0
$definebone "Bip01 L Finger41" "Bip01 L Finger4" 1.23966 0 -0.000001 0.000003 26.499982 0.000001 0 0 0 0 0 0
$definebone "Bip01 L Finger42" "Bip01 L Finger41" 0.767936 -0.000001 0 0.000003 13.999991 0.000002 0 0 0 0 0 0
$definebone "Bip01 L Ulna" "Bip01 L Forearm" 5.096708 0 -0.000001 0.000002 -0.000001 -0.302922 0 0 0 0 0 0
$definebone "Bip01 L Wrist" "Bip01 L Forearm" 10.193419 0 -0.000003 0.000002 -0.000001 -0.605787 0 0 0 0 0 0
$definebone "Bip01 L Bicep" "Bip01 L UpperArm" 6.028942 0 0.000001 0.000004 -0.000002 -11.274662 0 0 0 0 0 0
$definebone "Bip01 L Elbow" "Bip01 L UpperArm" 12.057884 0 0.000001 0.000003 -2.803083 0.000001 0 0 0 0 0 0
$definebone "Bip01 L Shoulder" "Bip01 L Clavicle" 4.104195 0 -0.000002 47.927752 1.269273 -26.01784 0 0 0 0 0 0
$definebone "Bip01 R Clavicle" "Bip01 Neck" -1.580644 -0.227026 -1.102968 82.540808 179.078136 -0.001203 0 0 0 0 0 0
$definebone "Bip01 R UpperArm" "Bip01 R Clavicle" 4.104195 0 -0.000003 -46.707986 14.206204 -15.021119 0 0 0 0 0 0
$definebone "Bip01 R Forearm" "Bip01 R UpperArm" 12.057884 0 0.000002 -0.000001 -3.774702 0 0 0 0 0 0 0
$definebone "Bip01 R Hand" "Bip01 R Forearm" 10.193418 0 0.000002 6.981319 4.532958 90.414746 0 0 0 0 0 0
$definebone "Bip01 R Finger0" "Bip01 R Hand" 1.788188 0.382547 1.370239 -51.120732 52.408165 38.442832 0 0 0 0 0 0
$definebone "Bip01 R Finger01" "Bip01 R Finger0" 1.022892 0.000001 0 -0.000002 0.000001 0.000004 0 0 0 0 0 0
$definebone "Bip01 R Finger02" "Bip01 R Finger01" 0.93765 0.000002 0.000001 -0.000003 7.500018 0.000003 0 0 0 0 0 0
$definebone "Bip01 R Finger1" "Bip01 R Hand" 3.470903 -0.141735 1.271381 -17.946869 2.953197 0.122441 0 0 0 0 0 0
$definebone "Bip01 R Finger11" "Bip01 R Finger1" 1.546059 0.000005 0 0.000001 27.999988 0 0 0 0 0 0 0
$definebone "Bip01 R Finger12" "Bip01 R Finger11" 0.92152 0.000002 0.000001 0.000001 11.500006 0.000001 0 0 0 0 0 0
$definebone "Bip01 R Finger2" "Bip01 R Hand" 3.437373 -0.142372 0.42286 -5.478965 6.504103 0.123873 0 0 0 0 0 0
$definebone "Bip01 R Finger21" "Bip01 R Finger2" 2.008012 0.000002 0.000001 0.000001 27.500027 0 0 0 0 0 0 0
$definebone "Bip01 R Finger22" "Bip01 R Finger21" 1.075111 0.000001 0 0.000001 11.999971 0 0 0 0 0 0 0
$definebone "Bip01 R Finger3" "Bip01 R Hand" 3.40406 -0.143628 -0.483983 4.986682 4.016152 0.630425 0 0 0 0 0 0
$definebone "Bip01 R Finger31" "Bip01 R Finger3" 1.777834 0.000001 -0.000001 0.000002 28.999969 0.000001 0 0 0 0 0 0
$definebone "Bip01 R Finger32" "Bip01 R Finger31" 0.921516 -0.000002 -0.000001 0.000002 13.999988 0.000001 0 0 0 0 0 0
$definebone "Bip01 R Finger4" "Bip01 R Hand" 3.359592 -0.188532 -1.285898 8.943644 5.707923 1.014135 0 0 0 0 0 0
$definebone "Bip01 R Finger41" "Bip01 R Finger4" 1.239659 -0.000002 0.000001 0.000001 26.499987 0 0 0 0 0 0 0
$definebone "Bip01 R Finger42" "Bip01 R Finger41" 0.767935 -0.000003 0 0.000002 13.999993 0.000001 0 0 0 0 0 0
$definebone "Bip01 R Ulna" "Bip01 R Forearm" 5.096707 0 0.000001 -0.000001 0.000001 0.302923 0 0 0 0 0 0
$definebone "Bip01 R Wrist" "Bip01 R Forearm" 10.193417 0 0.000003 -0.000001 0.000001 0.605789 0 0 0 0 0 0
$definebone "Bip01 R Bicep" "Bip01 R UpperArm" 6.028937 0 0 0.000001 0.000001 11.274664 0 0 0 0 0 0
$definebone "Bip01 R Elbow" "Bip01 R UpperArm" 12.057879 0 0.000002 -0.000001 -2.80308 0 0 0 0 0 0 0
$definebone "Bip01 R Shoulder" "Bip01 R Clavicle" 4.104194 0 -0.000002 -47.927749 1.269274 26.017844 0 0 0 0 0 0
$definebone "Bip01 R Pectoral" "Bip01 Spine2" 3.811282 3.206264 -2.495616 0 0 0 0 0 0 0 0 0
$definebone "Bip01 R Breast" "Bip01 R Pectoral" -0.366762 0.367219 -0.20352 -89.925957 18.242059 -94.794434 0 0 0 0 0 0
$definebone "Bip01 L Pectoral" "Bip01 Spine2" 3.811279 3.206254 2.495622 0 0 0 0 0 0 0 0 0
$definebone "Bip01 L Breast" "Bip01 L Pectoral" -0.366768 0.367221 0.182174 -89.999983 -77.420639 0 0 0 0 0 0 0
$definebone "Bip01 L Thigh" "Bip01 Spine" -4.478951 -0.465128 3.409638 -0.000036 171.349763 179.999829 0 0 0 0 0 0
$definebone "Bip01 L Calf" "Bip01 L Thigh" 16.405741 0.000001 0 0 -12.584158 0 0 0 0 0 0 0
$definebone "Bip01 L Foot" "Bip01 L Calf" 16.71874 0 0 0 6.979486 0 0 0 0 0 0 0
$definebone "Bip01 L Toe0" "Bip01 L Foot" 5.538533 5.980099 0 0 89.000057 0 0 0 0 0 0 0
$definebone "Bip01 L Ankle" "Bip01 L Calf" 16.71874 0 0 0 0 0 0 0 0 0 0 0
$definebone "Bip01 L Quadricep" "Bip01 L Thigh" 6.562297 0 0 0 0 0 0 0 0 0 0 0
$definebone "Bip01 L Knee" "Bip01 L Thigh" 16.405741 0.000001 0 0 -8.30193 0 0 0 0 0 0 0
$definebone "Bip01 R Thigh" "Bip01 Spine" -4.478952 -0.465109 -3.40964 -0.000036 171.349763 179.999829 0 0 0 0 0 0
$definebone "Bip01 R Calf" "Bip01 R Thigh" 16.405741 0.000001 0 0 -12.584158 0 0 0 0 0 0 0
$definebone "Bip01 R Foot" "Bip01 R Calf" 16.71874 0 0 0 6.979486 0 0 0 0 0 0 0
$definebone "Bip01 R Toe0" "Bip01 R Foot" 5.538533 5.9801 0 0 89.000057 0 0 0 0 0 0 0
$definebone "Bip01 R Ankle" "Bip01 R Calf" 16.718742 0 0 0 0 0 0 0 0 0 0 0
$definebone "Bip01 R Quadricep" "Bip01 R Thigh" 6.562297 0 0 0 0 0 0 0 0 0 0 0
$definebone "Bip01 R Knee" "Bip01 R Thigh" 16.405741 0.000001 0 0 -8.30193 0 0 0 0 0 0 0
$definebone "Bip01 R Hip" "Bip01 Spine" -4.478952 -0.465109 -3.40964 0 -4.24682 0 0 0 0 0 0 0
$definebone "Bip01 L Hip" "Bip01 Spine" -4.478951 -0.465128 3.409638 0 -4.24682 0 0 0 0 0 0 0

$animation "a_sexyidle" "VertexLitTexturePlusEnvmappedBumpmap_anims\sexyidle.smd" {
	fps 30
	loop
}

$sequence "sexyidle" {
	"VertexLitTexturePlusEnvmappedBumpmap_anims\sexyidle.smd"
	activity "ACT_IDLE" 1
	fadein 0
	fadeout 0
	fps 30
	loop
}

