// Created by Crowbar 0.56

$modelname "Fire_equipment/W_FireHydrant.mdl"

$staticprop

$bodygroup "body"
{
	studio "W_FireHydrant.smd"
}


$contents "solid"

$illumposition -0.745 2.23 18.266

$cdmaterials "models\fire_equipment\w_firehydrant\"

$cbox 0 0 0 0 0 0

$bbox -11.963 -9.107 -0.085 7.503 7.617 36.617

$definebone "static_prop" "" 0 0 0 0 0 0 0 0 0 0 0 0

$animation "a_IDLE" "W_FireHydrant_anims\IDLE.smd" {
	fps 5
	loop
}

$sequence "IDLE" {
	"a_IDLE"
	fadein 0.2
	fadeout 0.2
	fps 5
	loop
}

