// Created by Crowbar 0.56

$modelname "Fire_equipment/W_WeldTankLid.mdl"

$staticprop

$bodygroup "Body"
{
	studio "W_WeldTankLid.smd"
}


$contents "solid"

$illumposition 0.007 0 37.337

$cdmaterials "models\fire_equipment\w_weldtanklid\"

$cbox 0 0 0 0 0 0

$bbox -5.279 -5.408 0.279 5.279 5.422 74.394

$definebone "static_prop" "" 0 0 0 0 0 0 0 0 0 0 0 0

$animation "a_idle" "W_WeldTankLid_anims\idle.smd" {
	fps 30
}

$sequence "idle" {
	"a_idle"
	fadein 0.2
	fadeout 0.2
	fps 30
}

