// Created by Crowbar 0.56

$modelname "items/boxbrounds.mdl"

$staticprop

$bodygroup "body"
{
	studio "boxbrounds_reference.smd"
}


$contents "solid"

$illumposition -0.12 0.033 2.8

$cdmaterials "models\items\"

$cbox 0 0 0 0 0 0

$bbox -1.459 -5.729 0.003 1.393 5.489 5.597

$definebone "static_prop" "" 0 0 0 0 0 0 0 0 0 0 0 0

$animation "a_IDLE" "BoxBRounds_anims\IDLE.smd" {
	fps 5
	loop
}

$sequence "IDLE" {
	"a_IDLE"
	fadein 0.2
	fadeout 0.2
	fps 5
	loop
}

