// Created by Crowbar 0.56

$modelname "Items/healthKit.mdl"

$staticprop

$bodygroup "Body"
{
	studio "healthKit_reference.smd"
}


$surfaceprop "metal"

$contents "solid"

$illumposition -0.187 -5.272 2.131

$cdmaterials "models\items\"

$cbox 0 0 0 0 0 0

$bbox -1.9 -7.756 0.014 12.444 7.382 4.248

$definebone "static_prop" "" 0 0 0 0 0 0 0 0 0 0 0 0

$animation "a_idle" "HealthKit_anims\idle.smd" {
	fps 30
}

$sequence "idle" {
	"a_idle"
	fadein 0.2
	fadeout 0.2
	fps 30
}


$collisionmodel "HealthKit_physics.smd"
{
	$mass 10
	$inertia 1
	$damping 0
	$rotdamping 0
	$rootbone " "
	$concave

}
