// Created by Crowbar 0.56

$modelname "props_junk/cardboard_box002a.mdl"

$staticprop

$bodygroup "Body"
{
	studio "cardboard_box002a_reference.smd"
}


$surfaceprop "cardboard"

$contents "solid"

$illumposition 0 0 0

$cdmaterials "models\props_junk\"

$cbox 0 0 0 0 0 0

$bbox -16.147 -19.358 -11.987 16.147 19.358 11.987

$definebone "static_prop" "" 0 0 0 0 0 0 0 0 0 0 0 0

$animation "a_idle" "cardboard_box002a_anims\idle.smd" {
	fps 30
}

$sequence "idle" {
	"a_idle"
	fadein 0.2
	fadeout 0.2
	fps 30
}


$collisionmodel "cardboard_box002a_physics.smd"
{
	$mass 30
	$inertia 1
	$damping 0
	$rotdamping 0
	$rootbone " "
	$concave

}
