// Created by Crowbar 0.56

$modelname "props_junk/GlassBottle01a.mdl"

$staticprop

$bodygroup "Body"
{
	studio "GlassBottle01a_reference.smd"
}


$surfaceprop "glass"

$contents "solid"

$illumposition 0 0 0

$cdmaterials "models\props_junk\"

$texturegroup "skinfamilies"
{
	{ "GlassBottle01a" }
	{ "GlassBottle01b" }
}

$cbox 0 0 0 0 0 0

$bbox -1.8 -1.698 -6.487 1.8 1.698 6.487

$definebone "static_prop" "" 0 0 0 0 0 0 0 0 0 0 0 0

$animation "a_idle" "GlassBottle01a_anims\idle.smd" {
	fps 30
}

$sequence "idle" {
	"a_idle"
	fadein 0.2
	fadeout 0.2
	fps 30
}


$collisionmodel "GlassBottle01a_physics.smd"
{
	$mass 5
	$inertia 1
	$damping 0
	$rotdamping 0
	$rootbone " "
	$concave

}
