// Created by Crowbar 0.56

$modelname "props_junk/GlassBottle002a.mdl"

$staticprop

$bodygroup "Body"
{
	studio "GlassBottle002a_reference.smd"
}


$surfaceprop "glass"

$illumposition 0 0 0

$cdmaterials "models\props_junk\"

$cbox 0 0 0 0 0 0

$bbox -1.247 -1.44 -5.18 1.247 1.44 5.18

$definebone "static_prop" "" 0 0 0 0 0 0 0 0 0 0 0 0

$animation "a_idle" "GlassBottle002a_anims\idle.smd" {
	fps 30
}

$sequence "idle" {
	"GlassBottle002a_anims\idle.smd"
	fadein 0
	fadeout 0
	fps 30
}


$collisionmodel "GlassBottle002a_physics.smd"
{
	$mass 5
	$inertia 1
	$damping 0
	$rotdamping 0
	$rootbone " "
	$concave

}
