// Created by Crowbar 0.56

$modelname "props_junk/metal_paintcan001a.mdl"

$staticprop

$bodygroup "Body"
{
	studio "metal_paintcan001a_reference.smd"
}


$surfaceprop "metal"

$contents "solid"

$illumposition -0.007 -0.03 0

$cdmaterials "models\props_junk\"

$cbox 0 0 0 0 0 0

$bbox -5.455 -5.798 -6.44 5.516 5.785 6.44

$definebone "static_prop" "" 0 0 0 0 0 0 0 0 0 0 0 0

$animation "a_idle" "metal_paintcan001a_anims\idle.smd" {
	fps 30
}

$sequence "idle" {
	"a_idle"
	fadein 0.2
	fadeout 0.2
	fps 30
}


$collisionmodel "metal_paintcan001a_physics.smd"
{
	$mass 11
	$inertia 1
	$damping 0
	$rotdamping 0
	$rootbone " "
	$concave

}
