// Created by Crowbar 0.56

$modelname "props_junk/Shovel01a.mdl"

$staticprop

$bodygroup "Body"
{
	studio "Shovel01a_reference.smd"
}


$surfaceprop "metal"

$contents "solid"

$illumposition -0.033 0.002 0

$cdmaterials "models\props_junk\"

$cbox 0 0 0 0 0 0

$bbox -2.497 -6.44 -32.301 2.493 6.374 32.301

$definebone "static_prop" "" 0 0 0 0 0 0 0 0 0 0 0 0

$animation "a_idle" "Shovel01a_anims\idle.smd" {
	fps 30
}

$sequence "idle" {
	"a_idle"
	fadein 0.2
	fadeout 0.2
	fps 30
}


$collisionmodel "Shovel01a_physics.smd"
{
	$mass 10
	$inertia 1
	$damping 0
	$rotdamping 0
	$rootbone " "
	$concave

}
