// Created by Crowbar 0.56

$modelname "props_junk/terracotta_chunk01c.mdl"

$staticprop

$bodygroup "Body"
{
	studio "terracotta_chunk01c_reference.smd"
}


$surfaceprop "glass"

$contents "solid"

$illumposition -1.659 -2.985 4.239

$cdmaterials "models\props_junk\"

$cbox 0 0 0 0 0 0

$bbox 0.638 -3.02 0.523 5.332 -0.299 7.955

$definebone "static_prop" "" 0 0 0 0 0 0 0 0 0 0 0 0

$animation "a_idle" "terracotta_chunk01c_anims\idle.smd" {
	fps 30
}

$sequence "idle" {
	"a_idle"
	fadein 0.2
	fadeout 0.2
	fps 30
}


$collisionmodel "terracotta_chunk01c_physics.smd"
{
	$mass 2.02419
	$inertia 1
	$damping 0
	$rotdamping 0
	$rootbone " "
	$concave

}
