// Created by Crowbar 0.56

$modelname "props_junk/terracotta_chunk01K.mdl"

$staticprop

$bodygroup "Body"
{
	studio "terracotta_chunk01K_reference.smd"
}


$surfaceprop "glass"

$contents "solid"

$illumposition 3.963 -1.201 5.09

$cdmaterials "models\props_junk\"

$cbox 0 0 0 0 0 0

$bbox -2.245 1.641 0.138 4.646 6.285 10.041

$definebone "static_prop" "" 0 0 0 0 0 0 0 0 0 0 0 0

$animation "a_idle" "terracotta_chunk01K_anims\idle.smd" {
	fps 30
}

$sequence "idle" {
	"a_idle"
	fadein 0.2
	fadeout 0.2
	fps 30
}

