// Created by Crowbar 0.56

$modelname "props_junk/terracotta01.mdl"

$staticprop

$bodygroup "Body"
{
	studio "terracotta01_reference.smd"
}

$lod 50
{
	replacemodel "terracotta01_reference.smd" "terracotta01_reference_lod1.smd"
}
$lod 130
{
	replacemodel "terracotta01_reference.smd" "terracotta01_reference_lod2.smd"
}

$surfaceprop "glass"

$contents "solid"

$illumposition 0 0.807 6.706

$cdmaterials "models\props_junk\"

$cbox 0 0 0 0 0 0

$bbox -9.813 -9.006 0.064 8.199 9.006 13.348

$definebone "static_prop" "" 0 0 0 0 0 0 0 0 0 0 0 0

$animation "a_idle" "terracotta01_anims\idle.smd" {
	fps 30
}

$sequence "idle" {
	"a_idle"
	fadein 0.2
	fadeout 0.2
	fps 30
}


$collisionmodel "terracotta01_physics.smd"
{
	$mass 55.98357
	$inertia 1
	$damping 0
	$rotdamping 0
	$rootbone " "
	$concave

}

$collisiontext
{
	break 
	{
		"model" "props_junk/terracotta_chunk01a"
		"health" "10"
		"fadetime" "1"
	}
	break 
	{
		"model" "props_junk/terracotta_chunk01b"
		"health" "10"
		"fadetime" "2"
	}
	break 
	{
		"model" "props_junk/terracotta_chunk01c"
		"health" "10"
		"fadetime" "3"
	}
	break 
	{
		"model" "props_junk/terracotta_chunk01d"
		"health" "10"
		"fadetime" "4"
	}
	break 
	{
		"model" "props_junk/terracotta_chunk01e"
		"health" "10"
		"fadetime" "5"
	}
	break 
	{
		"model" "props_junk/terracotta_chunk01f"
		"health" "10"
		"fadetime" "5"
	}
	break 
	{
		"model" "props_junk/terracotta_chunk01g"
		"health" "10"
		"fadetime" "4"
	}
	break 
	{
		"model" "props_junk/terracotta_chunk01h"
		"health" "10"
		"fadetime" "3"
	}
	break 
	{
		"model" "props_junk/terracotta_chunk01i"
		"health" "10"
		"fadetime" "1"
	}
	break 
	{
		"model" "props_junk/terracotta_chunk01j"
		"health" "10"
		"fadetime" "2"
	}
	break 
	{
		"model" "props_junk/terracotta_chunk01k"
		"health" "10"
		"fadetime" "3"
	}
}
