// Created by Crowbar 0.56

$modelname "props_junk/TrashDumpster01a.mdl"

$staticprop

$bodygroup "Body"
{
	studio "TrashDumpster01a_reference.smd"
}

$lod 10
{
	replacemodel "TrashDumpster01a_reference.smd" "TrashDumpster01a_reference_lod1.smd"
}
$lod 30
{
	replacemodel "TrashDumpster01a_reference.smd" "TrashDumpster01a_reference_lod2.smd"
}
$lod 60
{
	replacemodel "TrashDumpster01a_reference.smd" "TrashDumpster01a_reference_lod3.smd"
}

$surfaceprop "metal"

$contents "solid"

$illumposition 0 0 0

$cdmaterials "models\props_junk\"

$cbox 0 0 0 0 0 0

$bbox -26.092 -36.825 -26.662 26.092 36.825 26.663

$definebone "static_prop" "" 0 0 0 0 0 0 0 0 0 0 0 0

$animation "a_idle" "TrashDumpster01a_anims\idle.smd" {
	fps 30
}

$sequence "idle" {
	"a_idle"
	fadein 0.2
	fadeout 0.2
	fps 30
}


$collisionmodel "TrashDumpster01a_physics.smd"
{
	$mass 450
	$inertia 1
	$damping 0
	$rotdamping 0
	$rootbone " "
	$concave

}
