// Created by Crowbar 0.56

$modelname "props_junk/wood_pallet001a_chunkb1.mdl"

$staticprop

$bodygroup "Body"
{
	studio "wood_pallet001a_chunkb1_reference.smd"
}


$surfaceprop "wood"

$contents "solid"

$illumposition -32.491 -0.266 3.528

$cdmaterials "models\props_junk\"

$cbox 0 0 0 0 0 0

$bbox -31.579 -36.983 3.129 32.11 -27.998 3.926

$definebone "static_prop" "" 0 0 0 0 0 0 0 0 0 0 0 0

$animation "a_idle" "wood_pallet001a_chunkb1_anims\idle.smd" {
	fps 30
}

$sequence "idle" {
	"a_idle"
	fadein 0.2
	fadeout 0.2
	fps 30
}


$collisionmodel "wood_pallet001a_chunkb1_physics.smd"
{
	$mass 30
	$inertia 1
	$damping 0
	$rotdamping 0
	$rootbone " "
	$concave

}

$collisiontext
{
	break 
	{
		"model" "props_debris/wood_splinters01a"
		"health" "10"
		"fadetime" "2"
		"debris" "1"
	}
	break 
	{
		"model" "props_debris/wood_splinters01b"
		"health" "10"
		"fadetime" "2"
		"debris" "1"
	}
	break 
	{
		"model" "props_debris/wood_splinters01c"
		"health" "10"
		"fadetime" "2"
		"debris" "1"
	}
	break 
	{
		"model" "props_debris/wood_splinters01b"
		"health" "10"
		"fadetime" "2"
		"debris" "1"
	}
	break 
	{
		"model" "props_debris/wood_splinters01c"
		"health" "10"
		"fadetime" "2"
		"debris" "1"
	}
	break 
	{
		"model" "props_debris/wood_splinters01d"
		"health" "10"
		"fadetime" "2"
		"debris" "1"
	}
	break 
	{
		"model" "props_debris/wood_splinters01e"
		"health" "10"
		"fadetime" "2"
		"debris" "1"
	}
}
