// Created by Crowbar 0.56

$modelname "props_junk/wood_pallet001a_chunka.mdl"

$staticprop

$bodygroup "Body"
{
	studio "wood_pallet001a_chunka_reference.smd"
}


$surfaceprop "wood"

$contents "solid"

$illumposition 11.808 0.14 0

$cdmaterials "models\props_junk\"

$cbox 0 0 0 0 0 0

$bbox -32.501 -13.967 -3.926 32.221 37.583 3.926

$definebone "static_prop" "" 0 0 0 0 0 0 0 0 0 0 0 0

$animation "a_idle" "wood_pallet001a_chunka_anims\idle.smd" {
	fps 30
}

$sequence "idle" {
	"a_idle"
	fadein 0.2
	fadeout 0.2
	fps 30
}


$collisionmodel "wood_pallet001a_chunka_physics.smd"
{
	$mass 30
	$inertia 1
	$damping 0
	$rotdamping 0
	$rootbone " "
	$concave

}

$collisiontext
{
	break 
	{
		"model" "props_junk/wood_pallet001a_chunka1"
		"health" "10"
		"debris" "1"
	}
	break 
	{
		"model" "props_junk/wood_pallet001a_chunka2"
		"health" "10"
		"debris" "1"
	}
	break 
	{
		"model" "props_junk/wood_pallet001a_chunka3"
		"health" "10"
		"debris" "1"
	}
	break 
	{
		"model" "props_junk/wood_pallet001a_chunka4"
		"health" "10"
		"debris" "1"
	}
	break 
	{
		"model" "props_junk/wood_pallet001a_chunka5"
		"debris" "1"
	}
	break 
	{
		"model" "props_debris/wood_splinters01a"
		"health" "10"
		"fadetime" "2"
		"debris" "1"
	}
	break 
	{
		"model" "props_debris/wood_splinters01b"
		"health" "10"
		"fadetime" "2"
		"debris" "1"
	}
	break 
	{
		"model" "props_debris/wood_splinters01c"
		"health" "10"
		"fadetime" "2"
		"debris" "1"
	}
	break 
	{
		"model" "props_debris/wood_splinters01b"
		"health" "10"
		"fadetime" "2"
		"debris" "1"
	}
	break 
	{
		"model" "props_debris/wood_splinters01c"
		"health" "10"
		"fadetime" "2"
		"debris" "1"
	}
	break 
	{
		"model" "props_debris/wood_splinters01d"
		"health" "10"
		"fadetime" "2"
		"debris" "1"
	}
	break 
	{
		"model" "props_debris/wood_splinters01e"
		"health" "10"
		"fadetime" "2"
		"debris" "1"
	}
}
