// Created by Crowbar 0.56

$modelname "props_junk/wood_pallet001a_chunka2.mdl"

$staticprop

$bodygroup "Body"
{
	studio "wood_pallet001a_chunka2_reference.smd"
}


$surfaceprop "wood"

$contents "solid"

$illumposition 33.288 0.234 -3.528

$cdmaterials "models\props_junk\"

$cbox 0 0 0 0 0 0

$bbox -32.363 29.226 -3.926 31.895 37.35 -3.129

$definebone "static_prop" "" 0 0 0 0 0 0 0 0 0 0 0 0

$animation "a_idle" "wood_pallet001a_chunka2_anims\idle.smd" {
	fps 30
}

$sequence "idle" {
	"a_idle"
	fadein 0.2
	fadeout 0.2
	fps 30
}


$collisionmodel "wood_pallet001a_chunka2_physics.smd"
{
	$mass 30
	$inertia 1
	$damping 0
	$rotdamping 0
	$rootbone " "
	$concave

}

$collisiontext
{
	break 
	{
		"model" "props_debris/wood_splinters01a"
		"health" "10"
		"fadetime" "2"
		"debris" "1"
	}
	break 
	{
		"model" "props_debris/wood_splinters01b"
		"health" "10"
		"fadetime" "2"
		"debris" "1"
	}
	break 
	{
		"model" "props_debris/wood_splinters01c"
		"health" "10"
		"fadetime" "2"
		"debris" "1"
	}
	break 
	{
		"model" "props_debris/wood_splinters01b"
		"health" "10"
		"fadetime" "2"
		"debris" "1"
	}
	break 
	{
		"model" "props_debris/wood_splinters01c"
		"health" "10"
		"fadetime" "2"
		"debris" "1"
	}
	break 
	{
		"model" "props_debris/wood_splinters01d"
		"health" "10"
		"fadetime" "2"
		"debris" "1"
	}
	break 
	{
		"model" "props_debris/wood_splinters01e"
		"health" "10"
		"fadetime" "2"
		"debris" "1"
	}
}
