// Created by Crowbar 0.56

$modelname "props_vehicles/apc001.mdl"

$staticprop

$bodygroup "Body"
{
	studio "apc001_reference.smd"
}


$surfaceprop "metal"

$contents "solid"

$illumposition -10.877 0 58.465

$cdmaterials "models\props_vehicles\"

$cbox 0 0 0 0 0 0

$bbox -65 -174.754 -48 65 153 164.931

$definebone "static_prop" "" 0 0 0 0 0 0 0 0 0 0 0 0

$animation "a_idle" "apc001_anims\idle.smd" {
	fps 30
}

$sequence "idle" {
	"a_idle"
	fadein 0.2
	fadeout 0.2
	fps 30
}


$collisionmodel "apc001_physics.smd"
{
	$mass 500
	$inertia 1
	$damping 0
	$rotdamping 0
	$rootbone " "
	$concave

}
