// Created by Crowbar 0.56

$modelname "props_vehicles/carparts_tire01a.mdl"

$staticprop

$bodygroup "Body"
{
	studio "carparts_tire01a_reference.smd"
}

$lod 40
{
	replacemodel "carparts_tire01a_reference.smd" "carparts_tire01a_reference_lod1.smd"
}

$surfaceprop "dirt"

$contents "solid"

$illumposition 0 0 0

$cdmaterials "models\props_vehicles\"

$cbox 0 0 0 0 0 0

$bbox -16.46 -4.905 -16.46 16.46 4.905 16.46

$definebone "static_prop" "" 0 0 0 0 0 0 0 0 0 0 0 0

$animation "a_idle" "carparts_tire01a_anims\idle.smd" {
	fps 30
}

$sequence "idle" {
	"a_idle"
	fadein 0.2
	fadeout 0.2
	fps 30
}


$collisionmodel "carparts_tire01a_physics.smd"
{
	$mass 25
	$inertia 1
	$damping 0
	$rotdamping 0
	$rootbone " "
	$concave

}
