"BaseActionPauseDialog.res"
{
	"Pause"
	{
		"ControlName"		"Frame"
		"fieldName"		"Pause"
		"xpos"		"0"
		"ypos"		"0"
		"wide"		"400"
		"tall"		"300"
		"autoResize"		"0"
		"pinCorner"		"0"
		"visible"		"1"
		"enabled"		"1"
		"tabPosition"		"0"
	}
	"TopGrip"
	{
		"ControlName"		"Panel"
		"fieldName"		"TopGrip"
		"xpos"		"11"
		"ypos"		"0"
		"wide"		"378"
		"tall"		"5"
		"autoResize"		"0"
		"pinCorner"		"0"
		"visible"		"1"
		"enabled"		"1"
		"tabPosition"		"0"
	}
	"BottomGrip"
	{
		"ControlName"		"Panel"
		"fieldName"		"BottomGrip"
		"xpos"		"11"
		"ypos"		"295"
		"wide"		"378"
		"tall"		"5"
		"autoResize"		"0"
		"pinCorner"		"0"
		"visible"		"1"
		"enabled"		"1"
		"tabPosition"		"0"
	}
	"LeftGrip"
	{
		"ControlName"		"Panel"
		"fieldName"		"LeftGrip"
		"xpos"		"0"
		"ypos"		"11"
		"wide"		"5"
		"tall"		"278"
		"autoResize"		"0"
		"pinCorner"		"0"
		"visible"		"1"
		"enabled"		"1"
		"tabPosition"		"0"
	}
	"RightGrip"
	{
		"ControlName"		"Panel"
		"fieldName"		"RightGrip"
		"xpos"		"395"
		"ypos"		"11"
		"wide"		"5"
		"tall"		"278"
		"autoResize"		"0"
		"pinCorner"		"0"
		"visible"		"1"
		"enabled"		"1"
		"tabPosition"		"0"
	}
	"TopLeftGrip"
	{
		"ControlName"		"Panel"
		"fieldName"		"TopLeftGrip"
		"xpos"		"0"
		"ypos"		"0"
		"wide"		"11"
		"tall"		"11"
		"autoResize"		"0"
		"pinCorner"		"0"
		"visible"		"1"
		"enabled"		"1"
		"tabPosition"		"0"
	}
	"TopRightGrip"
	{
		"ControlName"		"Panel"
		"fieldName"		"TopRightGrip"
		"xpos"		"389"
		"ypos"		"0"
		"wide"		"11"
		"tall"		"11"
		"autoResize"		"0"
		"pinCorner"		"0"
		"visible"		"1"
		"enabled"		"1"
		"tabPosition"		"0"
	}
	"BottomLeftGrip"
	{
		"ControlName"		"Panel"
		"fieldName"		"BottomLeftGrip"
		"xpos"		"0"
		"ypos"		"289"
		"wide"		"11"
		"tall"		"11"
		"autoResize"		"0"
		"pinCorner"		"0"
		"visible"		"1"
		"enabled"		"1"
		"tabPosition"		"0"
	}
	"BottomRightGrip"
	{
		"ControlName"		"Panel"
		"fieldName"		"BottomRightGrip"
		"xpos"		"389"
		"ypos"		"289"
		"wide"		"11"
		"tall"		"11"
		"autoResize"		"0"
		"pinCorner"		"0"
		"visible"		"1"
		"enabled"		"1"
		"tabPosition"		"0"
	}
	"Caption"
	{
		"ControlName"		"Panel"
		"fieldName"		"Caption"
		"xpos"		"44"
		"ypos"		"4"
		"wide"		"390"
		"tall"		"23"
		"autoResize"		"0"
		"pinCorner"		"0"
		"visible"		"1"
		"enabled"		"1"
		"tabPosition"		"0"
	}
	"Minimize"
	{
		"ControlName"		"Button"
		"fieldName"		"Minimize"
		"xpos"		"355"
		"ypos"		"8"
		"wide"		"18"
		"tall"		"18"
		"autoResize"		"0"
		"pinCorner"		"0"
		"visible"		"1"
		"enabled"		"1"
		"tabPosition"		"0"
		"labelText"		"0"
		"textAlignment"		"north-west"
		"dulltext"		"0"
		"brighttext"		"0"
		"Default"		"0"
	}
	"Maximize"
	{
		"ControlName"		"Button"
		"fieldName"		"Maximize"
		"xpos"		"355"
		"ypos"		"8"
		"wide"		"18"
		"tall"		"18"
		"autoResize"		"0"
		"pinCorner"		"0"
		"visible"		"0"
		"enabled"		"1"
		"tabPosition"		"0"
		"labelText"		"1"
		"textAlignment"		"north-west"
		"dulltext"		"0"
		"brighttext"		"0"
		"Default"		"0"
	}
	"Close"
	{
		"ControlName"		"Button"
		"fieldName"		"Close"
		"xpos"		"375"
		"ypos"		"8"
		"wide"		"18"
		"tall"		"18"
		"autoResize"		"0"
		"pinCorner"		"0"
		"visible"		"1"
		"enabled"		"1"
		"tabPosition"		"0"
		"labelText"		"r"
		"textAlignment"		"north-west"
		"dulltext"		"0"
		"brighttext"		"0"
		"Default"		"0"
	}
	"SysMenu"
	{
		"ControlName"		"Menu"
		"fieldName"		"SysMenu"
		"xpos"		"0"
		"ypos"		"0"
		"wide"		"64"
		"tall"		"24"
		"autoResize"		"0"
		"pinCorner"		"0"
		"visible"		"0"
		"enabled"		"1"
		"tabPosition"		"0"
	}
	"OK"
	{
		"ControlName"		"Button"
		"fieldName"		"OK"
		"xpos"		"16"
		"ypos"		"143"
		"wide"		"64"
		"tall"		"24"
		"autoResize"		"0"
		"pinCorner"		"0"
		"visible"		"1"
		"enabled"		"1"
		"tabPosition"		"0"
		"labelText"		"OK"
		"textAlignment"		"west"
		"dulltext"		"0"
		"brighttext"		"0"
		"command"		"OK"
		"Default"		"0"
	}
	"Cancel"
	{
		"ControlName"		"Button"
		"fieldName"		"Cancel"
		"xpos"		"85"
		"ypos"		"143"
		"wide"		"64"
		"tall"		"24"
		"autoResize"		"0"
		"pinCorner"		"0"
		"visible"		"1"
		"enabled"		"1"
		"tabPosition"		"0"
		"labelText"		"Cancel"
		"textAlignment"		"west"
		"dulltext"		"0"
		"brighttext"		"0"
		"command"		"Cancel"
		"Default"		"0"
	}
	"actionname"
	{
		"ControlName"		"TextEntry"
		"fieldName"		"ActionName"
		"xpos"		"85"
		"ypos"		"37"
		"wide"		"251"
		"tall"		"24"
		"autoResize"		"0"
		"pinCorner"		"0"
		"visible"		"1"
		"enabled"		"1"
		"tabPosition"		"0"
		"textHidden"		"0"
		"editable"		"1"
		"maxchars"		"-1"
	}
	"actionstart"
	{
		"ControlName"		"TextEntry"
		"fieldName"		"ActionStart"
		"xpos"		"233"
		"ypos"		"70"
		"wide"		"103"
		"tall"		"24"
		"autoResize"		"0"
		"pinCorner"		"0"
		"visible"		"1"
		"enabled"		"1"
		"tabPosition"		"0"
		"textHidden"		"0"
		"editable"		"1"
		"maxchars"		"-1"
	}
	"ActionStartType"
	{
		"ControlName"		"ComboBox"
		"fieldName"		"ActionStartType"
		"xpos"		"84"
		"ypos"		"70"
		"wide"		"143"
		"tall"		"24"
		"autoResize"		"0"
		"pinCorner"		"0"
		"visible"		"1"
		"enabled"		"1"
		"tabPosition"		"0"
		"textHidden"		"0"
		"editable"		"0"
		"maxchars"		"-1"
	}
	"PauseTime"
	{
		"ControlName"		"TextEntry"
		"fieldName"		"PauseTime"
		"xpos"		"102"
		"ypos"		"100"
		"wide"		"64"
		"tall"		"24"
		"autoResize"		"0"
		"pinCorner"		"0"
		"visible"		"1"
		"enabled"		"1"
		"tabPosition"		"0"
		"textHidden"		"0"
		"editable"		"1"
		"maxchars"		"-1"
	}
	"Label1"
	{
		"ControlName"		"Label"
		"fieldName"		"Label1"
		"xpos"		"16"
		"ypos"		"37"
		"wide"		"64"
		"tall"		"24"
		"autoResize"		"0"
		"pinCorner"		"0"
		"visible"		"1"
		"enabled"		"1"
		"tabPosition"		"0"
		"labelText"		"Name:"
		"textAlignment"		"west"
		"dulltext"		"0"
		"brighttext"		"0"
	}
	"Label2"
	{
		"ControlName"		"Label"
		"fieldName"		"Label2"
		"xpos"		"16"
		"ypos"		"70"
		"wide"		"64"
		"tall"		"24"
		"autoResize"		"0"
		"pinCorner"		"0"
		"visible"		"1"
		"enabled"		"1"
		"tabPosition"		"0"
		"labelText"		"Start on:"
		"textAlignment"		"west"
		"dulltext"		"0"
		"brighttext"		"0"
	}
	"topHorizLeft"
	{
		"ControlName"		"Label"
		"fieldName"		"topHorizLeft"
		"xpos"		"40"
		"ypos"		"-11"
		"wide"		"14"
		"tall"		"16"
		"autoResize"		"0"
		"pinCorner"		"0"
		"visible"		"0"
		"enabled"		"1"
		"tabPosition"		"0"
		"labelText"		"94"
		"textAlignment"		"west"
		"dulltext"		"0"
		"brighttext"		"0"
	}
	"topVertLeft"
	{
		"ControlName"		"Label"
		"fieldName"		"topVertLeft"
		"xpos"		"90"
		"ypos"		"-7"
		"wide"		"7"
		"tall"		"16"
		"autoResize"		"0"
		"pinCorner"		"0"
		"visible"		"0"
		"enabled"		"1"
		"tabPosition"		"0"
		"labelText"		"2"
		"textAlignment"		"west"
		"dulltext"		"0"
		"brighttext"		"0"
	}
	"bottomHorizRight"
	{
		"ControlName"		"Label"
		"fieldName"		"bottomHorizRight"
		"xpos"		"439"
		"ypos"		"22"
		"wide"		"7"
		"tall"		"16"
		"autoResize"		"0"
		"pinCorner"		"0"
		"visible"		"0"
		"enabled"		"1"
		"tabPosition"		"0"
		"labelText"		"2"
		"textAlignment"		"west"
		"dulltext"		"0"
		"brighttext"		"0"
	}
	"bottomVertRight"
	{
		"ControlName"		"Label"
		"fieldName"		"bottomVertRight"
		"xpos"		"484"
		"ypos"		"154"
		"wide"		"7"
		"tall"		"16"
		"autoResize"		"0"
		"pinCorner"		"0"
		"visible"		"0"
		"enabled"		"1"
		"tabPosition"		"0"
		"labelText"		"2"
		"textAlignment"		"west"
		"dulltext"		"0"
		"brighttext"		"0"
	}
	"Label3"
	{
		"ControlName"		"Label"
		"fieldName"		"Label3"
		"xpos"		"15"
		"ypos"		"99"
		"wide"		"82"
		"tall"		"24"
		"autoResize"		"0"
		"pinCorner"		"0"
		"visible"		"1"
		"enabled"		"1"
		"tabPosition"		"0"
		"labelText"		"Pause Time:"
		"textAlignment"		"west"
		"dulltext"		"0"
		"brighttext"		"0"
	}
}
