"BugReporterUploadFinished.res"
{
	"FinishDialog"
	{
		"ControlName"		"Frame"
		"fieldName"		"FinishDialog"
		"xpos"		"361"
		"ypos"		"305"
		"wide"		"300"
		"tall"		"140"
		"autoResize"		"0"
		"pinCorner"		"0"
		"visible"		"1"
		"enabled"		"1"
		"tabPosition"		"0"
		"settitlebarvisible"		"1"
		"title"		"Bug Reporter"
	}
	"Close"
	{
		"ControlName"		"Button"
		"fieldName"		"Close"
		"xpos"		"116"
		"ypos"		"96"
		"wide"		"64"
		"tall"		"24"
		"autoResize"		"0"
		"pinCorner"		"0"
		"visible"		"1"
		"enabled"		"1"
		"tabPosition"		"0"
		"labelText"		"#GameUI_OK"
		"textAlignment"		"west"
		"dulltext"		"0"
		"brighttext"		"0"
		"wrap"		"0"
		"Command"		"Close"
		"Default"		"1"
	}
	"InfoLabel"
	{
		"ControlName"		"Label"
		"fieldName"		"InfoLabel"
		"xpos"		"28"
		"ypos"		"38"
		"wide"		"240"
		"tall"		"48"
		"autoResize"		"0"
		"pinCorner"		"0"
		"visible"		"1"
		"enabled"		"1"
		"tabPosition"		"0"
		"labelText"		"#GameUI_Bug_Successful"
		"textAlignment"		"center"
		"dulltext"		"1"
		"brighttext"		"0"
		"wrap"		"1"
	}
}
