"ContentControlDialog.r"
{
	"ContentControlDialog"
	{
		"ControlName"		"Frame"
		"fieldName"		"ContentControlDialog"
		"xpos"		"158"
		"ypos"		"197"
		"wide"		"328"
		"tall"		"250"
		"autoResize"		"0"
		"pinCorner"		"0"
		"visible"		"1"
		"enabled"		"1"
		"tabPosition"		"0"
	}
	"ContentStatus"
	{
		"ControlName"		"Label"
		"fieldName"		"ContentStatus"
		"xpos"		"30"
		"ypos"		"30"
		"wide"		"280"
		"tall"		"28"
		"autoResize"		"0"
		"pinCorner"		"0"
		"visible"		"1"
		"enabled"		"1"
		"tabPosition"		"0"
		"labelText"	"#GameUI_ContentStatusDisabled"
		"textAlignment"		"west"
		"dulltext"		"0"
	}
	"PasswordPrompt"
	{
		"ControlName"		"Label"
		"fieldName"		"PasswordPrompt"
		"xpos"		"32"
		"ypos"		"68"
		"wide"		"166"
		"tall"		"28"
		"autoResize"		"0"
		"pinCorner"		"0"
		"visible"		"1"
		"enabled"		"1"
		"tabPosition"		"0"
		"labelText"		"#GameUI_PasswordPrompt"
		"textAlignment"		"west"
		"dulltext"		"0"
	}
	"PasswordReentryPrompt"
	{
		"ControlName"		"Label"
		"fieldName"		"PasswordReentryPrompt"
		"xpos"		"32"
		"ypos"		"124"
		"wide"		"166"
		"tall"		"28"
		"autoResize"		"0"
		"pinCorner"		"0"
		"visible"		"1"
		"enabled"		"1"
		"tabPosition"		"0"
		"labelText"		"#GameUI_PasswordReentryPrompt"
		"textAlignment"		"west"
		"dulltext"		"0"
	}
	"ContentControlExplain"
	{
		"ControlName"		"Label"
		"fieldName"		"ContentControlExplain"
		"xpos"		"30"
		"ypos"		"182"
		"wide"		"272"
		"tall"		"28"
		"autoResize"		"0"
		"pinCorner"		"0"
		"visible"		"1"
		"enabled"		"1"
		"tabPosition"		"0"
		"labelText"		""
		"textAlignment"		"west"
		"dulltext"		"0"
	}
	"Password"
	{
		"ControlName"		"TextEntry"
		"fieldName"		"Password"
		"xpos"		"32"
		"ypos"		"98"
		"wide"		"166"
		"tall"		"24"
		"autoResize"		"0"
		"pinCorner"		"0"
		"visible"		"1"
		"enabled"		"1"
		"tabPosition"		"1"
		"textHidden"		"1"
		"editable"		"1"
		"maxchars"		"-1"
	}
	"Password2"
	{
		"ControlName"		"TextEntry"
		"fieldName"		"Password2"
		"xpos"		"32"
		"ypos"		"154"
		"wide"		"166"
		"tall"		"24"
		"autoResize"		"0"
		"pinCorner"		"0"
		"visible"		"1"
		"enabled"		"1"
		"tabPosition"		"2"
		"textHidden"		"1"
		"editable"		"1"
		"maxchars"		"-1"
	}
	"Ok"
	{
		"ControlName"		"Button"
		"fieldName"		"Ok"
		"xpos"		"184"
		"ypos"		"216"
		"wide"		"64"
		"tall"		"24"
		"autoResize"		"0"
		"pinCorner"		"0"
		"visible"		"1"
		"enabled"		"1"
		"tabPosition"		"3"
		"labelText"		"#GameUI_OK"
		"textAlignment"		"west"
		"dulltext"		"0"
		"command"		"Ok"
		"default"		"1"
	}
	"Cancel"
	{
		"ControlName"		"Button"
		"fieldName"		"Cancel"
		"xpos"		"256"
		"ypos"		"216"
		"wide"		"64"
		"tall"		"24"
		"autoResize"		"0"
		"pinCorner"		"0"
		"visible"		"1"
		"enabled"		"1"
		"tabPosition"		"4"
		"labelText"		"#GameUI_Cancel"
		"textAlignment"		"west"
		"dulltext"		"0"
		"command"		"Cancel"
		"default"		"0"
	}
	"BuildDialog"
	{
		"ControlName"		"BuildModeDialog"
		"fieldName"		"BuildDialog"
		"xpos"		"504"
		"ypos"		"51"
		"wide"		"285"
		"tall"		"590"
		"autoResize"		"0"
		"pinCorner"		"0"
		"visible"		"1"
		"enabled"		"1"
		"tabPosition"		"0"
	}
}
