"DemoEditorPanel.res"
{
	"DemoEditorPanel"
	{
		"ControlName"		"Frame"
		"fieldName"		"DemoEditorPanel"
		"xpos"		"579"
		"ypos"		"397"
		"wide"		"440"
		"tall"		"300"
		"autoResize"		"0"
		"pinCorner"		"0"
		"visible"		"1"
		"enabled"		"1"
		"tabPosition"		"0"
	}

	"DemoEditSave"
	{
		"ControlName"		"Button"
		"fieldName"		"DemoEditSave"
		"xpos"		"10"
		"ypos"		"267"
		"wide"		"64"
		"tall"		"24"
		"autoResize"		"0"
		"pinCorner"		"0"
		"visible"		"1"
		"enabled"		"0"
		"tabPosition"		"0"
		"labelText"		"Save"
		"textAlignment"		"west"
		"dulltext"		"0"
		"brighttext"		"0"
		"command"		"save"
		"Default"		"0"
	}
	"DemoEditRevert"
	{
		"ControlName"		"Button"
		"fieldName"		"DemoEditRevert"
		"xpos"		"78"
		"ypos"		"267"
		"wide"		"64"
		"tall"		"24"
		"autoResize"		"0"
		"pinCorner"		"0"
		"visible"		"1"
		"enabled"		"0"
		"tabPosition"		"0"
		"labelText"		"Revert"
		"textAlignment"		"west"
		"dulltext"		"0"
		"brighttext"		"0"
		"command"		"revert"
		"Default"		"0"
	}
	"DemoEditOk"
	{
		"ControlName"		"Button"
		"fieldName"		"DemoEditOk"
		"xpos"		"299"
		"ypos"		"267"
		"wide"		"64"
		"tall"		"24"
		"autoResize"		"0"
		"pinCorner"		"0"
		"visible"		"1"
		"enabled"		"1"
		"tabPosition"		"0"
		"labelText"		"OK"
		"textAlignment"		"west"
		"dulltext"		"0"
		"brighttext"		"0"
		"command"		"Close"
		"Default"		"0"
	}
	"DemoEditCancel"
	{
		"ControlName"		"Button"
		"fieldName"		"DemoEditCancel"
		"xpos"		"367"
		"ypos"		"267"
		"wide"		"64"
		"tall"		"24"
		"autoResize"		"0"
		"pinCorner"		"0"
		"visible"		"1"
		"enabled"		"1"
		"tabPosition"		"0"
		"labelText"		"Cancel"
		"textAlignment"		"west"
		"dulltext"		"0"
		"brighttext"		"0"
		"command"		"cancel"
		"Default"		"0"
	}
	"DemoEditNew"
	{
		"ControlName"		"MenuButton"
		"fieldName"		"DemoEditNew"
		"xpos"		"10"
		"ypos"		"59"
		"wide"		"64"
		"tall"		"24"
		"autoResize"		"0"
		"pinCorner"		"0"
		"visible"		"1"
		"enabled"		"1"
		"tabPosition"		"0"
		"labelText"		"New->"
		"textAlignment"		"west"
		"dulltext"		"0"
		"brighttext"		"0"
		"Default"		"0"
	}
	"DemoEditEdit"
	{
		"ControlName"		"Button"
		"fieldName"		"DemoEditEdit"
		"xpos"		"10"
		"ypos"		"88"
		"wide"		"64"
		"tall"		"24"
		"autoResize"		"0"
		"pinCorner"		"0"
		"visible"		"1"
		"enabled"		"0"
		"tabPosition"		"0"
		"labelText"		"Edit..."
		"textAlignment"		"west"
		"dulltext"		"0"
		"brighttext"		"0"
		"command"		"edit"
		"Default"		"0"
	}
	"DemoEditDelete"
	{
		"ControlName"		"Button"
		"fieldName"		"DemoEditDelete"
		"xpos"		"10"
		"ypos"		"117"
		"wide"		"64"
		"tall"		"24"
		"autoResize"		"0"
		"pinCorner"		"0"
		"visible"		"1"
		"enabled"		"0"
		"tabPosition"		"0"
		"labelText"		"Delete"
		"textAlignment"		"west"
		"dulltext"		"0"
		"brighttext"		"0"
		"command"		"delete"
		"Default"		"0"
	}
	"DemoName"
	{
		"ControlName"		"Label"
		"fieldName"		"DemoName"
		"xpos"		"4"
		"ypos"		"34"
		"wide"		"342"
		"tall"		"24"
		"autoResize"		"0"
		"pinCorner"		"0"
		"visible"		"1"
		"enabled"		"1"
		"tabPosition"		"0"
		"labelText"		"yahn.dem"
		"textAlignment"		"west"
		"dulltext"		"0"
		"brighttext"		"0"
	}
	"DemoActionList"
	{
		"ControlName"		"ListPanel"
		"fieldName"		"DemoActionList"
		"xpos"		"81"
		"ypos"		"58"
		"wide"		"349"
		"tall"		"206"
		"autoResize"		"0"
		"pinCorner"		"0"
		"visible"		"1"
		"enabled"		"1"
		"tabPosition"		"0"
	}
}
