"Resource/LoadingDialog.res"
{
	"LoadingDialog"
	{
		"ControlName"		"Frame"
		"fieldName"		"LoadingDialog"
		"xpos"		"322"
		"ypos"		"249"
		"wide"		"500"
		"tall"		"150"
		"autoResize"		"0"
		"pinCorner"		"0"
		"visible"		"1"
		"enabled"		"1"
		"tabPosition"		"0"
	}
	"InfoLabel"
	{
		"ControlName"		"Label"
		"fieldName"		"InfoLabel"
		"xpos"		"20"
		"ypos"		"34"
		"wide"		"460"
		"tall"		"96"
		"autoResize"	"0"
		"pinCorner"		"0"
		"visible"		"1"
		"enabled"		"1"
		"tabPosition"		"0"
		"labelText"		"#GameUI_ParseBaseline"
		"textAlignment"		"north-west"
		"dulltext"		"0"
		"wrap"			"1"
		//"brighttext"	"1"
	}
	"CancelButton"
	{
		"ControlName"		"Button"
		"fieldName"		"CancelButton"
		"xpos"		"214"
		"ypos"		"115"
		"wide"		"72"
		"tall"		"24"
		"autoResize"		"0"
		"pinCorner"		"0"
		"visible"		"1"
		"enabled"		"1"
		"tabPosition"		"0"
		"labelText"		"#GameUI_Cancel"
		"textAlignment"		"west"
		"dulltext"		"0"
		"brighttext"		"0"
		"command"		"Cancel"
		"Default"		"0"
	}
}
