"OptionsSubMouse.res"
{
	"ReverseMouse"
	{
		"ControlName"		"CCvarNegateCheckButton"
		"fieldName"		"ReverseMouse"
		"xpos"		"28"
		"ypos"		"28"
		"wide"		"148"
		"tall"		"28"
		"autoResize"		"0"
		"pinCorner"		"0"
		"visible"		"1"
		"enabled"		"1"
		"tabPosition"		"1"
		"labelText"		"#GameUI_ReverseMouse"
		"textAlignment"		"west"
		"dulltext"		"0"
		"brighttext"		"0"
		"wrap"		"0"
		"Default"		"0"
	}
	"MouseFilter"
	{
		"ControlName"		"CCvarToggleCheckButton"
		"fieldName"		"MouseFilter"
		"xpos"		"28"
		"ypos"		"58"
		"wide"		"148"
		"tall"		"28"
		"autoResize"		"0"
		"pinCorner"		"0"
		"visible"		"1"
		"enabled"		"1"
		"tabPosition"		"2"
		"labelText"		"#GameUI_MouseFilter"
		"textAlignment"		"west"
		"dulltext"		"0"
		"brighttext"		"0"
		"wrap"		"0"
		"Default"		"0"
	}
	"Joystick"
	{
		"ControlName"		"CCvarToggleCheckButton"
		"fieldName"		"Joystick"
		"xpos"		"28"
		"ypos"		"202"
		"wide"		"148"
		"tall"		"28"
		"autoResize"		"0"
		"pinCorner"		"0"
		"visible"		"1"
		"enabled"		"1"
		"tabPosition"		"5"
		"labelText"		"#GameUI_Joystick"
		"textAlignment"		"west"
		"dulltext"		"0"
		"brighttext"		"0"
		"wrap"		"0"
		"Default"		"0"
	}
	"JoystickLook"
	{
		"ControlName"		"CheckButton"
		"fieldName"		"JoystickLook"
		"xpos"		"28"
		"ypos"		"236"
		"wide"		"148"
		"tall"		"28"
		"autoResize"		"0"
		"pinCorner"		"0"
		"visible"		"1"
		"enabled"		"1"
		"tabPosition"		"6"
		"labelText"		"#GameUI_JoystickLook"
		"textAlignment"		"west"
		"dulltext"		"0"
		"brighttext"		"0"
		"wrap"		"0"
		"Default"		"0"
	}
	"HUDQuickInfo"
	{
		"ControlName"		"CCvarToggleCheckButton"
		"fieldName"		"HudQuickInfo"
		"xpos"		"28"
		"ypos"		"171"
		"wide"		"148"
		"tall"		"24"
		"autoResize"		"0"
		"pinCorner"		"0"
		"visible"		"1"
		"enabled"		"1"
		"tabPosition"		"4"
		"labelText"		"#GameUI_HudQuickInfo"
		"textAlignment"		"west"
		"dulltext"		"0"
		"brighttext"		"0"
		"wrap"		"0"
		"Default"		"0"
	}
	"Slider"
	{
		"ControlName"		"CCvarSlider"
		"fieldName"		"Slider"
		"xpos"		"182"
		"ypos"		"95"
		"wide"		"186"
		"tall"		"40"
		"autoResize"		"0"
		"pinCorner"		"0"
		"visible"		"1"
		"enabled"		"1"
		"tabPosition"		"0"
		"leftText"		"#GameUI_Low"
		"rightText"		"#GameUI_High"
	}
	"SensitivityLabel"
	{
		"ControlName"		"TextEntry"
		"fieldName"		"SensitivityLabel"
		"xpos"		"382"
		"ypos"		"94"
		"wide"		"40"
		"tall"		"24"
		"autoResize"		"0"
		"pinCorner"		"0"
		"visible"		"1"
		"enabled"		"1"
		"tabPosition"		"3"
		"textHidden"		"0"
		"editable"		"1"
		"maxchars"		"-1"
		"NumericInputOnly"		"1"
		"unicode"		"0"
	}
	"Reverse Mouse label"
	{
		"ControlName"		"Label"
		"fieldName"		"Reverse Mouse label"
		"xpos"		"182"
		"ypos"		"30"
		"wide"		"280"
		"tall"		"24"
		"autoResize"		"0"
		"pinCorner"		"0"
		"visible"		"1"
		"enabled"		"1"
		"tabPosition"		"0"
		"labelText"		"#GameUI_ReverseMouseLabel"
		"textAlignment"		"west"
		"dulltext"		"0"
		"brighttext"		"0"
		"wrap"		"0"
	}
	"Mouse filter"
	{
		"ControlName"		"Label"
		"fieldName"		"Mouse filter"
		"xpos"		"182"
		"ypos"		"60"
		"wide"		"280"
		"tall"		"24"
		"autoResize"		"0"
		"pinCorner"		"0"
		"visible"		"1"
		"enabled"		"1"
		"tabPosition"		"0"
		"labelText"		"#GameUI_MouseFilterLabel"
		"textAlignment"		"west"
		"dulltext"		"0"
		"brighttext"		"0"
		"wrap"		"0"
	}
	"Joystick label"
	{
		"ControlName"		"Label"
		"fieldName"		"Joystick label"
		"xpos"		"182"
		"ypos"		"204"
		"wide"		"280"
		"tall"		"24"
		"autoResize"		"0"
		"pinCorner"		"0"
		"visible"		"1"
		"enabled"		"1"
		"tabPosition"		"0"
		"labelText"		"#GameUI_JoystickLabel"
		"textAlignment"		"west"
		"dulltext"		"0"
		"brighttext"		"0"
		"wrap"		"0"
	}
	"Label2"
	{
		"ControlName"		"Label"
		"fieldName"		"Label2"
		"xpos"		"182"
		"ypos"		"238"
		"wide"		"280"
		"tall"		"24"
		"autoResize"		"0"
		"pinCorner"		"0"
		"visible"		"1"
		"enabled"		"1"
		"tabPosition"		"0"
		"labelText"		"#GameUI_JoystickLookLabel"
		"textAlignment"		"west"
		"dulltext"		"0"
		"brighttext"		"0"
		"wrap"		"0"
	}
	"Label3"
	{
		"ControlName"		"Label"
		"fieldName"		"Label3"
		"xpos"		"35"
		"ypos"		"93"
		"wide"		"148"
		"tall"		"24"
		"autoResize"		"0"
		"pinCorner"		"0"
		"visible"		"1"
		"enabled"		"1"
		"tabPosition"		"0"
		"labelText"		"#GameUI_MouseSensitivity"
		"textAlignment"		"west"
		"associate"		"Slider"
		"dulltext"		"0"
		"brighttext"		"0"
		"wrap"		"0"
	}
	"Label1"
	{
		"ControlName"		"Label"
		"fieldName"		"Label1"
		"xpos"		"182"
		"ypos"		"171"
		"wide"		"301"
		"tall"		"24"
		"autoResize"		"0"
		"pinCorner"		"0"
		"visible"		"1"
		"enabled"		"1"
		"tabPosition"		"0"
		"labelText"		"#GameUI_HudQuickInfo_Info"
		"textAlignment"		"west"
		"dulltext"		"0"
		"brighttext"		"0"
		"wrap"		"0"
	}
	"Divider1"
	{
		"ControlName"		"Divider"
		"fieldName"		"Divider1"
		"xpos"		"35"
		"ypos"		"148"
		"wide"		"396"
		"tall"		"2"
		"autoResize"		"0"
		"pinCorner"		"0"
		"visible"		"1"
		"enabled"		"1"
		"tabPosition"		"0"
	}
}
