"resource/ToolPerforceQuery.res"
{
	"PerforceQuery"
	{
		"ControlName"		"CPerforceQuery"
		"fieldName"		"PerforceQuery"
		"xpos"		"362"
		"ypos"		"324"
		"wide"		"500"
		"tall"		"120"
		"autoResize"		"0"
		"pinCorner"		"0"
		"visible"		"1"
		"enabled"		"1"
		"tabPosition"		"0"
		"settitlebarvisible"		"1"
		"title"		"#ToolSaveChanges"
	}
	"PerforceLabel"
	{
		"ControlName"		"Label"
		"fieldName"		"PerforceLabel"
		"xpos"		"17"
		"ypos"		"43"
		"wide"		"464"
		"tall"		"24"
		"autoResize"		"0"
		"pinCorner"		"0"
		"visible"		"1"
		"enabled"		"1"
		"tabPosition"		"0"
		"labelText"		"Open for edit?"
		"textAlignment"		"center"
		"dulltext"		"0"
		"brighttext"		"0"
		"wrap"		"0"
	}
	"Yes"
	{
		"ControlName"		"Button"
		"fieldName"		"Yes"
		"xpos"		"70"
		"ypos"		"77"
		"wide"		"64"
		"tall"		"24"
		"autoResize"		"0"
		"pinCorner"		"0"
		"visible"		"1"
		"enabled"		"1"
		"tabPosition"		"0"
		"labelText"		"Yes"
		"textAlignment"		"center"
		"dulltext"		"0"
		"brighttext"		"0"
		"wrap"		"0"
		"Command"		"yes"
		"Default"		"0"
	}
	"No"
	{
		"ControlName"		"Button"
		"fieldName"		"No"
		"xpos"		"210"
		"ypos"		"77"
		"wide"		"64"
		"tall"		"24"
		"autoResize"		"0"
		"pinCorner"		"0"
		"visible"		"1"
		"enabled"		"1"
		"tabPosition"		"0"
		"labelText"		"No"
		"textAlignment"		"center"
		"dulltext"		"0"
		"brighttext"		"0"
		"wrap"		"0"
		"Command"		"no"
		"Default"		"0"
	}
	"Cancel"
	{
		"ControlName"		"Button"
		"fieldName"		"Cancel"
		"xpos"		"350"
		"ypos"		"77"
		"wide"		"64"
		"tall"		"24"
		"autoResize"		"0"
		"pinCorner"		"0"
		"visible"		"1"
		"enabled"		"1"
		"tabPosition"		"0"
		"labelText"		"Cancel"
		"textAlignment"		"center"
		"dulltext"		"0"
		"brighttext"		"0"
		"wrap"		"0"
		"Command"		"cancel"
		"Default"		"0"
	}
}
