"VProfPanel.res"
{
	"VProfPanel"
	{
		"ControlName"		"CVProfPanel"
		"fieldName"		"VProfPanel"
		"xpos"		"335"
		"ypos"		"18"
		"zpos"		"1002"
		"wide"		"1215"
		"tall"		"864"
		"autoResize"		"0"
		"pinCorner"		"0"
		"visible"		"1"
		"enabled"		"1"
		"tabPosition"		"0"
		"settitlebarvisible"		"1"
		"title"		"VProf (running) --  8103 frames sampled"
	}
	"ProfileTree"
	{
		"ControlName"		"CProfileTree"
		"fieldName"		"ProfileTree"
		"xpos"		"1"
		"ypos"		"17"
		"wide"		"387"
		"tall"		"777"
		"autoResize"		"0"
		"pinCorner"		"0"
		"visible"		"1"
		"enabled"		"1"
		"tabPosition"		"0"
	}
	"Hierarchy"
	{
		"ControlName"		"CProfileHierarchyPanel"
		"fieldName"		"Hierarchy"
		"xpos"		"10"
		"ypos"		"60"
		"wide"		"1195"
		"tall"		"794"
		"autoResize"		"3"
		"pinCorner"		"0"
		"visible"		"1"
		"enabled"		"1"
		"tabPosition"		"0"
	}
	"CategoryCombo"
	{
		"ControlName"		"ComboBox"
		"fieldName"		"CategoryCombo"
		"xpos"		"100"
		"ypos"		"30"
		"wide"		"230"
		"tall"		"24"
		"autoResize"		"0"
		"pinCorner"		"0"
		"visible"		"1"
		"enabled"		"1"
		"tabPosition"		"0"
		"textHidden"		"0"
		"editable"		"0"
		"maxchars"		"-1"
		"NumericInputOnly"		"0"
		"unicode"		"0"
	}
	"SortCombo"
	{
		"ControlName"		"ComboBox"
		"fieldName"		"SortCombo"
		"xpos"		"737"
		"ypos"		"30"
		"wide"		"149"
		"tall"		"24"
		"autoResize"		"0"
		"pinCorner"		"0"
		"visible"		"1"
		"enabled"		"1"
		"tabPosition"		"0"
		"textHidden"		"0"
		"editable"		"0"
		"maxchars"		"-1"
		"NumericInputOnly"		"0"
		"unicode"		"0"
	}
	"HierarchicalViewSelection"
	{
		"ControlName"		"CheckButton"
		"fieldName"		"HierarchicalViewSelection"
		"xpos"		"475"
		"ypos"		"30"
		"wide"		"151"
		"tall"		"24"
		"autoResize"		"0"
		"pinCorner"		"0"
		"visible"		"1"
		"enabled"		"1"
		"tabPosition"		"0"
		"labelText"		"Hierarchical View"
		"textAlignment"		"west"
		"dulltext"		"0"
		"brighttext"		"0"
		"wrap"		"0"
		"Default"		"0"
	}
	"RedoSorting"
	{
		"ControlName"		"Button"
		"fieldName"		"RedoSorting"
		"xpos"		"629"
		"ypos"		"30"
		"wide"		"105"
		"tall"		"24"
		"autoResize"		"0"
		"pinCorner"		"0"
		"visible"		"1"
		"enabled"		"1"
		"tabPosition"		"0"
		"labelText"		"Redo Sorting"
		"textAlignment"		"west"
		"dulltext"		"0"
		"brighttext"		"0"
		"wrap"		"0"
		"Command"		"redosort"
		"Default"		"1"
	}
	"VerboseCheckbox"
	{
		"ControlName"		"CheckButton"
		"fieldName"		"VerboseCheckbox"
		"xpos"		"337"
		"ypos"		"30"
		"wide"		"135"
		"tall"		"24"
		"autoResize"		"0"
		"pinCorner"		"0"
		"visible"		"1"
		"enabled"		"1"
		"tabPosition"		"0"
		"labelText"		"Verbose"
		"textAlignment"		"west"
		"dulltext"		"0"
		"brighttext"		"0"
		"wrap"		"0"
		"Default"		"0"
	}
	"PlaybackLabel"
	{
		"ControlName"		"Label"
		"fieldName"		"PlaybackLabel"
		"xpos"		"10"
		"ypos"		"65"
		"wide"		"200"
		"tall"		"24"
		"autoResize"		"0"
		"pinCorner"		"0"
		"visible"		"0"
		"enabled"		"1"
		"tabPosition"		"0"
		"labelText"		"Playback (tick 0)"
		"textAlignment"		"west"
		"dulltext"		"0"
		"brighttext"		"0"
		"wrap"		"0"
	}
	"StepForward"
	{
		"ControlName"		"Button"
		"fieldName"		"StepForward"
		"xpos"		"220"
		"ypos"		"65"
		"wide"		"80"
		"tall"		"24"
		"autoResize"		"0"
		"pinCorner"		"0"
		"visible"		"0"
		"enabled"		"1"
		"tabPosition"		"0"
		"labelText"		"Forward"
		"textAlignment"		"center"
		"dulltext"		"0"
		"brighttext"		"0"
		"wrap"		"0"
		"Command"		"StepForward"
		"Default"		"0"
	}
	"StepBack"
	{
		"ControlName"		"Button"
		"fieldName"		"StepBack"
		"xpos"		"310"
		"ypos"		"65"
		"wide"		"80"
		"tall"		"24"
		"autoResize"		"0"
		"pinCorner"		"0"
		"visible"		"0"
		"enabled"		"1"
		"tabPosition"		"0"
		"labelText"		"Back"
		"textAlignment"		"center"
		"dulltext"		"0"
		"brighttext"		"0"
		"wrap"		"0"
		"Command"		"StepBack"
		"Default"		"0"
	}
	"GotoButton"
	{
		"ControlName"		"Button"
		"fieldName"		"GotoButton"
		"xpos"		"620"
		"ypos"		"65"
		"wide"		"80"
		"tall"		"24"
		"autoResize"		"0"
		"pinCorner"		"0"
		"visible"		"0"
		"enabled"		"1"
		"tabPosition"		"0"
		"labelText"		"<-- goto"
		"textAlignment"		"center"
		"dulltext"		"0"
		"brighttext"		"0"
		"wrap"		"0"
		"Command"		"GotoButton"
		"Default"		"0"
	}
	"PlaybackScroll"
	{
		"ControlName"		"ScrollBar"
		"fieldName"		"PlaybackScroll"
		"xpos"		"400"
		"ypos"		"65"
		"wide"		"200"
		"tall"		"24"
		"autoResize"		"0"
		"pinCorner"		"0"
		"visible"		"0"
		"enabled"		"1"
		"tabPosition"		"0"
	}
	"CategoryLabel"
	{
		"ControlName"		"Label"
		"fieldName"		"CategoryLabel"
		"xpos"		"10"
		"ypos"		"30"
		"wide"		"80"
		"tall"		"24"
		"autoResize"		"0"
		"pinCorner"		"0"
		"visible"		"1"
		"enabled"		"1"
		"tabPosition"		"0"
		"labelText"		"Category :"
		"textAlignment"		"east"
		"dulltext"		"0"
		"brighttext"		"0"
		"wrap"		"0"
	}
}
