"Demo/WizardPanelDemo.res"
{
	"UserNameEdit"
	{
		"ControlName"		"TextEntry"
		"fieldName"		"UserNameEdit"
		"xpos"		"30"
		"ypos"		"130"
		"wide"		"240"
		"tall"		"20"
		"autoResize"		"0"
		"pinCorner"		"0"
		"visible"		"1"
		"enabled"		"1"
		"tabPosition"		"2"
		"textHidden"		"0"
		"editable"		"1"
		"maxchars"		"-1"
	}
	"FirstNameEdit"
	{
		"ControlName"		"TextEntry"
		"fieldName"		"FirstNameEdit"
		"xpos"		"30"
		"ypos"		"180"
		"wide"		"240"
		"tall"		"20"
		"autoResize"		"0"
		"pinCorner"		"0"
		"visible"		"1"
		"enabled"		"1"
		"tabPosition"		"3"
		"textHidden"		"0"
		"editable"		"1"
		"maxchars"		"-1"
	}
	"LastNameEdit"
	{
		"ControlName"		"TextEntry"
		"fieldName"		"LastNameEdit"
		"xpos"		"30"
		"ypos"		"230"
		"wide"		"240"
		"tall"		"20"
		"autoResize"		"0"
		"pinCorner"		"0"
		"visible"		"1"
		"enabled"		"1"
		"tabPosition"		"4"
		"textHidden"		"0"
		"editable"		"1"
		"maxchars"		"-1"
	}
	"EmailEdit"
	{
		"ControlName"		"TextEntry"
		"fieldName"		"EmailEdit"
		"xpos"		"30"
		"ypos"		"80"
		"wide"		"310"
		"tall"		"20"
		"autoResize"		"0"
		"pinCorner"		"0"
		"visible"		"1"
		"enabled"		"1"
		"tabPosition"		"1"
		"textHidden"		"0"
		"editable"		"1"
		"maxchars"		"-1"
	}
	"LastNameText"
	{
		"ControlName"		"Label"
		"fieldName"		"LastNameText"
		"xpos"		"30"
		"ypos"		"160"
		"wide"		"64"
		"tall"		"20"
		"autoResize"		"0"
		"pinCorner"		"0"
		"visible"		"1"
		"enabled"		"1"
		"tabPosition"		"0"
		"labelText"		"First Name"
		"textAlignment"		"west"
		"associate"		"FirstNameEdit"
		"dulltext"		"0"
		"brighttext"		"0"
	}
	"FirstNameText"
	{
		"ControlName"		"Label"
		"fieldName"		"FirstNameText"
		"xpos"		"30"
		"ypos"		"110"
		"wide"		"64"
		"tall"		"20"
		"autoResize"		"0"
		"pinCorner"		"0"
		"visible"		"1"
		"enabled"		"1"
		"tabPosition"		"0"
		"labelText"		"User Name"
		"textAlignment"		"west"
		"associate"		"UserNameEdit"
		"dulltext"		"0"
		"brighttext"		"0"
	}
	"UserNameText"
	{
		"ControlName"		"Label"
		"fieldName"		"UserNameText"
		"xpos"		"30"
		"ypos"		"210"
		"wide"		"64"
		"tall"		"20"
		"autoResize"		"0"
		"pinCorner"		"0"
		"visible"		"1"
		"enabled"		"1"
		"tabPosition"		"0"
		"labelText"		"Last Name"
		"textAlignment"		"west"
		"associate"		"LastNameEdit"
		"dulltext"		"0"
		"brighttext"		"0"
	}
}
